<?xml version="1.0" encoding="UTF-8" standalone="no"?>
<!-- Created with Inkscape (http://www.inkscape.org/) -->

<svg
   xmlns:dc="http://purl.org/dc/elements/1.1/"
   xmlns:cc="http://creativecommons.org/ns#"
   xmlns:rdf="http://www.w3.org/1999/02/22-rdf-syntax-ns#"
   xmlns:svg="http://www.w3.org/2000/svg"
   xmlns="http://www.w3.org/2000/svg"
   xmlns:sodipodi="http://sodipodi.sourceforge.net/DTD/sodipodi-0.dtd"
   xmlns:inkscape="http://www.inkscape.org/namespaces/inkscape"
   width="106.05598mm"
   height="21.583666mm"
   viewBox="0 0 375.78889 76.477555"
   id="svg15581"
   version="1.1"
   inkscape:version="0.91 r13725"
   sodipodi:docname="NL_growth.svg">
  <sodipodi:namedview
     id="base"
     pagecolor="#ffffff"
     bordercolor="#666666"
     borderopacity="1.0"
     inkscape:pageopacity="0.0"
     inkscape:pageshadow="2"
     inkscape:zoom="2.8"
     inkscape:cx="189.29764"
     inkscape:cy="44.004455"
     inkscape:document-units="mm"
     inkscape:current-layer="layer1"
     showgrid="true"
     inkscape:window-width="1600"
     inkscape:window-height="837"
     inkscape:window-x="-8"
     inkscape:window-y="-8"
     inkscape:window-maximized="1"
     inkscape:snap-midpoints="true"
     inkscape:object-nodes="true"
     fit-margin-top="0"
     fit-margin-left="0"
     fit-margin-right="0"
     fit-margin-bottom="0"
     showguides="false">
    <inkscape:grid
       originy="-929.37338"
       originx="-24.156467"
       spacingy="1.7716536"
       spacingx="1.7716536"
       units="mm"
       id="grid16291"
       type="xygrid" />
    <sodipodi:guide
       id="guide4526"
       orientation="0,1"
       position="206.15848,112.17409" />
  </sodipodi:namedview>
  <defs
     id="defs15583">
    <marker
       style="overflow:visible"
       id="marker11348-7-43-1"
       refX="0"
       refY="0"
       orient="auto"
       inkscape:stockid="Arrow2Mend">
      <path
         transform="scale(-0.6,-0.6)"
         d="M 8.7185878,4.0337352 -2.2072895,0.01601326 8.7185884,-4.0017078 c -1.7454984,2.3720609 -1.7354408,5.6174519 -6e-7,8.035443 z"
         style="font-size:12px;fill-rule:evenodd;stroke-width:0.625;stroke-linejoin:round"
         id="path11350-77-2-6"
         inkscape:connector-curvature="0" />
    </marker>
    <marker
       style="overflow:visible"
       id="marker11348-7-43"
       refX="0"
       refY="0"
       orient="auto"
       inkscape:stockid="Arrow2Mend">
      <path
         transform="scale(-0.6,-0.6)"
         d="M 8.7185878,4.0337352 -2.2072895,0.01601326 8.7185884,-4.0017078 c -1.7454984,2.3720609 -1.7354408,5.6174519 -6e-7,8.035443 z"
         style="font-size:12px;fill-rule:evenodd;stroke-width:0.625;stroke-linejoin:round"
         id="path11350-77-2"
         inkscape:connector-curvature="0" />
    </marker>
  </defs>
  <metadata
     id="metadata15586">
    <rdf:RDF>
      <cc:Work
         rdf:about="">
        <dc:format>image/svg+xml</dc:format>
        <dc:type
           rdf:resource="http://purl.org/dc/dcmitype/StillImage" />
        <dc:title />
      </cc:Work>
    </rdf:RDF>
  </metadata>
  <g
     transform="translate(-24.156469,-46.511272)"
     id="layer1"
     inkscape:groupmode="layer"
     inkscape:label="Layer 1">
    <path
       sodipodi:nodetypes="cc"
       inkscape:connector-curvature="0"
       id="path24267-8-9"
       d="m 302.95276,104.52755 95.66928,0"
       style="fill:none;stroke:#000000;stroke-width:0.99921262;stroke-linecap:butt;stroke-linejoin:miter;stroke-miterlimit:4;stroke-dasharray:none;stroke-opacity:1;marker-end:url(#marker11348-7-43)" />
    <path
       sodipodi:nodetypes="cc"
       inkscape:connector-curvature="0"
       id="path24267-8-9-8"
       d="m 26.574804,104.52755 0,-56.692947"
       style="fill:none;stroke:#000000;stroke-width:0.99921262;stroke-linecap:butt;stroke-linejoin:miter;stroke-miterlimit:4;stroke-dasharray:none;stroke-opacity:1;marker-end:url(#marker11348-7-43-1)" />
    <path
       inkscape:connector-curvature="0"
       id="path15371"
       d="m 97.440945,104.52755 0,-35.433093 17.716535,0 0,35.433093"
       style="fill:#000000;fill-rule:evenodd;stroke:#000000;stroke-width:1px;stroke-linecap:butt;stroke-linejoin:miter;stroke-opacity:1;fill-opacity:0.58823532" />
    <path
       inkscape:connector-curvature="0"
       id="path15373"
       d="m 106.29921,104.52755 0,-44.291293"
       style="fill:none;fill-rule:evenodd;stroke:#000000;stroke-width:1px;stroke-linecap:butt;stroke-linejoin:miter;stroke-opacity:1" />
    <path
       inkscape:connector-curvature="0"
       id="path15373-9"
       d="m 186.02361,104.52755 0,-44.291293"
       style="fill:none;fill-rule:evenodd;stroke:#000000;stroke-width:1px;stroke-linecap:butt;stroke-linejoin:miter;stroke-opacity:1" />
    <path
       inkscape:connector-curvature="0"
       id="path15373-5-5"
       d="m 106.29921,104.52755 0,-44.291293"
       style="fill:none;fill-rule:evenodd;stroke:#000000;stroke-width:1px;stroke-linecap:butt;stroke-linejoin:miter;stroke-opacity:1" />
    <path
       inkscape:connector-curvature="0"
       id="path15373-94"
       d="m 265.74802,104.52755 0,-44.291293"
       style="fill:none;fill-rule:evenodd;stroke:#000000;stroke-width:1px;stroke-linecap:butt;stroke-linejoin:miter;stroke-opacity:1" />
    <path
       inkscape:connector-curvature="0"
       id="path15373-5-6"
       d="m 186.02362,104.52755 0,-44.291293"
       style="fill:none;fill-rule:evenodd;stroke:#000000;stroke-width:1px;stroke-linecap:butt;stroke-linejoin:miter;stroke-opacity:1" />
    <path
       inkscape:connector-curvature="0"
       id="path15373-2"
       d="m 345.47243,104.52755 0,-44.291293"
       style="fill:none;fill-rule:evenodd;stroke:#000000;stroke-width:1px;stroke-linecap:butt;stroke-linejoin:miter;stroke-opacity:1" />
    <path
       inkscape:connector-curvature="0"
       id="path15373-5-67"
       d="m 265.74803,104.52755 0,-44.291293"
       style="fill:none;fill-rule:evenodd;stroke:#000000;stroke-width:1px;stroke-linecap:butt;stroke-linejoin:miter;stroke-opacity:1" />
    <path
       inkscape:connector-curvature="0"
       id="path15424"
       d="m 203.74016,104.52755 0,-26.574793 -35.43307,0 0,26.574793"
       style="fill:#0000ff;fill-rule:evenodd;stroke:#0000ff;stroke-width:1px;stroke-linecap:butt;stroke-linejoin:miter;stroke-opacity:1;fill-opacity:0.58823532" />
    <path
       inkscape:connector-curvature="0"
       id="path15426"
       d="m 26.574806,104.52753 0,-26.574801 17.716528,2.8e-5 0,26.574793"
       style="fill:#0000ff;fill-rule:evenodd;stroke:#0000ff;stroke-width:1px;stroke-linecap:butt;stroke-linejoin:miter;stroke-opacity:1;fill-opacity:0.58823532"
       sodipodi:nodetypes="cccc" />
    <path
       inkscape:connector-curvature="0"
       id="path15428"
       d="m 292.32284,104.52753 0,-17.716534 -53.14961,6.1e-5 0,17.716493"
       style="fill:#ff0000;fill-rule:evenodd;stroke:#ff0000;stroke-width:1px;stroke-linecap:butt;stroke-linejoin:miter;stroke-opacity:1;fill-opacity:0.58823532"
       sodipodi:nodetypes="cccc" />
    <path
       inkscape:connector-curvature="0"
       id="path15428-9"
       d="m 132.87402,104.52753 0,-17.716534 -53.149615,6.1e-5 0,17.716493"
       style="fill:#ff0000;fill-rule:evenodd;stroke:#ff0000;stroke-width:1px;stroke-linecap:butt;stroke-linejoin:miter;stroke-opacity:1;fill-opacity:0.58823532"
       sodipodi:nodetypes="cccc" />
    <path
       inkscape:connector-curvature="0"
       id="path15452"
       d="m 310.03937,104.52755 0,-8.858193 70.86614,0 0,8.858193"
       style="fill:#0000ff;fill-rule:evenodd;stroke:#0000ff;stroke-width:1px;stroke-linecap:butt;stroke-linejoin:miter;stroke-opacity:1;fill-opacity:0.58823532" />
    <path
       inkscape:connector-curvature="0"
       id="path15452-2"
       d="m 150.59055,104.52755 0,-8.858193 70.86614,0 0,8.858193"
       style="fill:#0000ff;fill-rule:evenodd;stroke:#0000ff;stroke-width:1px;stroke-linecap:butt;stroke-linejoin:miter;stroke-opacity:1;fill-opacity:0.58823532" />
    <path
       inkscape:connector-curvature="0"
       id="path15475"
       d="m 62.007874,104.52755 0,-8.858193 -35.433068,-9.3e-5 0,8.858266"
       style="fill:#0000ff;fill-rule:evenodd;stroke:#0000ff;stroke-width:1px;stroke-linecap:butt;stroke-linejoin:miter;stroke-opacity:1;fill-opacity:0.58823532"
       sodipodi:nodetypes="cccc" />
    <path
       inkscape:connector-curvature="0"
       id="path15373-5"
       d="m 26.574804,104.52755 0,-44.291293"
       style="fill:none;fill-rule:evenodd;stroke:#000000;stroke-width:1px;stroke-linecap:butt;stroke-linejoin:miter;stroke-opacity:1" />
    <path
       style="fill:none;stroke:#000000;stroke-width:1px;stroke-linecap:butt;stroke-linejoin:miter;stroke-opacity:1"
       d="m 74.409444,100.98426 c -3.5433,7.08659 -3.5433,7.08659 -3.5433,7.08659"
       id="path5550-1-7-6"
       inkscape:connector-curvature="0" />
    <path
       style="fill:none;stroke:#000000;stroke-width:1px;stroke-linecap:butt;stroke-linejoin:miter;stroke-opacity:1"
       d="m 70.866144,100.98426 c -3.54331,7.08659 -3.54331,7.08659 -3.54331,7.08659"
       id="path5552-1-9-5"
       inkscape:connector-curvature="0" />
    <path
       style="fill:none;stroke:#000000;stroke-width:1px;stroke-linecap:butt;stroke-linejoin:miter;stroke-opacity:1"
       d="m 145.2756,100.98426 c -3.5433,7.08659 -3.5433,7.08659 -3.5433,7.08659"
       id="path5550-1-7-6-4"
       inkscape:connector-curvature="0" />
    <path
       style="fill:none;stroke:#000000;stroke-width:1px;stroke-linecap:butt;stroke-linejoin:miter;stroke-opacity:1"
       d="m 141.7323,100.98426 c -3.54331,7.08659 -3.54331,7.08659 -3.54331,7.08659"
       id="path5552-1-9-5-8"
       inkscape:connector-curvature="0" />
    <path
       style="fill:none;stroke:#000000;stroke-width:1px;stroke-linecap:butt;stroke-linejoin:miter;stroke-opacity:1"
       d="m 233.85827,100.98426 c -3.5433,7.08659 -3.5433,7.08659 -3.5433,7.08659"
       id="path5550-1-7-6-9"
       inkscape:connector-curvature="0" />
    <path
       style="fill:none;stroke:#000000;stroke-width:1px;stroke-linecap:butt;stroke-linejoin:miter;stroke-opacity:1"
       d="m 230.31497,100.98426 c -3.54331,7.08659 -3.54331,7.08659 -3.54331,7.08659"
       id="path5552-1-9-5-5"
       inkscape:connector-curvature="0" />
    <path
       style="fill:none;stroke:#000000;stroke-width:1px;stroke-linecap:butt;stroke-linejoin:miter;stroke-opacity:1"
       d="m 304.72441,100.98426 c -3.5433,7.08659 -3.5433,7.08659 -3.5433,7.08659"
       id="path5550-1-7-6-40"
       inkscape:connector-curvature="0" />
    <path
       style="fill:none;stroke:#000000;stroke-width:1px;stroke-linecap:butt;stroke-linejoin:miter;stroke-opacity:1"
       d="m 301.18111,100.98426 c -3.54331,7.08659 -3.54331,7.08659 -3.54331,7.08659"
       id="path5552-1-9-5-3"
       inkscape:connector-curvature="0" />
    <path
       inkscape:connector-curvature="0"
       id="path15529"
       d="m 232.08661,104.52755 67.32284,0"
       style="fill:none;fill-rule:evenodd;stroke:#000000;stroke-width:1px;stroke-linecap:butt;stroke-linejoin:miter;stroke-opacity:1" />
    <path
       inkscape:connector-curvature="0"
       id="path15531"
       d="m 143.50394,104.52755 85.03936,0"
       style="fill:none;fill-rule:evenodd;stroke:#000000;stroke-width:1px;stroke-linecap:butt;stroke-linejoin:miter;stroke-opacity:1" />
    <path
       inkscape:connector-curvature="0"
       id="path15533"
       d="m 72.637794,104.52755 67.322836,0"
       style="fill:none;fill-rule:evenodd;stroke:#000000;stroke-width:1px;stroke-linecap:butt;stroke-linejoin:miter;stroke-opacity:1" />
    <path
       inkscape:connector-curvature="0"
       id="path15535"
       d="m 26.574804,104.52755 42.51968,0"
       style="fill:none;fill-rule:evenodd;stroke:#000000;stroke-width:1px;stroke-linecap:butt;stroke-linejoin:miter;stroke-opacity:1" />
    <g
       id="g4310"
       transform="translate(-84.889414,72.49961)">
      <path
         id="path4225"
         d="m 189.87536,-19.3417 0.86,0 c 0.2,0 0.3,0 0.3,-0.2 0,-0.11 -0.1,-0.11 -0.27,-0.11 l -0.83,0 0.21,-1.13 c 0.04,-0.21 0.18,-0.91 0.24,-1.03 0.09,-0.19 0.26,-0.34 0.47,-0.34 0.04,0 0.3,0 0.49,0.18 -0.44,0.04 -0.54,0.39 -0.54,0.53 0,0.23 0.18,0.35 0.37,0.35 0.25,0 0.54,-0.22 0.54,-0.59 0,-0.46 -0.45,-0.69 -0.86,-0.69 -0.34,0 -0.97,0.18 -1.27,1.16 -0.06,0.21 -0.08,0.31 -0.32,1.56 l -0.69,0 c -0.19,0 -0.3,0 -0.3,0.19 0,0.12 0.09,0.12 0.28,0.12 l 0.66,0 -0.75,3.93 c -0.18,0.96 -0.35,1.86 -0.86,1.86 -0.05,0 -0.29,0 -0.48,-0.18 0.46,-0.03 0.54,-0.38 0.54,-0.53 0,-0.23 -0.17,-0.35 -0.36,-0.35 -0.26,0 -0.55,0.22 -0.55,0.6 0,0.44 0.44,0.68 0.85,0.68 0.54,0 0.94,-0.58 1.12,-0.96 0.32,-0.63 0.55,-1.83 0.56,-1.9 z"
         inkscape:connector-curvature="0"
         style="font-style:normal;font-variant:normal;font-weight:normal;font-stretch:normal;letter-spacing:normal;word-spacing:normal;text-anchor:start;fill:#000000;fill-opacity:1;fill-rule:evenodd;stroke:#000000;stroke-width:0;stroke-linecap:butt;stroke-linejoin:miter;stroke-miterlimit:10.43299961;stroke-dasharray:none;stroke-dashoffset:0;stroke-opacity:1" />
      <path
         id="path4227"
         d="m 194.15536,-16.5317 -0.02,0 -0.03,0.01 -0.02,0 -0.02,0.01 -0.02,0.01 -0.02,0 -0.01,0.01 -0.02,0.01 -0.02,0.01 -0.01,0.01 -0.02,0.01 -0.01,0.02 -0.02,0.01 -0.01,0.01 -0.01,0.01 -0.01,0.02 -0.01,0.01 -0.01,0.02 -0.01,0.01 -0.01,0.02 -0.01,0.01 0,0.02 -0.01,0.01 0,0.02 -0.01,0.01 0,0.02 -0.01,0.01 0,0.02 0,0.01 0,0.02 0,0.01 0,0.01 c 0,0.19 0.14,0.26 0.27,0.26 0.15,0 0.39,-0.11 0.39,-0.44 0,-0.48 -0.54,-0.61 -0.91,-0.61 -1.05,0 -2.02,0.96 -2.02,1.93 0,0.6 0.42,1.21 1.29,1.21 1.18,0 1.73,-0.69 1.73,-0.79 0,-0.04 -0.06,-0.12 -0.12,-0.12 -0.04,0 -0.06,0.02 -0.11,0.07 -0.55,0.64 -1.36,0.64 -1.49,0.64 -0.5,0 -0.72,-0.34 -0.72,-0.77 0,-0.2 0.1,-0.96 0.46,-1.44 0.26,-0.34 0.63,-0.53 0.98,-0.53 0.09,0 0.43,0.01 0.6,0.21 z"
         inkscape:connector-curvature="0"
         style="font-style:normal;font-variant:normal;font-weight:normal;font-stretch:normal;letter-spacing:normal;word-spacing:normal;text-anchor:start;fill:#000000;fill-opacity:1;fill-rule:evenodd;stroke:#000000;stroke-width:0;stroke-linecap:butt;stroke-linejoin:miter;stroke-miterlimit:10.43299961;stroke-dasharray:none;stroke-dashoffset:0;stroke-opacity:1" />
    </g>
    <g
       id="g4314"
       transform="translate(7.4599999,60.53961)">
      <path
         id="path4229"
         d="m 172.54536,-4.1717 1.06,-1.03 c 1.55,-1.37 2.15,-1.9 2.15,-2.9 0,-1.13 -0.9,-1.93 -2.11,-1.93 -1.13,0 -1.87,0.92 -1.87,1.8 0,0.56 0.5,0.56 0.53,0.56 0.17,0 0.52,-0.12 0.52,-0.53 0,-0.26 -0.18,-0.51 -0.53,-0.51 -0.08,0 -0.1,0 -0.13,0 0.23,-0.64 0.77,-1.01 1.35,-1.01 0.9,0 1.33,0.81 1.33,1.62 0,0.8 -0.5,1.58 -1.04,2.2 l -1.91,2.12 c -0.12,0.11 -0.12,0.13 -0.12,0.37 l 3.7,0 0.28,-1.73 -0.25,0 c -0.05,0.3 -0.12,0.74 -0.22,0.89 -0.07,0.08 -0.73,0.08 -0.95,0.08 z"
         inkscape:connector-curvature="0"
         style="font-style:normal;font-variant:normal;font-weight:normal;font-stretch:normal;letter-spacing:normal;word-spacing:normal;text-anchor:start;fill:#000000;fill-opacity:1;fill-rule:evenodd;stroke:#000000;stroke-width:0;stroke-linecap:butt;stroke-linejoin:miter;stroke-miterlimit:10.43299961;stroke-dasharray:none;stroke-dashoffset:0;stroke-opacity:1" />
      <path
         id="path4231"
         d="m 179.91536,-7.3817 0.86,0 c 0.2,0 0.3,0 0.3,-0.2 0,-0.11 -0.1,-0.11 -0.27,-0.11 l -0.83,0 0.21,-1.13 c 0.04,-0.21 0.18,-0.92 0.24,-1.04 0.09,-0.19 0.26,-0.34 0.47,-0.34 0.04,0 0.3,0 0.48,0.18 -0.43,0.04 -0.53,0.39 -0.53,0.54 0,0.23 0.18,0.35 0.37,0.35 0.25,0 0.54,-0.22 0.54,-0.6 0,-0.46 -0.46,-0.68 -0.86,-0.68 -0.34,0 -0.97,0.18 -1.27,1.16 -0.06,0.21 -0.09,0.31 -0.33,1.56 l -0.68,0 c -0.19,0 -0.3,0 -0.3,0.19 0,0.12 0.09,0.12 0.28,0.12 l 0.66,0 -0.75,3.92 c -0.18,0.96 -0.35,1.87 -0.87,1.87 -0.04,0 -0.29,0 -0.47,-0.18 0.45,-0.03 0.54,-0.39 0.54,-0.54 0,-0.23 -0.18,-0.34 -0.37,-0.34 -0.25,0 -0.54,0.21 -0.54,0.59 0,0.45 0.43,0.69 0.84,0.69 0.55,0 0.95,-0.59 1.13,-0.97 0.32,-0.62 0.54,-1.82 0.55,-1.89 z"
         inkscape:connector-curvature="0"
         style="font-style:normal;font-variant:normal;font-weight:normal;font-stretch:normal;letter-spacing:normal;word-spacing:normal;text-anchor:start;fill:#000000;fill-opacity:1;fill-rule:evenodd;stroke:#000000;stroke-width:0;stroke-linecap:butt;stroke-linejoin:miter;stroke-miterlimit:10.43299961;stroke-dasharray:none;stroke-dashoffset:0;stroke-opacity:1" />
      <path
         id="path4233"
         d="m 184.19536,-4.5817 -0.03,0.01 -0.02,0 -0.02,0.01 -0.02,0 -0.02,0.01 -0.02,0.01 -0.02,0.01 -0.01,0.01 -0.02,0.01 -0.02,0.01 -0.01,0.01 -0.02,0.01 -0.01,0.01 -0.01,0.02 -0.01,0.01 -0.01,0.01 -0.01,0.02 -0.01,0.01 -0.01,0.02 -0.01,0.01 -0.01,0.02 -0.01,0.01 0,0.02 -0.01,0.01 0,0.02 -0.01,0.01 0,0.02 0,0.01 -0.01,0.02 0,0.01 0,0.02 0,0.01 c 0,0.19 0.15,0.26 0.27,0.26 0.16,0 0.4,-0.11 0.4,-0.45 0,-0.47 -0.54,-0.6 -0.92,-0.6 -1.04,0 -2.01,0.96 -2.01,1.92 0,0.6 0.42,1.21 1.29,1.21 1.17,0 1.72,-0.68 1.72,-0.78 0,-0.04 -0.06,-0.12 -0.11,-0.12 -0.05,0 -0.06,0.01 -0.11,0.07 -0.55,0.64 -1.36,0.64 -1.49,0.64 -0.5,0 -0.72,-0.34 -0.72,-0.77 0,-0.21 0.09,-0.96 0.46,-1.44 0.26,-0.34 0.62,-0.54 0.97,-0.54 0.1,0 0.43,0.02 0.61,0.21 z"
         inkscape:connector-curvature="0"
         style="font-style:normal;font-variant:normal;font-weight:normal;font-stretch:normal;letter-spacing:normal;word-spacing:normal;text-anchor:start;fill:#000000;fill-opacity:1;fill-rule:evenodd;stroke:#000000;stroke-width:0;stroke-linecap:butt;stroke-linejoin:miter;stroke-miterlimit:10.43299961;stroke-dasharray:none;stroke-dashoffset:0;stroke-opacity:1" />
    </g>
    <g
       id="g4319"
       transform="translate(86.132673,48.58961)">
      <path
         id="path4235"
         d="m 174.16536,5.0483 0.08,-0.03 0.07,-0.03 0.08,-0.03 0.07,-0.03 0.07,-0.04 0.06,-0.04 0.07,-0.04 0.06,-0.04 0.07,-0.04 0.06,-0.05 0.06,-0.05 0.05,-0.05 0.06,-0.05 0.05,-0.05 0.05,-0.06 0.05,-0.05 0.04,-0.06 0.04,-0.06 0.04,-0.06 0.04,-0.06 0.04,-0.07 0.03,-0.06 0.03,-0.07 0.02,-0.06 0.03,-0.07 0.02,-0.07 0.02,-0.07 0.01,-0.07 0.01,-0.07 0.01,-0.07 0,-0.08 0.01,-0.07 c 0,-0.82 -0.88,-1.37 -1.84,-1.37 -1,0 -1.76,0.6 -1.76,1.35 0,0.33 0.22,0.52 0.51,0.52 0.31,0 0.51,-0.22 0.51,-0.51 0,-0.5 -0.47,-0.5 -0.62,-0.5 0.31,-0.48 0.97,-0.61 1.33,-0.61 0.4,0 0.95,0.22 0.95,1.11 0,0.12 -0.02,0.69 -0.28,1.13 -0.3,0.48 -0.64,0.51 -0.88,0.52 -0.08,0.01 -0.32,0.03 -0.39,0.03 -0.08,0.01 -0.15,0.02 -0.15,0.12 0,0.11 0.07,0.11 0.24,0.11 l 0.44,0 c 0.81,0 1.18,0.67 1.18,1.65 0,1.35 -0.69,1.63 -1.12,1.63 -0.43,0 -1.18,-0.16 -1.53,-0.75 0.35,0.05 0.66,-0.17 0.66,-0.55 0,-0.35 -0.27,-0.55 -0.56,-0.55 -0.24,0 -0.55,0.14 -0.55,0.57 0,0.91 0.92,1.56 2.01,1.56 1.21,0 2.12,-0.9 2.12,-1.91 0,-0.82 -0.63,-1.59 -1.67,-1.8 z"
         inkscape:connector-curvature="0"
         style="font-style:normal;font-variant:normal;font-weight:normal;font-stretch:normal;letter-spacing:normal;word-spacing:normal;text-anchor:start;fill:#000000;fill-opacity:1;fill-rule:evenodd;stroke:#000000;stroke-width:0;stroke-linecap:butt;stroke-linejoin:miter;stroke-miterlimit:10.43299961;stroke-dasharray:none;stroke-dashoffset:0;stroke-opacity:1" />
      <path
         id="path4237"
         d="m 179.91536,4.5683 0.86,0 c 0.2,0 0.3,0 0.3,-0.2 0,-0.11 -0.1,-0.11 -0.27,-0.11 l -0.83,0 0.21,-1.13 c 0.04,-0.21 0.18,-0.91 0.24,-1.03 0.09,-0.19 0.26,-0.34 0.47,-0.34 0.04,0 0.3,0 0.48,0.18 -0.43,0.04 -0.53,0.39 -0.53,0.54 0,0.22 0.18,0.34 0.37,0.34 0.25,0 0.54,-0.22 0.54,-0.59 0,-0.46 -0.46,-0.69 -0.86,-0.69 -0.34,0 -0.97,0.18 -1.27,1.16 -0.06,0.21 -0.09,0.31 -0.33,1.56 l -0.68,0 c -0.19,0 -0.3,0 -0.3,0.19 0,0.12 0.09,0.12 0.28,0.12 l 0.66,0 -0.75,3.92 c -0.18,0.97 -0.35,1.87 -0.87,1.87 -0.04,0 -0.29,0 -0.47,-0.18 0.45,-0.03 0.54,-0.38 0.54,-0.53 0,-0.23 -0.18,-0.35 -0.37,-0.35 -0.25,0 -0.54,0.22 -0.54,0.6 0,0.44 0.43,0.68 0.84,0.68 0.55,0 0.95,-0.59 1.13,-0.96 0.32,-0.63 0.54,-1.83 0.55,-1.9 z"
         inkscape:connector-curvature="0"
         style="font-style:normal;font-variant:normal;font-weight:normal;font-stretch:normal;letter-spacing:normal;word-spacing:normal;text-anchor:start;fill:#000000;fill-opacity:1;fill-rule:evenodd;stroke:#000000;stroke-width:0;stroke-linecap:butt;stroke-linejoin:miter;stroke-miterlimit:10.43299961;stroke-dasharray:none;stroke-dashoffset:0;stroke-opacity:1" />
      <path
         id="path4239"
         d="m 184.19536,7.3783 -0.03,0 -0.02,0.01 -0.02,0 -0.02,0.01 -0.02,0.01 -0.02,0.01 -0.02,0 -0.01,0.01 -0.02,0.01 -0.02,0.01 -0.01,0.02 -0.02,0.01 -0.01,0.01 -0.01,0.01 -0.01,0.02 -0.01,0.01 -0.01,0.01 -0.01,0.02 -0.01,0.01 -0.01,0.02 -0.01,0.01 -0.01,0.02 0,0.01 -0.01,0.02 0,0.01 -0.01,0.02 0,0.01 0,0.02 -0.01,0.01 0,0.02 0,0.01 0,0.02 c 0,0.18 0.15,0.25 0.27,0.25 0.16,0 0.4,-0.11 0.4,-0.44 0,-0.47 -0.54,-0.61 -0.92,-0.61 -1.04,0 -2.01,0.96 -2.01,1.93 0,0.6 0.42,1.21 1.29,1.21 1.17,0 1.72,-0.69 1.72,-0.79 0,-0.04 -0.06,-0.11 -0.11,-0.11 -0.05,0 -0.06,0.01 -0.11,0.07 -0.55,0.64 -1.36,0.64 -1.49,0.64 -0.5,0 -0.72,-0.35 -0.72,-0.78 0,-0.2 0.09,-0.96 0.46,-1.44 0.26,-0.34 0.62,-0.53 0.97,-0.53 0.1,0 0.43,0.01 0.61,0.21 z"
         inkscape:connector-curvature="0"
         style="font-style:normal;font-variant:normal;font-weight:normal;font-stretch:normal;letter-spacing:normal;word-spacing:normal;text-anchor:start;fill:#000000;fill-opacity:1;fill-rule:evenodd;stroke:#000000;stroke-width:0;stroke-linecap:butt;stroke-linejoin:miter;stroke-miterlimit:10.43299961;stroke-dasharray:none;stroke-dashoffset:0;stroke-opacity:1" />
    </g>
    <g
       id="g4324"
       transform="translate(166.59208,36.62961)">
      <path
         id="path4241"
         d="m 174.20536,18.8583 0,0.87 c 0,0.35 -0.02,0.46 -0.75,0.46 l -0.21,0 0,0.31 c 0.41,-0.03 0.92,-0.03 1.34,-0.03 0.42,0 0.95,0 1.35,0.03 l 0,-0.31 -0.21,0 c -0.73,0 -0.75,-0.11 -0.75,-0.46 l 0,-0.87 0.99,0 0,-0.31 -0.99,0 0,-4.52 c 0,-0.2 0,-0.25 -0.16,-0.25 -0.09,0 -0.12,0 -0.2,0.11 l -3.05,4.66 0.27,0 2.43,-3.7 0,3.7 -2.43,0 -0.27,0 0,0.31 z"
         inkscape:connector-curvature="0"
         style="font-style:normal;font-variant:normal;font-weight:normal;font-stretch:normal;letter-spacing:normal;word-spacing:normal;text-anchor:start;fill:#000000;fill-opacity:1;fill-rule:evenodd;stroke:#000000;stroke-width:0;stroke-linecap:butt;stroke-linejoin:miter;stroke-miterlimit:10.43299961;stroke-dasharray:none;stroke-dashoffset:0;stroke-opacity:1" />
      <path
         id="path4243"
         d="m 179.91536,16.5283 0.86,0 c 0.2,0 0.3,0 0.3,-0.2 0,-0.11 -0.1,-0.11 -0.27,-0.11 l -0.83,0 0.21,-1.13 c 0.04,-0.21 0.18,-0.92 0.24,-1.04 0.09,-0.19 0.26,-0.33 0.47,-0.33 0.04,0 0.3,0 0.48,0.17 -0.43,0.04 -0.53,0.39 -0.53,0.54 0,0.23 0.18,0.35 0.37,0.35 0.25,0 0.54,-0.22 0.54,-0.6 0,-0.45 -0.46,-0.68 -0.86,-0.68 -0.34,0 -0.97,0.18 -1.27,1.16 -0.06,0.21 -0.09,0.31 -0.33,1.56 l -0.68,0 c -0.19,0 -0.3,0 -0.3,0.19 0,0.12 0.09,0.12 0.28,0.12 l 0.66,0 -0.75,3.92 c -0.18,0.96 -0.35,1.87 -0.87,1.87 -0.04,0 -0.29,0 -0.47,-0.18 0.45,-0.03 0.54,-0.39 0.54,-0.54 0,-0.23 -0.18,-0.35 -0.37,-0.35 -0.25,0 -0.54,0.22 -0.54,0.6 0,0.45 0.43,0.69 0.84,0.69 0.55,0 0.95,-0.59 1.13,-0.97 0.32,-0.62 0.54,-1.83 0.55,-1.89 z"
         inkscape:connector-curvature="0"
         style="font-style:normal;font-variant:normal;font-weight:normal;font-stretch:normal;letter-spacing:normal;word-spacing:normal;text-anchor:start;fill:#000000;fill-opacity:1;fill-rule:evenodd;stroke:#000000;stroke-width:0;stroke-linecap:butt;stroke-linejoin:miter;stroke-miterlimit:10.43299961;stroke-dasharray:none;stroke-dashoffset:0;stroke-opacity:1" />
      <path
         id="path4245"
         d="m 184.19536,19.3283 -0.03,0.01 -0.02,0 -0.02,0.01 -0.02,0 -0.02,0.01 -0.02,0.01 -0.02,0.01 -0.01,0.01 -0.02,0.01 -0.02,0.01 -0.01,0.01 -0.02,0.01 -0.01,0.02 -0.01,0.01 -0.01,0.01 -0.01,0.01 -0.01,0.02 -0.01,0.01 -0.01,0.02 -0.01,0.01 -0.01,0.02 -0.01,0.01 0,0.02 -0.01,0.01 0,0.02 -0.01,0.01 0,0.02 0,0.01 -0.01,0.02 0,0.01 0,0.02 0,0.01 c 0,0.19 0.15,0.26 0.27,0.26 0.16,0 0.4,-0.11 0.4,-0.45 0,-0.47 -0.54,-0.6 -0.92,-0.6 -1.04,0 -2.01,0.96 -2.01,1.92 0,0.6 0.42,1.21 1.29,1.21 1.17,0 1.72,-0.68 1.72,-0.78 0,-0.04 -0.06,-0.12 -0.11,-0.12 -0.05,0 -0.06,0.01 -0.11,0.07 -0.55,0.64 -1.36,0.64 -1.49,0.64 -0.5,0 -0.72,-0.34 -0.72,-0.77 0,-0.2 0.09,-0.96 0.46,-1.44 0.26,-0.34 0.62,-0.54 0.97,-0.54 0.1,0 0.43,0.02 0.61,0.21 z"
         inkscape:connector-curvature="0"
         style="font-style:normal;font-variant:normal;font-weight:normal;font-stretch:normal;letter-spacing:normal;word-spacing:normal;text-anchor:start;fill:#000000;fill-opacity:1;fill-rule:evenodd;stroke:#000000;stroke-width:0;stroke-linecap:butt;stroke-linejoin:miter;stroke-miterlimit:10.43299961;stroke-dasharray:none;stroke-dashoffset:0;stroke-opacity:1" />
    </g>
    <g
       transform="translate(-45.610276,80.490613)"
       id="g4503">
      <path
         style="font-style:normal;font-variant:normal;font-weight:normal;font-stretch:normal;letter-spacing:normal;word-spacing:normal;text-anchor:start;fill:#000000;fill-opacity:1;fill-rule:evenodd;stroke:#000000;stroke-width:0;stroke-linecap:butt;stroke-linejoin:miter;stroke-miterlimit:10.43299961;stroke-dasharray:none;stroke-dashoffset:0;stroke-opacity:1"
         inkscape:connector-curvature="0"
         d="m 149.67445,36.48821 0.86,0 c 0.2,0 0.3,0 0.3,-0.2 0,-0.11 -0.1,-0.11 -0.27,-0.11 l -0.83,0 0.21,-1.13 c 0.04,-0.21 0.18,-0.91 0.24,-1.03 0.09,-0.19 0.26,-0.34 0.47,-0.34 0.04,0 0.3,0 0.49,0.18 -0.44,0.04 -0.54,0.39 -0.54,0.53 0,0.23 0.18,0.35 0.37,0.35 0.25,0 0.54,-0.22 0.54,-0.59 0,-0.46 -0.45,-0.69 -0.86,-0.69 -0.34,0 -0.97,0.18 -1.27,1.16 -0.06,0.21 -0.08,0.31 -0.32,1.56 l -0.69,0 c -0.19,0 -0.3,0 -0.3,0.19 0,0.12 0.09,0.12 0.28,0.12 l 0.66,0 -0.75,3.93 c -0.18,0.96 -0.35,1.86 -0.86,1.86 -0.05,0 -0.29,0 -0.48,-0.18 0.46,-0.03 0.54,-0.38 0.54,-0.53 0,-0.23 -0.17,-0.35 -0.36,-0.35 -0.26,0 -0.55,0.22 -0.55,0.6 0,0.44 0.44,0.68 0.85,0.68 0.54,0 0.94,-0.58 1.12,-0.96 0.32,-0.63 0.55,-1.83 0.56,-1.9 z"
         id="path4387" />
      <path
         style="font-style:normal;font-variant:normal;font-weight:normal;font-stretch:normal;letter-spacing:normal;word-spacing:normal;text-anchor:start;fill:#000000;fill-opacity:1;fill-rule:evenodd;stroke:#000000;stroke-width:0;stroke-linecap:butt;stroke-linejoin:miter;stroke-miterlimit:10.43299961;stroke-dasharray:none;stroke-dashoffset:0;stroke-opacity:1"
         inkscape:connector-curvature="0"
         d="m 152.74445,37.33821 0,0 0,0 0,0 0,0 0,0 0,0 0,-0.01 0,0 0,0 0,0 0.01,-0.01 0,0 0,0 0,-0.01 0,0 0,-0.01 0,0 0,-0.01 0.01,-0.01 0,0 0,-0.01 0,0 0,0 0,-0.01 0,0 0,-0.01 0,0 0,0 0,-0.01 0,0 0,0 0,0 0.01,0 0,0 0,-0.01 0,0 0,0 0,0 0,0 0,0 0,0 c 0,-0.03 -0.03,-0.1 -0.11,-0.1 -0.14,0 -0.72,0.06 -0.9,0.07 -0.05,0.01 -0.15,0.02 -0.15,0.16 0,0.1 0.1,0.1 0.18,0.1 0.34,0 0.34,0.05 0.34,0.1 0,0.05 -0.07,0.33 -0.12,0.49 l -0.16,0.64 c -0.06,0.24 -0.44,1.76 -0.45,1.85 -0.04,0.17 -0.04,0.26 -0.04,0.34 0,0.7 0.44,1.15 1.02,1.15 l 0.01,-0.2 c -0.34,0 -0.54,-0.29 -0.54,-0.71 0,-0.25 0.07,-0.49 0.26,-1.27 0.04,-0.14 0.04,-0.15 0.18,-0.3 0.26,-0.31 0.57,-0.46 0.82,-0.46 0.28,0 0.51,0.2 0.51,0.67 0,0.29 -0.15,1 -0.36,1.4 -0.17,0.34 -0.51,0.67 -0.87,0.67 l 0,0 -0.01,0.2 c 0.87,0 1.8,-0.95 1.8,-1.98 0,-0.81 -0.56,-1.16 -1.04,-1.16 -0.37,0 -0.67,0.2 -0.88,0.38 z"
         id="path4389" />
      <path
         style="font-style:normal;font-variant:normal;font-weight:normal;font-stretch:normal;letter-spacing:normal;word-spacing:normal;text-anchor:start;fill:#000000;fill-opacity:1;fill-rule:evenodd;stroke:#000000;stroke-width:0;stroke-linecap:butt;stroke-linejoin:miter;stroke-miterlimit:10.43299961;stroke-dasharray:none;stroke-dashoffset:0;stroke-opacity:1"
         inkscape:connector-curvature="0"
         d="m 158.07445,39.73821 0,-0.02 0.01,-0.02 0,-0.02 0.01,-0.02 0,-0.02 0.01,-0.02 0.01,-0.04 0.01,-0.04 0.01,-0.05 0.01,-0.04 0.01,-0.02 0,-0.02 0.01,-0.03 0,-0.02 0.01,-0.02 0,-0.01 0,-0.02 0.01,-0.02 0,-0.02 0.01,-0.01 0,-0.01 0,-0.02 0,-0.01 0.01,-0.01 0,-0.01 0,-0.01 0,0 0,0 0,0 0,-0.01 c 0,-0.13 -0.11,-0.22 -0.23,-0.22 -0.13,0 -0.26,0.09 -0.3,0.2 -0.02,0.06 -0.09,0.35 -0.14,0.52 -0.1,0.4 -0.1,0.42 -0.2,0.81 -0.09,0.38 -0.11,0.43 -0.11,0.63 0.02,0.14 -0.03,0.28 -0.2,0.48 -0.09,0.12 -0.23,0.23 -0.46,0.23 -0.28,0 -0.63,-0.09 -0.63,-0.64 0,-0.35 0.19,-0.87 0.33,-1.22 0.12,-0.31 0.15,-0.37 0.15,-0.49 0,-0.33 -0.29,-0.59 -0.66,-0.59 -0.71,0 -1.02,0.95 -1.02,1.07 0,0.09 0.1,0.09 0.12,0.09 0.1,0 0.1,-0.04 0.12,-0.11 0.18,-0.58 0.48,-0.85 0.76,-0.85 0.12,0 0.17,0.07 0.17,0.24 0,0.16 -0.06,0.31 -0.1,0.4 -0.39,1.02 -0.39,1.16 -0.39,1.37 0,0.82 0.74,0.93 1.12,0.93 0.13,0 0.47,0 0.79,-0.47 0.15,0.32 0.54,0.47 0.96,0.47 0.62,0 0.93,-0.54 1.07,-0.82 0.3,-0.59 0.49,-1.46 0.49,-1.78 0,-0.52 -0.3,-0.55 -0.35,-0.55 -0.18,0 -0.38,0.19 -0.38,0.37 0,0.12 0.07,0.18 0.12,0.22 0.17,0.14 0.26,0.33 0.26,0.56 0,0.09 -0.3,1.8 -1.18,1.8 -0.56,0 -0.56,-0.5 -0.56,-0.62 0,-0.18 0.02,-0.29 0.12,-0.69 z"
         id="path4391" />
    </g>
    <g
       transform="translate(11.489173,80.490613)"
       id="g4508">
      <path
         style="font-style:normal;font-variant:normal;font-weight:normal;font-stretch:normal;letter-spacing:normal;word-spacing:normal;text-anchor:start;fill:#000000;fill-opacity:1;fill-rule:evenodd;stroke:#000000;stroke-width:0;stroke-linecap:butt;stroke-linejoin:miter;stroke-miterlimit:10.43299961;stroke-dasharray:none;stroke-dashoffset:0;stroke-opacity:1"
         inkscape:connector-curvature="0"
         d="m 165.44445,39.69821 1.05,-1.02 c 1.55,-1.37 2.15,-1.91 2.15,-2.9 0,-1.14 -0.9,-1.93 -2.11,-1.93 -1.12,0 -1.86,0.91 -1.86,1.8 0,0.55 0.5,0.55 0.53,0.55 0.17,0 0.51,-0.12 0.51,-0.52 0,-0.26 -0.17,-0.52 -0.52,-0.52 -0.08,0 -0.1,0 -0.13,0.01 0.23,-0.65 0.76,-1.01 1.34,-1.01 0.91,0 1.34,0.8 1.34,1.62 0,0.79 -0.5,1.58 -1.05,2.19 l -1.91,2.13 c -0.11,0.11 -0.11,0.13 -0.11,0.36 l 3.69,0 0.28,-1.72 -0.25,0 c -0.05,0.3 -0.12,0.73 -0.22,0.88 -0.07,0.08 -0.72,0.08 -0.94,0.08 z"
         id="path4393" />
      <path
         style="font-style:normal;font-variant:normal;font-weight:normal;font-stretch:normal;letter-spacing:normal;word-spacing:normal;text-anchor:start;fill:#000000;fill-opacity:1;fill-rule:evenodd;stroke:#000000;stroke-width:0;stroke-linecap:butt;stroke-linejoin:miter;stroke-miterlimit:10.43299961;stroke-dasharray:none;stroke-dashoffset:0;stroke-opacity:1"
         inkscape:connector-curvature="0"
         d="m 172.81445,36.48821 0.85,0 c 0.2,0 0.3,0 0.3,-0.2 0,-0.11 -0.1,-0.11 -0.27,-0.11 l -0.82,0 0.2,-1.13 c 0.04,-0.21 0.18,-0.91 0.24,-1.03 0.09,-0.19 0.26,-0.34 0.47,-0.34 0.04,0 0.3,0 0.49,0.18 -0.44,0.04 -0.54,0.39 -0.54,0.53 0,0.23 0.18,0.35 0.37,0.35 0.26,0 0.55,-0.22 0.55,-0.59 0,-0.46 -0.46,-0.69 -0.87,-0.69 -0.34,0 -0.96,0.18 -1.26,1.16 -0.06,0.21 -0.09,0.31 -0.33,1.56 l -0.69,0 c -0.19,0 -0.29,0 -0.29,0.19 0,0.12 0.08,0.12 0.27,0.12 l 0.66,0 -0.75,3.93 c -0.18,0.96 -0.34,1.86 -0.86,1.86 -0.04,0 -0.29,0 -0.48,-0.18 0.46,-0.03 0.55,-0.38 0.55,-0.53 0,-0.23 -0.18,-0.35 -0.37,-0.35 -0.26,0 -0.55,0.22 -0.55,0.6 0,0.44 0.44,0.68 0.85,0.68 0.54,0 0.94,-0.58 1.12,-0.96 0.32,-0.63 0.55,-1.83 0.56,-1.9 z"
         id="path4395" />
      <path
         style="font-style:normal;font-variant:normal;font-weight:normal;font-stretch:normal;letter-spacing:normal;word-spacing:normal;text-anchor:start;fill:#000000;fill-opacity:1;fill-rule:evenodd;stroke:#000000;stroke-width:0;stroke-linecap:butt;stroke-linejoin:miter;stroke-miterlimit:10.43299961;stroke-dasharray:none;stroke-dashoffset:0;stroke-opacity:1"
         inkscape:connector-curvature="0"
         d="m 175.87445,37.33821 0,0 0,0 0,0 0,0 0,0 0,0 0,-0.01 0,0 0.01,0 0,0 0,-0.01 0,0 0,0 0,-0.01 0,0 0,-0.01 0,0 0,-0.01 0.01,-0.01 0,0 0,-0.01 0,0 0,0 0,-0.01 0,0 0,-0.01 0,0 0.01,0 0,-0.01 0,0 0,0 0,0 0,0 0,0 0,-0.01 0,0 0,0 0,0 0,0 0,0 0,0 c 0,-0.03 -0.03,-0.1 -0.11,-0.1 -0.14,0 -0.72,0.06 -0.89,0.07 -0.06,0.01 -0.16,0.02 -0.16,0.16 0,0.1 0.1,0.1 0.18,0.1 0.34,0 0.34,0.05 0.34,0.1 0,0.05 -0.07,0.33 -0.11,0.49 l -0.16,0.64 c -0.07,0.24 -0.45,1.76 -0.46,1.85 -0.04,0.17 -0.04,0.26 -0.04,0.34 0,0.7 0.45,1.15 1.03,1.15 l 0,-0.2 c -0.34,0 -0.53,-0.29 -0.53,-0.71 0,-0.25 0.06,-0.49 0.25,-1.27 0.05,-0.14 0.05,-0.15 0.18,-0.3 0.26,-0.31 0.58,-0.46 0.83,-0.46 0.27,0 0.51,0.2 0.51,0.67 0,0.29 -0.16,1 -0.37,1.4 -0.16,0.34 -0.51,0.67 -0.87,0.67 l 0,0 0,0.2 c 0.87,0 1.79,-0.95 1.79,-1.98 0,-0.81 -0.56,-1.16 -1.04,-1.16 -0.36,0 -0.67,0.2 -0.88,0.38 z"
         id="path4397" />
      <path
         style="font-style:normal;font-variant:normal;font-weight:normal;font-stretch:normal;letter-spacing:normal;word-spacing:normal;text-anchor:start;fill:#000000;fill-opacity:1;fill-rule:evenodd;stroke:#000000;stroke-width:0;stroke-linecap:butt;stroke-linejoin:miter;stroke-miterlimit:10.43299961;stroke-dasharray:none;stroke-dashoffset:0;stroke-opacity:1"
         inkscape:connector-curvature="0"
         d="m 181.20445,39.73821 0,-0.02 0.01,-0.02 0,-0.02 0.01,-0.02 0,-0.02 0.01,-0.02 0.01,-0.04 0.01,-0.04 0.01,-0.05 0.01,-0.04 0.01,-0.02 0,-0.02 0.01,-0.03 0,-0.02 0.01,-0.02 0,-0.01 0.01,-0.02 0,-0.02 0,-0.02 0.01,-0.01 0,-0.01 0,-0.02 0.01,-0.01 0,-0.01 0,-0.01 0,-0.01 0,0 0,0 0,0 0,-0.01 c 0,-0.13 -0.11,-0.22 -0.23,-0.22 -0.13,0 -0.26,0.09 -0.3,0.2 -0.02,0.06 -0.09,0.35 -0.14,0.52 -0.09,0.4 -0.09,0.42 -0.2,0.81 -0.09,0.38 -0.1,0.43 -0.11,0.63 0.03,0.14 -0.03,0.28 -0.2,0.48 -0.09,0.12 -0.23,0.23 -0.46,0.23 -0.27,0 -0.63,-0.09 -0.63,-0.64 0,-0.35 0.2,-0.87 0.34,-1.22 0.11,-0.31 0.14,-0.37 0.14,-0.49 0,-0.33 -0.28,-0.59 -0.66,-0.59 -0.7,0 -1.02,0.95 -1.02,1.07 0,0.09 0.1,0.09 0.12,0.09 0.1,0 0.11,-0.04 0.13,-0.11 0.17,-0.58 0.47,-0.85 0.75,-0.85 0.12,0 0.17,0.07 0.17,0.24 0,0.16 -0.06,0.31 -0.09,0.4 -0.4,1.02 -0.4,1.16 -0.4,1.37 0,0.82 0.74,0.93 1.12,0.93 0.13,0 0.47,0 0.79,-0.47 0.16,0.32 0.54,0.47 0.96,0.47 0.63,0 0.93,-0.54 1.07,-0.82 0.3,-0.59 0.49,-1.46 0.49,-1.78 0,-0.52 -0.3,-0.55 -0.35,-0.55 -0.18,0 -0.38,0.19 -0.38,0.37 0,0.12 0.07,0.18 0.12,0.22 0.17,0.14 0.26,0.33 0.26,0.56 0,0.09 -0.29,1.8 -1.18,1.8 -0.56,0 -0.56,-0.5 -0.56,-0.62 0,-0.18 0.03,-0.29 0.12,-0.69 z"
         id="path4399" />
    </g>
    <g
       transform="translate(67.093583,80.490613)"
       id="g4514">
      <path
         style="font-style:normal;font-variant:normal;font-weight:normal;font-stretch:normal;letter-spacing:normal;word-spacing:normal;text-anchor:start;fill:#000000;fill-opacity:1;fill-rule:evenodd;stroke:#000000;stroke-width:0;stroke-linecap:butt;stroke-linejoin:miter;stroke-miterlimit:10.43299961;stroke-dasharray:none;stroke-dashoffset:0;stroke-opacity:1"
         inkscape:connector-curvature="0"
         d="m 190.19445,36.96821 0.08,-0.03 0.07,-0.03 0.07,-0.03 0.08,-0.03 0.06,-0.04 0.07,-0.04 0.07,-0.04 0.06,-0.04 0.07,-0.04 0.06,-0.05 0.05,-0.05 0.06,-0.05 0.05,-0.05 0.06,-0.05 0.05,-0.06 0.04,-0.05 0.05,-0.06 0.04,-0.06 0.04,-0.06 0.04,-0.06 0.03,-0.07 0.04,-0.06 0.02,-0.07 0.03,-0.06 0.02,-0.07 0.03,-0.07 0.01,-0.07 0.02,-0.07 0.01,-0.07 0.01,-0.07 0,-0.08 0,-0.07 c 0,-0.81 -0.87,-1.37 -1.83,-1.37 -1,0 -1.76,0.59 -1.76,1.35 0,0.33 0.22,0.52 0.51,0.52 0.31,0 0.51,-0.22 0.51,-0.51 0,-0.5 -0.47,-0.5 -0.62,-0.5 0.31,-0.48 0.97,-0.61 1.32,-0.61 0.41,0 0.96,0.22 0.96,1.11 0,0.12 -0.02,0.7 -0.28,1.13 -0.3,0.48 -0.64,0.51 -0.88,0.52 -0.08,0.01 -0.32,0.03 -0.39,0.03 -0.08,0.01 -0.15,0.02 -0.15,0.12 0,0.11 0.07,0.11 0.24,0.11 l 0.43,0 c 0.82,0 1.19,0.67 1.19,1.65 0,1.35 -0.69,1.64 -1.13,1.64 -0.42,0 -1.17,-0.17 -1.52,-0.76 0.35,0.05 0.66,-0.17 0.66,-0.55 0,-0.35 -0.27,-0.55 -0.56,-0.55 -0.24,0 -0.56,0.14 -0.56,0.57 0,0.91 0.93,1.56 2.01,1.56 1.22,0 2.12,-0.9 2.12,-1.91 0,-0.82 -0.62,-1.59 -1.66,-1.8 z"
         id="path4401" />
      <path
         style="font-style:normal;font-variant:normal;font-weight:normal;font-stretch:normal;letter-spacing:normal;word-spacing:normal;text-anchor:start;fill:#000000;fill-opacity:1;fill-rule:evenodd;stroke:#000000;stroke-width:0;stroke-linecap:butt;stroke-linejoin:miter;stroke-miterlimit:10.43299961;stroke-dasharray:none;stroke-dashoffset:0;stroke-opacity:1"
         inkscape:connector-curvature="0"
         d="m 195.94445,36.48821 0.85,0 c 0.2,0 0.3,0 0.3,-0.2 0,-0.11 -0.1,-0.11 -0.27,-0.11 l -0.82,0 0.21,-1.13 c 0.04,-0.21 0.18,-0.91 0.24,-1.03 0.09,-0.19 0.26,-0.34 0.46,-0.34 0.04,0 0.3,0 0.49,0.18 -0.44,0.04 -0.54,0.39 -0.54,0.53 0,0.23 0.18,0.35 0.37,0.35 0.26,0 0.55,-0.22 0.55,-0.59 0,-0.46 -0.46,-0.69 -0.87,-0.69 -0.34,0 -0.96,0.18 -1.26,1.16 -0.06,0.21 -0.09,0.31 -0.33,1.56 l -0.69,0 c -0.18,0 -0.29,0 -0.29,0.19 0,0.12 0.09,0.12 0.27,0.12 l 0.66,0 -0.74,3.93 c -0.18,0.96 -0.35,1.86 -0.87,1.86 -0.04,0 -0.29,0 -0.48,-0.18 0.46,-0.03 0.55,-0.38 0.55,-0.53 0,-0.23 -0.18,-0.35 -0.37,-0.35 -0.26,0 -0.55,0.22 -0.55,0.6 0,0.44 0.44,0.68 0.85,0.68 0.55,0 0.94,-0.58 1.12,-0.96 0.32,-0.63 0.55,-1.83 0.56,-1.9 z"
         id="path4403" />
      <path
         style="font-style:normal;font-variant:normal;font-weight:normal;font-stretch:normal;letter-spacing:normal;word-spacing:normal;text-anchor:start;fill:#000000;fill-opacity:1;fill-rule:evenodd;stroke:#000000;stroke-width:0;stroke-linecap:butt;stroke-linejoin:miter;stroke-miterlimit:10.43299961;stroke-dasharray:none;stroke-dashoffset:0;stroke-opacity:1"
         inkscape:connector-curvature="0"
         d="m 199.00445,37.33821 0,0 0,0 0.01,0 0,0 0,0 0,0 0,-0.01 0,0 0,0 0,0 0,-0.01 0,0 0,0 0,-0.01 0,0 0.01,-0.01 0,0 0,-0.01 0,-0.01 0,0 0,-0.01 0,0 0,0 0.01,-0.01 0,0 0,-0.01 0,0 0,0 0,-0.01 0,0 0,0 0,0 0,0 0,0 0,-0.01 0,0 0,0 0,0 0,0 0,0 0,0 c 0,-0.03 -0.03,-0.1 -0.11,-0.1 -0.14,0 -0.72,0.06 -0.89,0.07 -0.06,0.01 -0.15,0.02 -0.15,0.16 0,0.1 0.09,0.1 0.18,0.1 0.33,0 0.33,0.05 0.33,0.1 0,0.05 -0.07,0.33 -0.11,0.49 l -0.16,0.64 c -0.06,0.24 -0.45,1.76 -0.46,1.85 -0.03,0.17 -0.03,0.26 -0.03,0.34 0,0.7 0.44,1.15 1.02,1.15 l 0.01,-0.2 c -0.35,0 -0.54,-0.29 -0.54,-0.71 0,-0.25 0.06,-0.49 0.26,-1.27 0.04,-0.14 0.04,-0.15 0.17,-0.3 0.27,-0.31 0.58,-0.46 0.83,-0.46 0.27,0 0.51,0.2 0.51,0.67 0,0.29 -0.15,1 -0.36,1.4 -0.17,0.34 -0.52,0.67 -0.87,0.67 l 0,0 -0.01,0.2 c 0.87,0 1.79,-0.95 1.79,-1.98 0,-0.81 -0.56,-1.16 -1.04,-1.16 -0.36,0 -0.67,0.2 -0.88,0.38 z"
         id="path4405" />
      <path
         style="font-style:normal;font-variant:normal;font-weight:normal;font-stretch:normal;letter-spacing:normal;word-spacing:normal;text-anchor:start;fill:#000000;fill-opacity:1;fill-rule:evenodd;stroke:#000000;stroke-width:0;stroke-linecap:butt;stroke-linejoin:miter;stroke-miterlimit:10.43299961;stroke-dasharray:none;stroke-dashoffset:0;stroke-opacity:1"
         inkscape:connector-curvature="0"
         d="m 204.33445,39.73821 0.01,-0.02 0,-0.02 0.01,-0.02 0,-0.02 0.01,-0.02 0,-0.02 0.01,-0.04 0.01,-0.04 0.02,-0.05 0.01,-0.04 0,-0.02 0.01,-0.02 0,-0.03 0.01,-0.02 0,-0.02 0.01,-0.01 0,-0.02 0,-0.02 0.01,-0.02 0,-0.01 0,-0.01 0.01,-0.02 0,-0.01 0,-0.01 0,-0.01 0,-0.01 0,0 0,0 0,0 0,-0.01 c 0,-0.13 -0.11,-0.22 -0.23,-0.22 -0.13,0 -0.25,0.09 -0.29,0.2 -0.03,0.06 -0.1,0.35 -0.14,0.52 -0.1,0.4 -0.1,0.42 -0.21,0.81 -0.09,0.38 -0.1,0.43 -0.11,0.63 0.03,0.14 -0.03,0.28 -0.19,0.48 -0.09,0.12 -0.23,0.23 -0.47,0.23 -0.27,0 -0.63,-0.09 -0.63,-0.64 0,-0.35 0.2,-0.87 0.34,-1.22 0.12,-0.31 0.14,-0.37 0.14,-0.49 0,-0.33 -0.28,-0.59 -0.66,-0.59 -0.7,0 -1.01,0.95 -1.01,1.07 0,0.09 0.09,0.09 0.11,0.09 0.1,0 0.11,-0.04 0.13,-0.11 0.17,-0.58 0.47,-0.85 0.75,-0.85 0.12,0 0.18,0.07 0.18,0.24 0,0.16 -0.07,0.31 -0.1,0.4 -0.4,1.02 -0.4,1.16 -0.4,1.37 0,0.82 0.75,0.93 1.12,0.93 0.14,0 0.48,0 0.79,-0.47 0.16,0.32 0.54,0.47 0.97,0.47 0.62,0 0.92,-0.54 1.06,-0.82 0.3,-0.59 0.49,-1.46 0.49,-1.78 0,-0.52 -0.3,-0.55 -0.35,-0.55 -0.18,0 -0.37,0.19 -0.37,0.37 0,0.12 0.07,0.18 0.11,0.22 0.17,0.14 0.26,0.33 0.26,0.56 0,0.09 -0.29,1.8 -1.17,1.8 -0.57,0 -0.57,-0.5 -0.57,-0.62 0,-0.18 0.03,-0.29 0.13,-0.69 z"
         id="path4407" />
    </g>
    <g
       transform="translate(124.67799,80.490613)"
       id="g4520">
      <path
         style="font-style:normal;font-variant:normal;font-weight:normal;font-stretch:normal;letter-spacing:normal;word-spacing:normal;text-anchor:start;fill:#000000;fill-opacity:1;fill-rule:evenodd;stroke:#000000;stroke-width:0;stroke-linecap:butt;stroke-linejoin:miter;stroke-miterlimit:10.43299961;stroke-dasharray:none;stroke-dashoffset:0;stroke-opacity:1"
         inkscape:connector-curvature="0"
         d="m 213.36445,38.82821 0,0.86 c 0,0.36 -0.02,0.47 -0.75,0.47 l -0.21,0 0,0.3 c 0.41,-0.03 0.92,-0.03 1.34,-0.03 0.42,0 0.95,0 1.36,0.03 l 0,-0.3 -0.21,0 c -0.74,0 -0.76,-0.11 -0.76,-0.47 l 0,-0.86 1,0 0,-0.31 -1,0 0,-4.52 c 0,-0.2 0,-0.26 -0.16,-0.26 -0.09,0 -0.12,0 -0.2,0.12 l -3.05,4.66 0.28,0 2.42,-3.71 0,3.71 -2.42,0 -0.28,0 0,0.31 z"
         id="path4409" />
      <path
         style="font-style:normal;font-variant:normal;font-weight:normal;font-stretch:normal;letter-spacing:normal;word-spacing:normal;text-anchor:start;fill:#000000;fill-opacity:1;fill-rule:evenodd;stroke:#000000;stroke-width:0;stroke-linecap:butt;stroke-linejoin:miter;stroke-miterlimit:10.43299961;stroke-dasharray:none;stroke-dashoffset:0;stroke-opacity:1"
         inkscape:connector-curvature="0"
         d="m 219.07445,36.48821 0.86,0 c 0.2,0 0.3,0 0.3,-0.2 0,-0.11 -0.1,-0.11 -0.27,-0.11 l -0.83,0 0.21,-1.13 c 0.04,-0.21 0.18,-0.91 0.24,-1.03 0.09,-0.19 0.26,-0.34 0.47,-0.34 0.04,0 0.3,0 0.48,0.18 -0.43,0.04 -0.53,0.39 -0.53,0.53 0,0.23 0.18,0.35 0.36,0.35 0.26,0 0.55,-0.22 0.55,-0.59 0,-0.46 -0.46,-0.69 -0.86,-0.69 -0.34,0 -0.97,0.18 -1.27,1.16 -0.06,0.21 -0.09,0.31 -0.33,1.56 l -0.68,0 c -0.19,0 -0.3,0 -0.3,0.19 0,0.12 0.09,0.12 0.28,0.12 l 0.66,0 -0.75,3.93 c -0.18,0.96 -0.35,1.86 -0.87,1.86 -0.04,0 -0.29,0 -0.47,-0.18 0.45,-0.03 0.54,-0.38 0.54,-0.53 0,-0.23 -0.18,-0.35 -0.37,-0.35 -0.25,0 -0.54,0.22 -0.54,0.6 0,0.44 0.43,0.68 0.84,0.68 0.55,0 0.95,-0.58 1.13,-0.96 0.32,-0.63 0.54,-1.83 0.55,-1.9 z"
         id="path4411" />
      <path
         style="font-style:normal;font-variant:normal;font-weight:normal;font-stretch:normal;letter-spacing:normal;word-spacing:normal;text-anchor:start;fill:#000000;fill-opacity:1;fill-rule:evenodd;stroke:#000000;stroke-width:0;stroke-linecap:butt;stroke-linejoin:miter;stroke-miterlimit:10.43299961;stroke-dasharray:none;stroke-dashoffset:0;stroke-opacity:1"
         inkscape:connector-curvature="0"
         d="m 222.14445,37.33821 0,0 0,0 0,0 0,0 0,0 0,0 0,-0.01 0,0 0,0 0,0 0,-0.01 0,0 0,0 0.01,-0.01 0,0 0,-0.01 0,0 0,-0.01 0,-0.01 0,0 0,-0.01 0.01,0 0,0 0,-0.01 0,0 0,-0.01 0,0 0,0 0,-0.01 0,0 0,0 0,0 0,0 0,0 0,-0.01 0,0 0,0 0,0 0,0 0,0 0,0 c 0,-0.03 -0.02,-0.1 -0.11,-0.1 -0.14,0 -0.72,0.06 -0.89,0.07 -0.06,0.01 -0.15,0.02 -0.15,0.16 0,0.1 0.09,0.1 0.18,0.1 0.33,0 0.33,0.05 0.33,0.1 0,0.05 -0.07,0.33 -0.11,0.49 l -0.16,0.64 c -0.06,0.24 -0.45,1.76 -0.46,1.85 -0.03,0.17 -0.03,0.26 -0.03,0.34 0,0.7 0.44,1.15 1.02,1.15 l 0.01,-0.2 c -0.34,0 -0.54,-0.29 -0.54,-0.71 0,-0.25 0.06,-0.49 0.26,-1.27 0.04,-0.14 0.04,-0.15 0.17,-0.3 0.27,-0.31 0.58,-0.46 0.83,-0.46 0.27,0 0.51,0.2 0.51,0.67 0,0.29 -0.15,1 -0.36,1.4 -0.17,0.34 -0.52,0.67 -0.87,0.67 l 0,0 -0.01,0.2 c 0.87,0 1.8,-0.95 1.8,-1.98 0,-0.81 -0.57,-1.16 -1.05,-1.16 -0.36,0 -0.67,0.2 -0.87,0.38 z"
         id="path4413" />
      <path
         style="font-style:normal;font-variant:normal;font-weight:normal;font-stretch:normal;letter-spacing:normal;word-spacing:normal;text-anchor:start;fill:#000000;fill-opacity:1;fill-rule:evenodd;stroke:#000000;stroke-width:0;stroke-linecap:butt;stroke-linejoin:miter;stroke-miterlimit:10.43299961;stroke-dasharray:none;stroke-dashoffset:0;stroke-opacity:1"
         inkscape:connector-curvature="0"
         d="m 227.46445,39.73821 0.01,-0.02 0,-0.02 0.01,-0.02 0,-0.02 0.01,-0.02 0,-0.02 0.02,-0.04 0.01,-0.04 0.01,-0.05 0.01,-0.04 0,-0.02 0.01,-0.02 0,-0.03 0.01,-0.02 0,-0.02 0.01,-0.01 0,-0.02 0.01,-0.02 0,-0.02 0,-0.01 0.01,-0.01 0,-0.02 0,-0.01 0,-0.01 0,-0.01 0.01,-0.01 0,0 0,0 0,0 0,-0.01 c 0,-0.13 -0.11,-0.22 -0.23,-0.22 -0.14,0 -0.26,0.09 -0.3,0.2 -0.02,0.06 -0.09,0.35 -0.14,0.52 -0.1,0.4 -0.1,0.42 -0.2,0.81 -0.1,0.38 -0.11,0.43 -0.12,0.63 0.03,0.14 -0.02,0.28 -0.19,0.48 -0.09,0.12 -0.23,0.23 -0.47,0.23 -0.27,0 -0.62,-0.09 -0.62,-0.64 0,-0.35 0.19,-0.87 0.33,-1.22 0.12,-0.31 0.15,-0.37 0.15,-0.49 0,-0.33 -0.29,-0.59 -0.66,-0.59 -0.71,0 -1.02,0.95 -1.02,1.07 0,0.09 0.09,0.09 0.12,0.09 0.09,0 0.1,-0.04 0.12,-0.11 0.18,-0.58 0.48,-0.85 0.75,-0.85 0.12,0 0.18,0.07 0.18,0.24 0,0.16 -0.06,0.31 -0.1,0.4 -0.4,1.02 -0.4,1.16 -0.4,1.37 0,0.82 0.75,0.93 1.13,0.93 0.13,0 0.47,0 0.78,-0.47 0.16,0.32 0.55,0.47 0.97,0.47 0.62,0 0.93,-0.54 1.06,-0.82 0.31,-0.59 0.49,-1.46 0.49,-1.78 0,-0.52 -0.3,-0.55 -0.35,-0.55 -0.18,0 -0.37,0.19 -0.37,0.37 0,0.12 0.07,0.18 0.12,0.22 0.16,0.14 0.25,0.33 0.25,0.56 0,0.09 -0.29,1.8 -1.17,1.8 -0.57,0 -0.57,-0.5 -0.57,-0.62 0,-0.18 0.03,-0.29 0.13,-0.69 z"
         id="path4415" />
    </g>
    <path
       sodipodi:nodetypes="cc"
       inkscape:connector-curvature="0"
       id="path4528"
       d="m 97.440946,106.29917 0,8.85827"
       style="fill:none;fill-rule:evenodd;stroke:#000000;stroke-width:1px;stroke-linecap:butt;stroke-linejoin:miter;stroke-opacity:1" />
    <path
       sodipodi:nodetypes="cc"
       inkscape:connector-curvature="0"
       id="path4530"
       d="m 115.15748,106.29917 0,8.85827"
       style="fill:none;fill-rule:evenodd;stroke:#000000;stroke-width:1px;stroke-linecap:butt;stroke-linejoin:miter;stroke-opacity:1" />
    <path
       sodipodi:nodetypes="cc"
       inkscape:connector-curvature="0"
       id="path4532"
       d="m 168.30709,106.29917 0,8.85827"
       style="fill:none;fill-rule:evenodd;stroke:#000000;stroke-width:1px;stroke-linecap:butt;stroke-linejoin:miter;stroke-opacity:1" />
    <path
       sodipodi:nodetypes="cc"
       inkscape:connector-curvature="0"
       id="path4534"
       d="m 203.74016,106.29917 0,8.85827"
       style="fill:none;fill-rule:evenodd;stroke:#000000;stroke-width:1px;stroke-linecap:butt;stroke-linejoin:miter;stroke-opacity:1" />
    <path
       sodipodi:nodetypes="cc"
       inkscape:connector-curvature="0"
       id="path4536"
       d="m 239.17323,106.29917 0,8.85827"
       style="fill:none;fill-rule:evenodd;stroke:#000000;stroke-width:1px;stroke-linecap:butt;stroke-linejoin:miter;stroke-opacity:1" />
    <path
       sodipodi:nodetypes="cc"
       inkscape:connector-curvature="0"
       id="path4538"
       d="m 292.32284,106.29917 0,8.85827"
       style="fill:none;fill-rule:evenodd;stroke:#000000;stroke-width:1px;stroke-linecap:butt;stroke-linejoin:miter;stroke-opacity:1" />
    <path
       sodipodi:nodetypes="cc"
       inkscape:connector-curvature="0"
       id="path4540"
       d="m 310.03937,106.29917 0,8.85827"
       style="fill:none;fill-rule:evenodd;stroke:#000000;stroke-width:1px;stroke-linecap:butt;stroke-linejoin:miter;stroke-opacity:1" />
    <path
       sodipodi:nodetypes="cc"
       inkscape:connector-curvature="0"
       id="path4542"
       d="m 380.90551,106.29917 0,8.85827"
       style="fill:none;fill-rule:evenodd;stroke:#000000;stroke-width:1px;stroke-linecap:butt;stroke-linejoin:miter;stroke-opacity:1" />
    <path
       sodipodi:nodetypes="cc"
       inkscape:connector-curvature="0"
       id="path4544"
       d="m 97.440946,111.61413 17.716534,0"
       style="fill:none;fill-rule:evenodd;stroke:#000000;stroke-width:1px;stroke-linecap:butt;stroke-linejoin:miter;stroke-opacity:1" />
    <path
       sodipodi:nodetypes="cc"
       inkscape:connector-curvature="0"
       id="path4546"
       d="m 168.30709,111.61413 35.43307,0"
       style="fill:none;fill-rule:evenodd;stroke:#000000;stroke-width:1px;stroke-linecap:butt;stroke-linejoin:miter;stroke-opacity:1" />
    <path
       sodipodi:nodetypes="cc"
       inkscape:connector-curvature="0"
       id="path4548"
       d="m 239.17323,111.61413 53.14961,0"
       style="fill:none;fill-rule:evenodd;stroke:#000000;stroke-width:1px;stroke-linecap:butt;stroke-linejoin:miter;stroke-opacity:1" />
    <path
       sodipodi:nodetypes="cc"
       inkscape:connector-curvature="0"
       id="path4550"
       d="m 310.03937,111.61413 70.86614,0"
       style="fill:none;fill-rule:evenodd;stroke:#000000;stroke-width:1px;stroke-linecap:butt;stroke-linejoin:miter;stroke-opacity:1" />
    <g
       id="g4826"
       transform="translate(-8.7517353,65.911139)"
       style="fill:#0000ff;fill-opacity:1">
      <path
         id="path4642"
         d="m 134.9823,2.42332 1.05,-1.02 c 1.55,-1.37 2.15,-1.91 2.15,-2.9 0,-1.14 -0.9,-1.93 -2.11,-1.93 -1.12,0 -1.86,0.91 -1.86,1.8 0,0.55 0.5,0.55 0.53,0.55 0.17,0 0.51,-0.12 0.51,-0.52 0,-0.26 -0.18,-0.52 -0.52,-0.52 -0.08,0 -0.1,0 -0.13,0.01 0.23,-0.65 0.76,-1.01 1.34,-1.01 0.91,0 1.33,0.8 1.33,1.62 0,0.79 -0.49,1.58 -1.04,2.19 l -1.91,2.13 c -0.11,0.11 -0.11,0.13 -0.11,0.36 l 3.69,0 0.28,-1.72 -0.25,0 c -0.05,0.3 -0.12,0.73 -0.22,0.88 -0.07,0.08 -0.72,0.08 -0.94,0.08 z"
         inkscape:connector-curvature="0"
         style="font-style:normal;font-variant:normal;font-weight:normal;font-stretch:normal;letter-spacing:normal;word-spacing:normal;text-anchor:start;fill:#0000ff;fill-opacity:1;fill-rule:evenodd;stroke:#000000;stroke-width:0;stroke-linecap:butt;stroke-linejoin:miter;stroke-miterlimit:10.43299961;stroke-dasharray:none;stroke-dashoffset:0;stroke-opacity:1" />
      <path
         id="path4644"
         d="m 142.2823,-2.53668 0,-0.05 0,-0.06 -0.01,-0.05 0,-0.05 -0.01,-0.05 -0.01,-0.05 -0.01,-0.05 -0.02,-0.04 -0.01,-0.05 -0.02,-0.04 -0.02,-0.04 -0.02,-0.04 -0.03,-0.03 -0.02,-0.04 -0.03,-0.03 -0.03,-0.03 -0.03,-0.03 -0.04,-0.03 -0.04,-0.03 -0.04,-0.02 -0.04,-0.03 -0.04,-0.02 -0.05,-0.02 -0.05,-0.01 -0.05,-0.02 -0.05,-0.01 -0.06,-0.01 -0.06,-0.01 -0.06,-0.01 -0.06,0 -0.07,-0.01 -0.06,0 c -0.58,0 -0.94,0.32 -1.14,0.68 l -0.01,0 0,-0.68 -1.02,0.08 0,0.25 c 0.47,0 0.52,0.05 0.52,0.39 l 0,1.8 c 0,0.3 -0.07,0.3 -0.52,0.3 l 0,0.25 c 0.01,0 0.5,-0.03 0.79,-0.03 0.26,0 0.74,0.02 0.8,0.03 l 0,-0.25 c -0.45,0 -0.52,0 -0.52,-0.3 l 0,-1.25 c 0,-0.73 0.58,-1.07 1.04,-1.07 0.49,0 0.55,0.38 0.55,0.73 l 0,1.59 c 0,0.3 -0.07,0.3 -0.52,0.3 l 0,0.25 c 0.01,0 0.5,-0.03 0.79,-0.03 0.26,0 0.74,0.02 0.8,0.03 l 0,-0.25 c -0.45,0 -0.52,0 -0.52,-0.3 z"
         inkscape:connector-curvature="0"
         style="font-style:normal;font-variant:normal;font-weight:normal;font-stretch:normal;letter-spacing:normal;word-spacing:normal;text-anchor:start;fill:#0000ff;fill-opacity:1;fill-rule:evenodd;stroke:#000000;stroke-width:0;stroke-linecap:butt;stroke-linejoin:miter;stroke-miterlimit:10.43299961;stroke-dasharray:none;stroke-dashoffset:0;stroke-opacity:1" />
      <path
         id="path4646"
         d="m 145.5723,-5.17668 0,0.25 c 0.47,0 0.53,0.05 0.53,0.39 l 0,1.44 c -0.26,-0.25 -0.6,-0.4 -0.98,-0.4 l 0.04,0.2 c 0.33,0 0.63,0.15 0.83,0.4 0.08,0.11 0.08,0.12 0.08,0.25 l 0,1.49 c -0.18,0.33 -0.54,0.61 -0.99,0.61 -0.39,0 -0.67,-0.23 -0.81,-0.44 -0.14,-0.21 -0.22,-0.48 -0.22,-0.93 0,-0.16 0,-0.68 0.28,-1.01 0.28,-0.31 0.62,-0.37 0.83,-0.37 l -0.04,-0.2 c -0.92,0 -1.71,0.7 -1.71,1.58 0,0.86 0.74,1.56 1.63,1.56 0.57,0 0.91,-0.31 1.03,-0.43 l 0,0.43 1.07,-0.07 0,-0.25 c -0.47,0 -0.52,-0.05 -0.52,-0.39 l 0,-4.19 z"
         inkscape:connector-curvature="0"
         style="font-style:normal;font-variant:normal;font-weight:normal;font-stretch:normal;letter-spacing:normal;word-spacing:normal;text-anchor:start;fill:#0000ff;fill-opacity:1;fill-rule:evenodd;stroke:#000000;stroke-width:0;stroke-linecap:butt;stroke-linejoin:miter;stroke-miterlimit:10.43299961;stroke-dasharray:none;stroke-dashoffset:0;stroke-opacity:1" />
      <path
         id="path4648"
         d="m 158.4923,-0.17668 -0.01,-0.19 -0.01,-0.19 -0.02,-0.18 -0.03,-0.18 -0.04,-0.18 -0.04,-0.17 -0.06,-0.17 -0.06,-0.17 -0.06,-0.16 -0.08,-0.15 -0.08,-0.16 -0.08,-0.14 -0.1,-0.15 -0.1,-0.13 -0.1,-0.13 -0.11,-0.13 -0.12,-0.12 -0.12,-0.11 -0.12,-0.11 -0.13,-0.1 -0.14,-0.1 -0.14,-0.08 -0.14,-0.08 -0.15,-0.07 -0.15,-0.07 -0.15,-0.06 -0.16,-0.04 -0.15,-0.04 -0.17,-0.04 -0.16,-0.02 -0.17,-0.01 -0.17,-0.01 0,0.25 c 0.87,0 2.29,0.71 2.29,3.25 0,2.63 -1.36,3.47 -2.28,3.47 l 0,0 c -0.95,0 -2.28,-0.88 -2.28,-3.47 0,-2.58 1.45,-3.25 2.27,-3.25 l 0,-0.25 c -1.78,0 -3.3,1.59 -3.3,3.64 0,2.03 1.53,3.58 3.3,3.58 1.81,0 3.32,-1.58 3.32,-3.58 z"
         inkscape:connector-curvature="0"
         style="font-style:normal;font-variant:normal;font-weight:normal;font-stretch:normal;letter-spacing:normal;word-spacing:normal;text-anchor:start;fill:#0000ff;fill-opacity:1;fill-rule:evenodd;stroke:#000000;stroke-width:0;stroke-linecap:butt;stroke-linejoin:miter;stroke-miterlimit:10.43299961;stroke-dasharray:none;stroke-dashoffset:0;stroke-opacity:1" />
      <path
         id="path4650"
         d="m 160.7223,-0.10668 0,-1.1 -1.38,0.11 0,0.31 c 0.7,0 0.78,0.07 0.78,0.56 l 0,2.66 c 0,0.45 -0.11,0.45 -0.78,0.45 l 0,0.3 c 0.39,-0.01 0.86,-0.03 1.14,-0.03 0.39,0 0.86,0 1.26,0.03 l 0,-0.3 -0.21,0 c -0.74,0 -0.76,-0.11 -0.76,-0.47 l 0,-1.53 c 0,-0.98 0.42,-1.87 1.18,-1.87 0.07,0 0.09,0 0.11,0.01 -0.03,0.01 -0.23,0.13 -0.23,0.39 0,0.28 0.21,0.43 0.43,0.43 0.17,0 0.42,-0.12 0.42,-0.44 0,-0.32 -0.3,-0.61 -0.73,-0.61 -0.73,0 -1.09,0.67 -1.23,1.1 z"
         inkscape:connector-curvature="0"
         style="font-style:normal;font-variant:normal;font-weight:normal;font-stretch:normal;letter-spacing:normal;word-spacing:normal;text-anchor:start;fill:#0000ff;fill-opacity:1;fill-rule:evenodd;stroke:#000000;stroke-width:0;stroke-linecap:butt;stroke-linejoin:miter;stroke-miterlimit:10.43299961;stroke-dasharray:none;stroke-dashoffset:0;stroke-opacity:1" />
      <path
         id="path4652"
         d="m 166.7423,2.64332 0,0.65 1.47,-0.11 0,-0.3 c -0.7,0 -0.78,-0.07 -0.78,-0.56 l 0,-6.03 -1.43,0.11 0,0.31 c 0.7,0 0.77,0.07 0.77,0.55 l 0,2.15 c -0.28,-0.36 -0.71,-0.62 -1.25,-0.62 l 0.04,0.22 c 0.35,0 0.77,0.15 1.07,0.6 0.11,0.17 0.11,0.19 0.11,0.37 l 0,0 0,2.03 c 0,0.18 0,0.2 -0.11,0.37 -0.29,0.48 -0.74,0.7 -1.17,0.7 -0.45,0 -0.8,-0.26 -1.04,-0.64 -0.26,-0.41 -0.29,-0.97 -0.29,-1.38 0,-0.37 0.02,-0.96 0.31,-1.41 0.21,-0.31 0.58,-0.64 1.12,-0.64 l -0.04,-0.22 c -1.17,0 -2.22,0.98 -2.22,2.26 0,1.26 0.98,2.24 2.11,2.24 0.64,0 1.09,-0.33 1.33,-0.65 z"
         inkscape:connector-curvature="0"
         style="font-style:normal;font-variant:normal;font-weight:normal;font-stretch:normal;letter-spacing:normal;word-spacing:normal;text-anchor:start;fill:#0000ff;fill-opacity:1;fill-rule:evenodd;stroke:#000000;stroke-width:0;stroke-linecap:butt;stroke-linejoin:miter;stroke-miterlimit:10.43299961;stroke-dasharray:none;stroke-dashoffset:0;stroke-opacity:1" />
      <path
         id="path4654"
         d="m 169.6023,0.89332 0.01,-0.21 c 0.06,-1.48 0.9,-1.73 1.24,-1.73 1.02,0 1.12,1.34 1.12,1.73 l -2.36,0 -0.01,0.21 2.78,0 c 0.22,0 0.25,0 0.25,-0.21 0,-0.98 -0.54,-1.95 -1.78,-1.95 -1.16,0 -2.07,1.03 -2.07,2.27 0,1.33 1.04,2.29 2.19,2.29 1.21,0 1.66,-1.1 1.66,-1.29 0,-0.1 -0.08,-0.12 -0.13,-0.12 -0.09,0 -0.11,0.06 -0.13,0.14 -0.35,1.03 -1.24,1.03 -1.34,1.03 -0.5,0 -0.9,-0.3 -1.13,-0.67 -0.3,-0.48 -0.3,-1.13 -0.3,-1.49 z"
         inkscape:connector-curvature="0"
         style="font-style:normal;font-variant:normal;font-weight:normal;font-stretch:normal;letter-spacing:normal;word-spacing:normal;text-anchor:start;fill:#0000ff;fill-opacity:1;fill-rule:evenodd;stroke:#000000;stroke-width:0;stroke-linecap:butt;stroke-linejoin:miter;stroke-miterlimit:10.43299961;stroke-dasharray:none;stroke-dashoffset:0;stroke-opacity:1" />
      <path
         id="path4656"
         d="m 174.5923,-0.10668 0,-1.1 -1.38,0.11 0,0.31 c 0.69,0 0.77,0.07 0.77,0.56 l 0,2.66 c 0,0.45 -0.11,0.45 -0.77,0.45 l 0,0.3 c 0.38,-0.01 0.85,-0.03 1.13,-0.03 0.4,0 0.87,0 1.26,0.03 l 0,-0.3 -0.21,0 c -0.73,0 -0.75,-0.11 -0.75,-0.47 l 0,-1.53 c 0,-0.98 0.42,-1.87 1.17,-1.87 0.07,0 0.09,0 0.11,0.01 -0.03,0.01 -0.23,0.13 -0.23,0.39 0,0.28 0.21,0.43 0.43,0.43 0.18,0 0.43,-0.12 0.43,-0.44 0,-0.32 -0.31,-0.61 -0.74,-0.61 -0.72,0 -1.08,0.67 -1.22,1.1 z"
         inkscape:connector-curvature="0"
         style="font-style:normal;font-variant:normal;font-weight:normal;font-stretch:normal;letter-spacing:normal;word-spacing:normal;text-anchor:start;fill:#0000ff;fill-opacity:1;fill-rule:evenodd;stroke:#000000;stroke-width:0;stroke-linecap:butt;stroke-linejoin:miter;stroke-miterlimit:10.43299961;stroke-dasharray:none;stroke-dashoffset:0;stroke-opacity:1" />
    </g>
    <g
       id="g4836"
       transform="translate(-71.396152,48.462871)"
       style="fill:#ff0000;fill-opacity:1">
      <path
         id="path4658"
         d="m 121.6523,11.64332 0.08,-0.02 0.07,-0.03 0.08,-0.03 0.07,-0.04 0.07,-0.03 0.06,-0.04 0.07,-0.04 0.06,-0.04 0.07,-0.05 0.06,-0.04 0.06,-0.05 0.05,-0.05 0.06,-0.05 0.05,-0.06 0.05,-0.05 0.05,-0.06 0.04,-0.06 0.04,-0.05 0.04,-0.07 0.04,-0.06 0.04,-0.06 0.03,-0.07 0.03,-0.06 0.02,-0.07 0.03,-0.07 0.02,-0.07 0.02,-0.06 0.01,-0.08 0.01,-0.07 0.01,-0.07 0,-0.07 0.01,-0.07 c 0,-0.82 -0.88,-1.38 -1.84,-1.38 -1,0 -1.76,0.6 -1.76,1.36 0,0.32 0.22,0.51 0.51,0.51 0.31,0 0.51,-0.22 0.51,-0.5 0,-0.5 -0.47,-0.5 -0.62,-0.5 0.31,-0.49 0.97,-0.62 1.33,-0.62 0.4,0 0.95,0.22 0.95,1.12 0,0.11 -0.02,0.69 -0.28,1.13 -0.3,0.47 -0.64,0.5 -0.88,0.51 -0.08,0.01 -0.32,0.03 -0.39,0.03 -0.08,0.01 -0.15,0.02 -0.15,0.12 0,0.11 0.07,0.11 0.24,0.11 l 0.44,0 c 0.81,0 1.18,0.68 1.18,1.65 0,1.35 -0.69,1.64 -1.12,1.64 -0.43,0 -1.18,-0.17 -1.53,-0.75 0.35,0.05 0.66,-0.17 0.66,-0.55 0,-0.36 -0.27,-0.56 -0.56,-0.56 -0.24,0 -0.55,0.14 -0.55,0.58 0,0.9 0.92,1.56 2.01,1.56 1.21,0 2.12,-0.9 2.12,-1.92 0,-0.81 -0.63,-1.59 -1.67,-1.8 z"
         inkscape:connector-curvature="0"
         style="font-style:normal;font-variant:normal;font-weight:normal;font-stretch:normal;letter-spacing:normal;word-spacing:normal;text-anchor:start;fill:#ff0000;fill-opacity:1;fill-rule:evenodd;stroke:#000000;stroke-width:0;stroke-linecap:butt;stroke-linejoin:miter;stroke-miterlimit:10.43299961;stroke-dasharray:none;stroke-dashoffset:0;stroke-opacity:1" />
      <path
         id="path4660"
         d="m 125.1423,9.94332 0,-0.06 0,-0.05 0,-0.06 0.01,-0.05 0.01,-0.06 0.01,-0.06 0.01,-0.05 0.01,-0.06 0.01,-0.05 0.02,-0.06 0.02,-0.05 0.02,-0.05 0.02,-0.06 0.02,-0.05 0.03,-0.05 0.02,-0.04 0.03,-0.05 0.04,-0.04 0.03,-0.04 0.03,-0.04 0.04,-0.04 0.04,-0.04 0.04,-0.03 0.04,-0.03 0.05,-0.02 0.05,-0.03 0.05,-0.02 0.05,-0.02 0.05,-0.01 0.06,-0.01 0.06,0 0.06,-0.01 c -0.06,0.05 -0.12,0.14 -0.12,0.25 0,0.23 0.18,0.32 0.31,0.32 0.17,0 0.33,-0.11 0.33,-0.32 0,-0.23 -0.23,-0.44 -0.56,-0.44 -0.34,0 -0.73,0.21 -0.94,0.74 l 0,0 0,-0.74 -1,0.07 0,0.25 c 0.47,0 0.52,0.05 0.52,0.39 l 0,1.81 c 0,0.3 -0.07,0.3 -0.52,0.3 l 0,0.25 c 0.04,0 0.51,-0.03 0.79,-0.03 0.3,0 0.61,0.01 0.91,0.03 l 0,-0.25 -0.14,0 c -0.51,0 -0.51,-0.08 -0.51,-0.32 z"
         inkscape:connector-curvature="0"
         style="font-style:normal;font-variant:normal;font-weight:normal;font-stretch:normal;letter-spacing:normal;word-spacing:normal;text-anchor:start;fill:#ff0000;fill-opacity:1;fill-rule:evenodd;stroke:#000000;stroke-width:0;stroke-linecap:butt;stroke-linejoin:miter;stroke-miterlimit:10.43299961;stroke-dasharray:none;stroke-dashoffset:0;stroke-opacity:1" />
      <path
         id="path4662"
         d="m 129.3423,6.78332 0,0.25 c 0.47,0 0.53,0.05 0.53,0.38 l 0,1.44 c -0.26,-0.25 -0.6,-0.39 -0.98,-0.39 l 0.04,0.19 c 0.33,0 0.63,0.16 0.82,0.41 0.09,0.11 0.09,0.11 0.09,0.25 l 0,1.48 c -0.18,0.33 -0.54,0.61 -0.99,0.61 -0.39,0 -0.67,-0.23 -0.81,-0.43 -0.14,-0.21 -0.22,-0.49 -0.22,-0.93 0,-0.16 0,-0.69 0.28,-1.01 0.28,-0.31 0.62,-0.38 0.83,-0.38 l -0.04,-0.19 c -0.93,0 -1.71,0.69 -1.71,1.57 0,0.87 0.74,1.56 1.63,1.56 0.57,0 0.91,-0.3 1.03,-0.43 l 0,0.43 1.07,-0.06 0,-0.25 c -0.47,0 -0.52,-0.05 -0.52,-0.39 l 0,-4.19 z"
         inkscape:connector-curvature="0"
         style="font-style:normal;font-variant:normal;font-weight:normal;font-stretch:normal;letter-spacing:normal;word-spacing:normal;text-anchor:start;fill:#ff0000;fill-opacity:1;fill-rule:evenodd;stroke:#000000;stroke-width:0;stroke-linecap:butt;stroke-linejoin:miter;stroke-miterlimit:10.43299961;stroke-dasharray:none;stroke-dashoffset:0;stroke-opacity:1" />
      <path
         id="path4664"
         d="m 142.2623,11.77332 -0.01,-0.19 -0.01,-0.18 -0.02,-0.19 -0.03,-0.18 -0.04,-0.17 -0.05,-0.18 -0.05,-0.17 -0.06,-0.16 -0.06,-0.16 -0.08,-0.16 -0.08,-0.15 -0.09,-0.15 -0.09,-0.14 -0.1,-0.14 -0.1,-0.13 -0.11,-0.13 -0.12,-0.12 -0.12,-0.11 -0.12,-0.11 -0.13,-0.1 -0.14,-0.09 -0.14,-0.09 -0.14,-0.08 -0.15,-0.07 -0.15,-0.06 -0.15,-0.06 -0.16,-0.05 -0.16,-0.04 -0.16,-0.03 -0.16,-0.02 -0.17,-0.02 -0.17,0 0,0.25 c 0.87,0 2.29,0.7 2.29,3.24 0,2.64 -1.36,3.47 -2.28,3.47 l 0,0 c -0.95,0 -2.29,-0.87 -2.29,-3.47 0,-2.57 1.46,-3.24 2.28,-3.24 l 0,-0.25 c -1.78,0 -3.3,1.59 -3.3,3.63 0,2.04 1.53,3.59 3.3,3.59 1.81,0 3.32,-1.58 3.32,-3.59 z"
         inkscape:connector-curvature="0"
         style="font-style:normal;font-variant:normal;font-weight:normal;font-stretch:normal;letter-spacing:normal;word-spacing:normal;text-anchor:start;fill:#ff0000;fill-opacity:1;fill-rule:evenodd;stroke:#000000;stroke-width:0;stroke-linecap:butt;stroke-linejoin:miter;stroke-miterlimit:10.43299961;stroke-dasharray:none;stroke-dashoffset:0;stroke-opacity:1" />
      <path
         id="path4666"
         d="m 144.4923,11.84332 0,-1.09 -1.38,0.11 0,0.31 c 0.7,0 0.77,0.07 0.77,0.55 l 0,2.67 c 0,0.44 -0.1,0.44 -0.77,0.44 l 0,0.31 c 0.39,-0.01 0.85,-0.03 1.13,-0.03 0.4,0 0.87,0 1.27,0.03 l 0,-0.31 -0.21,0 c -0.74,0 -0.76,-0.11 -0.76,-0.47 l 0,-1.52 c 0,-0.99 0.42,-1.87 1.18,-1.87 0.07,0 0.09,0 0.11,0.01 -0.03,0.01 -0.23,0.13 -0.23,0.38 0,0.28 0.21,0.43 0.42,0.43 0.18,0 0.43,-0.12 0.43,-0.44 0,-0.31 -0.31,-0.6 -0.73,-0.6 -0.73,0 -1.09,0.66 -1.23,1.09 z"
         inkscape:connector-curvature="0"
         style="font-style:normal;font-variant:normal;font-weight:normal;font-stretch:normal;letter-spacing:normal;word-spacing:normal;text-anchor:start;fill:#ff0000;fill-opacity:1;fill-rule:evenodd;stroke:#000000;stroke-width:0;stroke-linecap:butt;stroke-linejoin:miter;stroke-miterlimit:10.43299961;stroke-dasharray:none;stroke-dashoffset:0;stroke-opacity:1" />
      <path
         id="path4668"
         d="m 150.5123,14.59332 0,0.66 1.47,-0.11 0,-0.31 c -0.7,0 -0.78,-0.07 -0.78,-0.55 l 0,-6.03 -1.43,0.1 0,0.31 c 0.69,0 0.77,0.07 0.77,0.56 l 0,2.14 c -0.28,-0.35 -0.71,-0.61 -1.25,-0.61 l 0.04,0.22 c 0.35,0 0.77,0.15 1.07,0.59 0.11,0.17 0.11,0.19 0.11,0.37 l 0,0 0,2.04 c 0,0.18 0,0.2 -0.11,0.37 -0.29,0.47 -0.74,0.69 -1.17,0.69 -0.45,0 -0.8,-0.26 -1.04,-0.63 -0.26,-0.41 -0.29,-0.98 -0.29,-1.39 0,-0.36 0.02,-0.96 0.31,-1.41 0.2,-0.3 0.58,-0.63 1.12,-0.63 l -0.04,-0.22 c -1.17,0 -2.22,0.97 -2.22,2.25 0,1.27 0.98,2.25 2.11,2.25 0.64,0 1.08,-0.34 1.33,-0.66 z"
         inkscape:connector-curvature="0"
         style="font-style:normal;font-variant:normal;font-weight:normal;font-stretch:normal;letter-spacing:normal;word-spacing:normal;text-anchor:start;fill:#ff0000;fill-opacity:1;fill-rule:evenodd;stroke:#000000;stroke-width:0;stroke-linecap:butt;stroke-linejoin:miter;stroke-miterlimit:10.43299961;stroke-dasharray:none;stroke-dashoffset:0;stroke-opacity:1" />
      <path
         id="path4670"
         d="m 153.3723,12.84332 0.01,-0.2 c 0.06,-1.48 0.9,-1.73 1.24,-1.73 1.02,0 1.12,1.34 1.12,1.73 l -2.36,0 -0.01,0.2 2.78,0 c 0.22,0 0.25,0 0.25,-0.2 0,-0.99 -0.54,-1.95 -1.78,-1.95 -1.16,0 -2.07,1.02 -2.07,2.27 0,1.33 1.04,2.29 2.19,2.29 1.21,0 1.66,-1.1 1.66,-1.29 0,-0.1 -0.08,-0.12 -0.13,-0.12 -0.09,0 -0.11,0.06 -0.13,0.14 -0.35,1.02 -1.24,1.02 -1.34,1.02 -0.5,0 -0.9,-0.3 -1.13,-0.66 -0.3,-0.48 -0.3,-1.14 -0.3,-1.5 z"
         inkscape:connector-curvature="0"
         style="font-style:normal;font-variant:normal;font-weight:normal;font-stretch:normal;letter-spacing:normal;word-spacing:normal;text-anchor:start;fill:#ff0000;fill-opacity:1;fill-rule:evenodd;stroke:#000000;stroke-width:0;stroke-linecap:butt;stroke-linejoin:miter;stroke-miterlimit:10.43299961;stroke-dasharray:none;stroke-dashoffset:0;stroke-opacity:1" />
      <path
         id="path4672"
         d="m 158.3623,11.84332 0,-1.09 -1.39,0.11 0,0.31 c 0.7,0 0.78,0.07 0.78,0.55 l 0,2.67 c 0,0.44 -0.11,0.44 -0.78,0.44 l 0,0.31 c 0.39,-0.01 0.86,-0.03 1.14,-0.03 0.4,0 0.86,0 1.26,0.03 l 0,-0.31 -0.21,0 c -0.73,0 -0.75,-0.11 -0.75,-0.47 l 0,-1.52 c 0,-0.99 0.41,-1.87 1.17,-1.87 0.07,0 0.09,0 0.11,0.01 -0.03,0.01 -0.23,0.13 -0.23,0.38 0,0.28 0.21,0.43 0.43,0.43 0.18,0 0.43,-0.12 0.43,-0.44 0,-0.31 -0.31,-0.6 -0.74,-0.6 -0.73,0 -1.08,0.66 -1.22,1.09 z"
         inkscape:connector-curvature="0"
         style="font-style:normal;font-variant:normal;font-weight:normal;font-stretch:normal;letter-spacing:normal;word-spacing:normal;text-anchor:start;fill:#ff0000;fill-opacity:1;fill-rule:evenodd;stroke:#000000;stroke-width:0;stroke-linecap:butt;stroke-linejoin:miter;stroke-miterlimit:10.43299961;stroke-dasharray:none;stroke-dashoffset:0;stroke-opacity:1" />
    </g>
    <g
       id="g4846"
       transform="translate(166.9271,42.301139)"
       style="fill:#0000ff;fill-opacity:1">
      <path
         id="path4674"
         d="m 121.6923,25.46332 0,0.86 c 0,0.36 -0.02,0.47 -0.75,0.47 l -0.21,0 0,0.3 c 0.41,-0.02 0.92,-0.02 1.34,-0.02 0.42,0 0.95,0 1.35,0.02 l 0,-0.3 -0.21,0 c -0.73,0 -0.75,-0.11 -0.75,-0.47 l 0,-0.86 0.99,0 0,-0.31 -0.99,0 0,-4.52 c 0,-0.2 0,-0.26 -0.16,-0.26 -0.09,0 -0.12,0 -0.2,0.12 l -3.05,4.66 0.27,0 2.43,-3.71 0,3.71 -2.43,0 -0.27,0 0,0.31 z"
         inkscape:connector-curvature="0"
         style="font-style:normal;font-variant:normal;font-weight:normal;font-stretch:normal;letter-spacing:normal;word-spacing:normal;text-anchor:start;fill:#0000ff;fill-opacity:1;fill-rule:evenodd;stroke:#000000;stroke-width:0;stroke-linecap:butt;stroke-linejoin:miter;stroke-miterlimit:10.43299961;stroke-dasharray:none;stroke-dashoffset:0;stroke-opacity:1" />
      <path
         id="path4676"
         d="m 125.1523,20.73332 1.09,0 0,-0.25 -1.09,0 0,-1.28 -0.24,0 c 0,0.63 -0.29,1.32 -0.96,1.34 l 0,0.19 0.65,0 0,1.88 c 0,0.78 0.58,0.94 0.97,0.94 0.47,0 0.79,-0.4 0.79,-0.95 l 0,-0.38 -0.23,0 0,0.38 c 0,0.47 -0.23,0.73 -0.5,0.73 -0.48,0 -0.48,-0.59 -0.48,-0.71 z"
         inkscape:connector-curvature="0"
         style="font-style:normal;font-variant:normal;font-weight:normal;font-stretch:normal;letter-spacing:normal;word-spacing:normal;text-anchor:start;fill:#0000ff;fill-opacity:1;fill-rule:evenodd;stroke:#000000;stroke-width:0;stroke-linecap:butt;stroke-linejoin:miter;stroke-miterlimit:10.43299961;stroke-dasharray:none;stroke-dashoffset:0;stroke-opacity:1" />
      <path
         id="path4678"
         d="m 130.4523,21.37332 0,-0.05 0,-0.06 -0.01,-0.05 0,-0.05 -0.01,-0.05 -0.01,-0.05 -0.01,-0.05 -0.02,-0.04 -0.01,-0.05 -0.02,-0.04 -0.02,-0.04 -0.02,-0.04 -0.03,-0.03 -0.02,-0.04 -0.03,-0.03 -0.03,-0.03 -0.04,-0.03 -0.03,-0.03 -0.04,-0.03 -0.04,-0.02 -0.04,-0.03 -0.04,-0.02 -0.05,-0.02 -0.05,-0.01 -0.05,-0.02 -0.05,-0.01 -0.06,-0.01 -0.06,-0.01 -0.06,-0.01 -0.06,0 -0.07,-0.01 -0.07,0 c -0.61,0 -0.96,0.37 -1.11,0.64 l -0.01,0 0,-2.4 -1.04,0.08 0,0.25 c 0.47,0 0.52,0.05 0.52,0.39 l 0,3.56 c 0,0.3 -0.07,0.3 -0.52,0.3 l 0,0.25 c 0.01,0 0.5,-0.03 0.79,-0.03 0.26,0 0.74,0.02 0.8,0.03 l 0,-0.25 c -0.45,0 -0.52,0 -0.52,-0.3 l 0,-1.25 c 0,-0.73 0.58,-1.07 1.04,-1.07 0.49,0 0.55,0.38 0.55,0.73 l 0,1.59 c 0,0.3 -0.07,0.3 -0.52,0.3 l 0,0.25 c 0.01,0 0.5,-0.03 0.79,-0.03 0.26,0 0.74,0.02 0.8,0.03 l 0,-0.25 c -0.45,0 -0.52,0 -0.52,-0.3 z"
         inkscape:connector-curvature="0"
         style="font-style:normal;font-variant:normal;font-weight:normal;font-stretch:normal;letter-spacing:normal;word-spacing:normal;text-anchor:start;fill:#0000ff;fill-opacity:1;fill-rule:evenodd;stroke:#000000;stroke-width:0;stroke-linecap:butt;stroke-linejoin:miter;stroke-miterlimit:10.43299961;stroke-dasharray:none;stroke-dashoffset:0;stroke-opacity:1" />
      <path
         id="path4680"
         d="m 142.2623,23.73332 -0.01,-0.19 -0.01,-0.19 -0.02,-0.18 -0.03,-0.18 -0.04,-0.18 -0.05,-0.17 -0.05,-0.17 -0.06,-0.17 -0.06,-0.16 -0.08,-0.15 -0.08,-0.16 -0.09,-0.14 -0.09,-0.15 -0.1,-0.13 -0.1,-0.13 -0.11,-0.13 -0.12,-0.12 -0.12,-0.11 -0.12,-0.11 -0.13,-0.1 -0.14,-0.1 -0.14,-0.08 -0.14,-0.08 -0.15,-0.07 -0.15,-0.07 -0.15,-0.06 -0.16,-0.04 -0.16,-0.04 -0.16,-0.04 -0.16,-0.02 -0.17,-0.01 -0.17,-0.01 0,0.25 c 0.87,0 2.29,0.7 2.29,3.25 0,2.63 -1.36,3.46 -2.28,3.46 l 0,0 c -0.95,0 -2.29,-0.87 -2.29,-3.46 0,-2.57 1.46,-3.25 2.28,-3.25 l 0,-0.25 c -1.78,0 -3.3,1.59 -3.3,3.64 0,2.03 1.53,3.58 3.3,3.58 1.81,0 3.32,-1.58 3.32,-3.58 z"
         inkscape:connector-curvature="0"
         style="font-style:normal;font-variant:normal;font-weight:normal;font-stretch:normal;letter-spacing:normal;word-spacing:normal;text-anchor:start;fill:#0000ff;fill-opacity:1;fill-rule:evenodd;stroke:#000000;stroke-width:0;stroke-linecap:butt;stroke-linejoin:miter;stroke-miterlimit:10.43299961;stroke-dasharray:none;stroke-dashoffset:0;stroke-opacity:1" />
      <path
         id="path4682"
         d="m 144.4923,23.80332 0,-1.1 -1.38,0.11 0,0.31 c 0.7,0 0.77,0.07 0.77,0.56 l 0,2.66 c 0,0.45 -0.1,0.45 -0.77,0.45 l 0,0.3 c 0.39,0 0.85,-0.02 1.13,-0.02 0.4,0 0.87,0 1.27,0.02 l 0,-0.3 -0.21,0 c -0.74,0 -0.76,-0.11 -0.76,-0.47 l 0,-1.53 c 0,-0.98 0.42,-1.87 1.18,-1.87 0.07,0 0.09,0 0.11,0.01 -0.03,0.01 -0.23,0.13 -0.23,0.39 0,0.28 0.21,0.43 0.42,0.43 0.18,0 0.43,-0.12 0.43,-0.44 0,-0.32 -0.31,-0.61 -0.73,-0.61 -0.73,0 -1.09,0.67 -1.23,1.1 z"
         inkscape:connector-curvature="0"
         style="font-style:normal;font-variant:normal;font-weight:normal;font-stretch:normal;letter-spacing:normal;word-spacing:normal;text-anchor:start;fill:#0000ff;fill-opacity:1;fill-rule:evenodd;stroke:#000000;stroke-width:0;stroke-linecap:butt;stroke-linejoin:miter;stroke-miterlimit:10.43299961;stroke-dasharray:none;stroke-dashoffset:0;stroke-opacity:1" />
      <path
         id="path4684"
         d="m 150.5123,26.55332 0,0.65 1.47,-0.11 0,-0.3 c -0.7,0 -0.78,-0.07 -0.78,-0.56 l 0,-6.03 -1.43,0.11 0,0.31 c 0.69,0 0.77,0.07 0.77,0.55 l 0,2.15 c -0.28,-0.36 -0.71,-0.62 -1.25,-0.62 l 0.04,0.22 c 0.35,0 0.77,0.15 1.07,0.6 0.11,0.17 0.11,0.19 0.11,0.37 l 0,0 0,2.03 c 0,0.18 0,0.2 -0.11,0.37 -0.29,0.48 -0.74,0.7 -1.17,0.7 -0.45,0 -0.8,-0.26 -1.04,-0.64 -0.26,-0.41 -0.29,-0.97 -0.29,-1.38 0,-0.37 0.02,-0.96 0.31,-1.41 0.2,-0.31 0.58,-0.64 1.12,-0.64 l -0.04,-0.22 c -1.17,0 -2.22,0.98 -2.22,2.26 0,1.26 0.98,2.24 2.11,2.24 0.64,0 1.08,-0.33 1.33,-0.65 z"
         inkscape:connector-curvature="0"
         style="font-style:normal;font-variant:normal;font-weight:normal;font-stretch:normal;letter-spacing:normal;word-spacing:normal;text-anchor:start;fill:#0000ff;fill-opacity:1;fill-rule:evenodd;stroke:#000000;stroke-width:0;stroke-linecap:butt;stroke-linejoin:miter;stroke-miterlimit:10.43299961;stroke-dasharray:none;stroke-dashoffset:0;stroke-opacity:1" />
      <path
         id="path4686"
         d="m 153.3723,24.80332 0.01,-0.21 c 0.06,-1.48 0.9,-1.73 1.24,-1.73 1.02,0 1.12,1.34 1.12,1.73 l -2.36,0 -0.01,0.21 2.78,0 c 0.22,0 0.25,0 0.25,-0.21 0,-0.98 -0.54,-1.94 -1.78,-1.94 -1.16,0 -2.07,1.02 -2.07,2.26 0,1.33 1.04,2.29 2.19,2.29 1.21,0 1.66,-1.1 1.66,-1.29 0,-0.1 -0.08,-0.12 -0.13,-0.12 -0.09,0 -0.11,0.06 -0.13,0.14 -0.35,1.03 -1.24,1.03 -1.34,1.03 -0.5,0 -0.9,-0.3 -1.13,-0.67 -0.3,-0.48 -0.3,-1.13 -0.3,-1.49 z"
         inkscape:connector-curvature="0"
         style="font-style:normal;font-variant:normal;font-weight:normal;font-stretch:normal;letter-spacing:normal;word-spacing:normal;text-anchor:start;fill:#0000ff;fill-opacity:1;fill-rule:evenodd;stroke:#000000;stroke-width:0;stroke-linecap:butt;stroke-linejoin:miter;stroke-miterlimit:10.43299961;stroke-dasharray:none;stroke-dashoffset:0;stroke-opacity:1" />
      <path
         id="path4688"
         d="m 158.3623,23.80332 0,-1.1 -1.39,0.11 0,0.31 c 0.7,0 0.78,0.07 0.78,0.56 l 0,2.66 c 0,0.45 -0.11,0.45 -0.78,0.45 l 0,0.3 c 0.39,0 0.86,-0.02 1.14,-0.02 0.4,0 0.86,0 1.26,0.02 l 0,-0.3 -0.21,0 c -0.73,0 -0.75,-0.11 -0.75,-0.47 l 0,-1.53 c 0,-0.98 0.41,-1.87 1.17,-1.87 0.07,0 0.09,0 0.11,0.01 -0.03,0.01 -0.23,0.13 -0.23,0.39 0,0.28 0.21,0.43 0.43,0.43 0.18,0 0.43,-0.12 0.43,-0.44 0,-0.32 -0.31,-0.61 -0.74,-0.61 -0.73,0 -1.08,0.67 -1.22,1.1 z"
         inkscape:connector-curvature="0"
         style="font-style:normal;font-variant:normal;font-weight:normal;font-stretch:normal;letter-spacing:normal;word-spacing:normal;text-anchor:start;fill:#0000ff;fill-opacity:1;fill-rule:evenodd;stroke:#000000;stroke-width:0;stroke-linecap:butt;stroke-linejoin:miter;stroke-miterlimit:10.43299961;stroke-dasharray:none;stroke-dashoffset:0;stroke-opacity:1" />
    </g>
    <path
       style="fill:none;fill-rule:evenodd;stroke:#ff0000;stroke-width:1px;stroke-linecap:butt;stroke-linejoin:miter;stroke-opacity:1"
       d="M 76.18111,85.039341 C 58.464573,76.181073 58.464573,67.322805 58.464573,67.322805"
       id="path4862"
       inkscape:connector-curvature="0" />
    <path
       style="fill:none;fill-rule:evenodd;stroke:#0000ff;stroke-width:1px;stroke-linecap:butt;stroke-linejoin:miter;stroke-opacity:1"
       d="m 164.7638,77.952727 c -14.17323,0 -21.25985,-5.314961 -21.25985,-5.314961"
       id="path4864"
       inkscape:connector-curvature="0" />
    <path
       style="fill:none;fill-rule:evenodd;stroke:#0000ff;stroke-width:1px;stroke-linecap:butt;stroke-linejoin:miter;stroke-opacity:1"
       d="M 324.21263,92.125955 C 306.49609,86.810995 299.40948,72.637766 299.40948,72.637766"
       id="path4866"
       inkscape:connector-curvature="0" />
  </g>
</svg>
