

#define TT TT
#ifndef inc_Z__ADS_umc_mmrfcmos18_circuit_models_umc18config_net
#define inc_Z__ADS_umc_mmrfcmos18_circuit_models_umc18config_net inc_Z__ADS_umc_mmrfcmos18_circuit_models_umc18config_net
#include "Z:\ADS\umc_mmrfcmos18\circuit\models\umc18config.net"
#endif
#undef TT

"n_18_mm":Mn8  N__5 N__14 0 0 Length=0.18 um Width=10 um Mode=1 Noise=yes _M=50 
R:R1  Vout 0 R=50 Ohm Noise=yes 
TLIN:TL1  N__6 N__7 Z=50.0 Ohm E=90 F=1 GHz 
V_Source:SRC1  bias 0 Type="V_DC" Vdc=0.45 V SaveCurrent=1 
V_Source:SRC2  N__6 0 Type="V_DC" Vdc=0.9 V SaveCurrent=1 
Short:I_TRAN_p2  N__7 N__5 Mode=0 SaveCurrent=yes 
C:C1  N__7 N__15 C=100 pF 
R:R2  N__2 N__13 R=5 Ohm Noise=yes 
Short:I_TRAN_p1  N__13 N__14 Mode=0 SaveCurrent=yes 
Short:I_TOTAL_p1  in N__2 Mode=0 SaveCurrent=yes 
Short:I_TOTAL_p2  Vout N__15 Mode=0 SaveCurrent=yes 
