

I_Source:SRC7  0 N__8 Type="I_1Tone" I[1]=1 Freq[1]=20e6    Iac=polar(1,0) mA 
R:R1  N__8 0 R=1 Ohm Noise=yes 
#uselib "ckt" , "VCVS"
VCVS:SRC1  N__8 0 N__12 0 G=0.5 T=0.0 nsec R1=1e100 Ohm R2=0 Ohm F=0.0 GHz 
Short:R2  N__12 out Mode=0 SaveCurrent=no
Short:I_d  out N__0 Mode=0 SaveCurrent=yes 
;#uselib "ckt" , "NonlinVCCS"
;NonlinVCCS:CSRC1  N__0 0 N__0 0 Coeff=list(0,50,1,1,1,1,1) 
SDD:SDD1P1  N__0 0  I[1,0]=tanh(_v1)  

N=6
T=9

;HB:HB1 MaxOrder=0.5*N*(T+1) Freq[1]=1.0 GHz Freq[2]=5 MHz Order[1]=N Order[2]=0.5*N*(T+1)
;HB:HB2 MaxOrder=0.5*N*(T+1) Freq[1]=5 MHz Freq[2]=1 GHz Order[1]=0.5*N*(T+1) Order[2]=N 



