<?xml version="1.0" encoding="UTF-8" standalone="no"?>
<!-- Created with Inkscape (http://www.inkscape.org/) -->

<svg
   xmlns:dc="http://purl.org/dc/elements/1.1/"
   xmlns:cc="http://creativecommons.org/ns#"
   xmlns:rdf="http://www.w3.org/1999/02/22-rdf-syntax-ns#"
   xmlns:svg="http://www.w3.org/2000/svg"
   xmlns="http://www.w3.org/2000/svg"
   xmlns:xlink="http://www.w3.org/1999/xlink"
   xmlns:sodipodi="http://sodipodi.sourceforge.net/DTD/sodipodi-0.dtd"
   xmlns:inkscape="http://www.inkscape.org/namespaces/inkscape"
   width="1099.4902"
   height="357.39319"
   id="svg2"
   version="1.1"
   inkscape:version="0.48.2 r9819"
   sodipodi:docname="Instability.svg">
  <defs
     id="defs4">
    <marker
       inkscape:isstock="true"
       style="overflow:visible"
       id="marker4851B"
       refX="0"
       refY="0"
       orient="auto"
       inkscape:stockid="marker4851B">
      <path
         inkscape:connector-curvature="0"
         transform="scale(-0.6,-0.6)"
         d="M 8.7185878,4.0337352 -2.2072895,0.01601326 8.7185884,-4.0017078 c -1.7454984,2.3720609 -1.7354408,5.6174519 -6e-7,8.035443 z"
         style="fill:#000000;fill-opacity:1;fill-rule:evenodd;stroke:#000000;stroke-width:0.625;stroke-linejoin:round;stroke-opacity:1"
         id="path4092" />
    </marker>
    <marker
       inkscape:isstock="true"
       style="overflow:visible"
       id="marker4851B-1"
       refX="0"
       refY="0"
       orient="auto"
       inkscape:stockid="marker4851B">
      <path
         inkscape:connector-curvature="0"
         transform="scale(-0.6,-0.6)"
         d="M 8.7185878,4.0337352 -2.2072895,0.01601326 8.7185884,-4.0017078 c -1.7454984,2.3720609 -1.7354408,5.6174519 -6e-7,8.035443 z"
         style="fill:#000000;fill-opacity:1;fill-rule:evenodd;stroke:#000000;stroke-width:0.625;stroke-linejoin:round;stroke-opacity:1"
         id="path4092-7" />
    </marker>
    <clipPath
       clipPathUnits="userSpaceOnUse"
       id="clipPath4290">
      <path
         inkscape:connector-curvature="0"
         d="m 0,8.85849 78.9089,0 0,88.58496 -78.9089,0 0,-88.58496 z"
         id="path4292" />
    </clipPath>
  </defs>
  <sodipodi:namedview
     id="base"
     pagecolor="#ffffff"
     bordercolor="#666666"
     borderopacity="1.0"
     inkscape:pageopacity="0.0"
     inkscape:pageshadow="2"
     inkscape:zoom="0.35"
     inkscape:cx="714.14695"
     inkscape:cy="193.55492"
     inkscape:document-units="px"
     inkscape:current-layer="layer1"
     showgrid="false"
     fit-margin-top="0"
     fit-margin-left="0"
     fit-margin-right="0"
     fit-margin-bottom="0"
     inkscape:window-width="1224"
     inkscape:window-height="645"
     inkscape:window-x="32"
     inkscape:window-y="43"
     inkscape:window-maximized="0" />
  <metadata
     id="metadata7">
    <rdf:RDF>
      <cc:Work
         rdf:about="">
        <dc:format>image/svg+xml</dc:format>
        <dc:type
           rdf:resource="http://purl.org/dc/dcmitype/StillImage" />
        <dc:title />
      </cc:Work>
    </rdf:RDF>
  </metadata>
  <g
     inkscape:label="Layer 1"
     inkscape:groupmode="layer"
     id="layer1"
     transform="translate(36.25,-361.36218)">
    <image
       y="369.50507"
       x="-727.14288"
       id="image2993"
       xlink:href="file:///C:/Users/adam.cooman/Google%20Drive/PhDthesis/PubliekePresentatie/pics/microphone.jpg"
       height="221.42857"
       width="221.42857"
       transform="scale(-1,1)" />
    <image
       y="361.36218"
       x="-32.000027"
       id="image3004"
       xlink:href="file:///C:/Users/adam.cooman/Google%20Drive/PhDthesis/PubliekePresentatie/pics/speaker.png"
       height="209.14285"
       width="255.12462" />
    <g
       id="g4599"
       transform="matrix(-4.2753805,0.05284324,0.05284324,4.2753805,2100.3264,275.89266)"
       inkscape:transform-center-x="2.3474282"
       inkscape:transform-center-y="-35.294738">
      <path
         sodipodi:open="true"
         transform="matrix(1,0,0,-1,17.960192,89.280631)"
         sodipodi:end="3.8502917"
         sodipodi:start="2.3987564"
         d="M 394.16935,59.005931 C 389.62936,54.062046 389.50036,46.505187 393.86897,41.40923"
         sodipodi:ry="13.258252"
         sodipodi:rx="13.258252"
         sodipodi:cy="50.038319"
         sodipodi:cx="403.93475"
         id="path3712"
         style="fill:none;stroke:#787878;stroke-width:1;stroke-linecap:round;stroke-linejoin:round;stroke-miterlimit:4;stroke-opacity:1;stroke-dasharray:none"
         sodipodi:type="arc" />
      <path
         sodipodi:open="true"
         transform="matrix(1.5,0,0,-1.5,-184.02376,114.29979)"
         sodipodi:end="3.8554106"
         sodipodi:start="2.4184627"
         d="m 393.99454,58.811762 c -4.39295,-4.977159 -4.42768,-12.436094 -0.0813,-17.453945"
         sodipodi:ry="13.258252"
         sodipodi:rx="13.258252"
         sodipodi:cy="50.038319"
         sodipodi:cx="403.93475"
         id="path3712-1"
         style="fill:none;stroke:#787878;stroke-width:0.66666669;stroke-linecap:round;stroke-linejoin:round;stroke-miterlimit:4;stroke-opacity:1;stroke-dasharray:none"
         sodipodi:type="arc" />
      <path
         sodipodi:open="true"
         transform="matrix(2,0,0,-2,-386.00771,139.31895)"
         sodipodi:end="3.8571796"
         sodipodi:start="2.4172584"
         d="m 394.00511,58.823727 c -4.40888,-4.983098 -4.44159,-12.462151 -0.0765,-17.483624"
         sodipodi:ry="13.258252"
         sodipodi:rx="13.258252"
         sodipodi:cy="50.038319"
         sodipodi:cx="403.93475"
         id="path3712-4"
         style="fill:none;stroke:#787878;stroke-width:0.5;stroke-linecap:round;stroke-linejoin:round;stroke-miterlimit:4;stroke-opacity:1;stroke-dasharray:none"
         sodipodi:type="arc" />
    </g>
    <path
       inkscape:connector-curvature="0"
       style="fill:none;stroke:#000000;stroke-width:5;stroke-linecap:butt;stroke-linejoin:round;stroke-miterlimit:4;stroke-opacity:1;stroke-dasharray:none"
       d="m 424.35773,716.25538 0,-146.77039 -132.24738,73.38523 132.24738,73.38516"
       id="path9915-3-7-6" />
    <path
       inkscape:connector-curvature="0"
       style="fill:none;stroke:#000000;stroke-width:5;stroke-linecap:square;stroke-linejoin:miter;stroke-miterlimit:4;stroke-opacity:1;stroke-dasharray:none"
       d="m 291.80071,642.89596 -325.543399,0"
       id="path9921-2-3-3"
       sodipodi:nodetypes="cc" />
    <path
       style="fill:none;stroke:#000000;stroke-width:5;stroke-linecap:round;stroke-linejoin:round;stroke-miterlimit:4;stroke-opacity:1;stroke-dasharray:none;marker-start:none;marker-mid:none;marker-end:url(#marker4851B)"
       d="m 673.76263,642.93569 -241.50101,0"
       id="path8288-4-5-5"
       sodipodi:nodetypes="cc"
       inkscape:connector-curvature="0" />
    <path
       style="fill:none;stroke:#000000;stroke-width:5;stroke-linecap:round;stroke-linejoin:round;stroke-miterlimit:4;stroke-opacity:1;stroke-dasharray:none;marker-start:none;marker-mid:none;marker-end:url(#marker4851B)"
       d="m -33.444789,489.72906 65.98701,0"
       id="path8288-4-5-5-4"
       sodipodi:nodetypes="cc"
       inkscape:connector-curvature="0" />
    <path
       style="fill:none;stroke:#000000;stroke-width:5;stroke-linecap:butt;stroke-linejoin:miter;stroke-miterlimit:4;stroke-opacity:1;stroke-dasharray:none"
       d="m -33.75,489.50504 0,156.01195"
       id="path3076"
       inkscape:connector-curvature="0"
       sodipodi:nodetypes="cc" />
    <path
       style="fill:none;stroke:#000000;stroke-width:5;stroke-linecap:butt;stroke-linejoin:miter;stroke-miterlimit:4;stroke-opacity:1;stroke-dasharray:none"
       d="m 673.77175,585.73484 0,59.72423"
       id="path3858"
       inkscape:connector-curvature="0"
       sodipodi:nodetypes="cc" />
    <g
       transform="matrix(6.1358182,0,0,-1.25,582.43015,575.94375)"
       id="g4288"
       clip-path="url(#clipPath4290)">
      <g
         id="g4294">
        <path
           inkscape:connector-curvature="0"
           d="m 23.049668,53.15097 8.513882,0 0.07892,0.1474 0.15781,0.53142 0.0789,0.18504 0.07892,0.10326 0.0789,0.0096 0.0789,-0.08683 0.07892,-0.17667 0.07889,-0.25084 0.31566,-1.21265 0.0789,-0.20448 0.07891,-0.11414 0.07892,-0.01065 0.0789,0.09596 0.0789,0.19526 0.0789,0.27722 0.31566,1.34018 0.07889,0.226 0.07892,0.12614 0.07892,0.01177 0.07889,-0.10607 0.07892,-0.21579 0.0789,-0.30637 0.31564,-1.48112 0.0789,-0.24977 0.07892,-0.13941 0.07891,-0.013 0.0789,0.11721 0.07892,0.23849 0.0789,0.33858 0.31564,1.6369 0.07891,0.27605 0.07892,0.15405 0.0789,0.01437 0.0789,-0.12954 0.07892,-0.26355 0.07889,-0.37421 0.31566,-1.80905 0.0789,-0.30507 0.0789,-0.17026 0.07892,-0.01588 0.07891,0.14317 0.0789,0.29126 0.0789,0.41356 0.31566,1.99931 0.07889,0.33716 0.07892,0.18818 0.07892,0.01756 0.07888,-0.15824 0.07892,-0.32192 0.07891,-0.45704 0.31564,-2.20958 0.0789,-0.37262 0.07892,-0.20796 0.0789,-0.01941 0.07891,0.17488 0.07891,0.35578 0.07889,0.50511 0.31566,2.44197 0.07891,0.41179 0.07891,0.22984 0.07891,0.02145 0.0789,-0.19328 0.07892,-0.39319 0.07889,-0.55823 0.31565,-2.69879 0.07891,-0.45509 0.0789,-0.25401 0.07892,-0.02372 0.0789,0.2136 0.07891,0.43454 0.0789,0.61694 0.31566,2.98262 0.07889,0.50298 0.07891,0.28071 0.07892,0.0262 0.07889,-0.23604 0.07892,-0.48025 0.0789,-0.68184 0.31565,-3.2963 0.0789,-0.55586 0.07892,-0.31024 0.0789,-0.02896 0.0789,0.26088 0.07892,0.53074 0.07889,0.75354 0.31566,3.64299 0.0789,0.61434 0.0789,0.34286 0.07892,0.032 0.07891,-0.28831 0.07892,-0.58658 0.07888,-0.8328 0.31566,-4.02612 0.0789,-0.67892 0.07891,-0.37894 0.07892,-0.03537 0.0789,0.31865 0.0789,0.64825 0.07891,0.92039 0.31565,4.44955 0.07889,0.75033 0.07892,0.4188 0.07892,0.03907 0.07889,-0.35215 0.07892,-0.71643 0.0789,-1.01717 0.31564,-4.91753 0.07891,-0.82925 0.07891,-0.46282 0.07891,-0.04321 0.0789,0.38919 0.07892,0.79178 0.07889,1.12416 0.31565,5.43471 0.07891,0.91646 0.0789,0.51151 0.07892,0.04772 0.0789,-0.4301 0.07891,-0.87506 0.0789,-1.2424 0.31566,-6.00627 0.0789,-1.01285 0.0789,-0.56529 0.07892,-0.05275 0.07891,0.47534 0.0789,0.96709 0.0789,1.37304 0.31566,6.63796 0.07889,1.11937 0.07892,0.62475 0.07892,0.05832 0.07888,-0.52534 0.07892,-1.06882 0.07891,-1.51744 0.31564,-7.33607 0.0789,-1.2371 0.07892,-0.69046 0.07891,-0.06444 0.0789,0.58059 0.07892,1.18121 0.07888,1.67703 0.31566,8.10764 0.0789,1.3672 0.07891,0.76306 0.07892,0.07123 0.0789,-0.64166 0.07891,-1.30544 0.0789,-1.85342 0.31565,-8.9603 0.07891,-1.51098 0.0789,-0.84334 0.07892,-0.07871 0.0789,0.70914 0.07891,1.44274 0.0789,2.04834 0.31566,9.90267 0.07889,1.6699 0.07891,0.93203 0.07892,0.08698 0.07889,-0.78372 0.07892,-1.59446 0.0789,-2.26377 0.31565,-10.94416 0.0789,-1.84552 0.07892,-1.03003 0.0789,-0.09614 0.0789,0.86615 0.07892,1.76216 0.07889,2.50183 0.31566,12.09515 0.0789,2.03963 0.0789,1.13837 0.07892,0.10625 0.07891,-0.95723 0.0789,-1.94748 0.0789,-2.76497 0.31566,-13.36721 0.07889,-2.25413 0.07892,-1.2581 0.07892,-0.11742 0.0789,1.05789 0.0789,2.1523 0.07891,3.05577 0.31565,14.77306 0.0789,2.49121 0.07891,1.39039 0.07892,0.12978 0.07889,-1.16917 0.07892,-2.37867 0.0789,-3.37713 0.31564,-16.32674 0.07891,-2.75322 0.07891,-1.53663 0.0789,-0.14342 0.07891,1.29213 0.07892,2.62881 0.07889,3.73233 0.31566,18.04384 0.0789,3.04277 0.0789,1.69826 0.07892,0.15849 0.0789,-1.42802 0.0789,-2.90529 0.07891,-4.12486 0.31566,-19.94153 0.07889,-3.36278 0.07891,-1.87686 0.07893,-0.17517 0.07888,1.57821 0.07892,3.21085 0.0789,4.55867 0.31566,22.0388 0.07889,3.71645 0.07892,2.07425 0.07892,0.19359 0.07888,-1.74422 0.07893,-3.54851 0.0789,-5.03813 0.31564,-24.35663 0.0789,-4.1073 0.07892,-2.2924 0.0789,-0.21396 0.07891,1.92764 0.07892,3.92176 0.07888,5.56796 0.31566,26.91826 0.07891,4.53926 0.0789,2.53349 0.07892,0.23645 0.0789,-2.13037 0.0789,-4.33418 0.07891,-6.15355 0.31566,-29.74929 0.07888,-5.01667 0.07892,-2.79995 0.07892,-0.26132 0.07889,2.35445 0.07892,4.79001 0.0789,6.80073 0.31564,32.87802 0.0789,5.54428 0.07892,3.09443 0.07892,0.2888 0.07889,-2.60205 0.07892,-5.29379 0.0789,-7.51596 0.31565,-36.33585 0.0789,-6.12738 0.07892,-3.41986 0.0789,-0.31918 0.0789,2.87571 0.07892,5.85054 0.07889,8.30644 0.31566,40.15731 0.0789,6.77179 0.07891,3.77952 0.07891,0.35277 0.07891,-3.17816 0.0789,-6.46584 0.0789,-9.18004 0.31566,-44.38067 0.07889,-7.48399 0.07892,-4.17704 0.07891,-0.38986 0.0789,3.51241 0.07891,7.14587 0.07891,10.14549 0.31564,49.04825 0.0789,8.27109 0.07892,4.61633 0.0789,0.43088 0.07891,-3.88182 0.07891,-7.8974 0.07891,-11.21251 0.31564,-54.20671 0.07891,-9.14098 0.07891,-5.10182 0.07891,-0.47618 0.0789,4.29007 0.07892,8.72798 0.07889,12.39174 0.31566,59.90767 0.0789,10.10232 m 0.23672,1.42341 0.07891,-9.64591 0.0789,-13.69499 L 64.15294,12.1903 64.23183,1.0255 M 64.47261,0 l 0.07486,10.1128 0.0789,15.1353 0.31565,73.17138 m 0.39454,2.29602 0.07889,-16.7271 0.31566,-80.8669 m 0.39455,-2.53749 0.07888,18.48632 0.30727,87.23163 m 0.42203,0 L 66.99364,90.8159 67.28108,0 m 0.46138,0 0.04027,11.52478 0.26952,94.77718 m 0.51956,-7.14695 0.23674,-93.45796 m 0.55235,-3.38843 0.23674,103.28702 m 0.5589,0.70632 L 70.37679,0 m 0.57972,0 0.19892,106.30196 m 0.60003,0 L 71.93504,0 m 0.61843,0 0.16211,106.30196 m 0.63505,0 L 73.4969,0 m 0.65012,0 0.13197,106.30196 m 0.66371,0 L 75.06174,0 m 0.67602,0 0.10734,106.30196 m 0.68717,0 L 76.62898,0 m 0.70174,5.10548 0.07892,96.73481 m 0.71017,4.40916 L 78.19823,0"
           style="fill:none;stroke:#ff0000;stroke-width:0.72216886;stroke-linecap:butt;stroke-linejoin:miter;stroke-miterlimit:10;stroke-opacity:1;stroke-dasharray:none"
           id="path4296"
           sodipodi:nodetypes="cccccccccccccccccccccccccccccccccccccccccccccccccccccccccccccccccccccccccccccccccccccccccccccccccccccccccccccccccccccccccccccccccccccccccccccccccccccccccccccccccccccccccccccccccccccccccccccccccccccccccccccccccccccccccccccccccccccccccccccccccccccccccccccccccccccccccccccccccccccccccccccccccccccccccccccccccccccccccccccccccccccccccccc" />
      </g>
    </g>
  </g>
</svg>
