<?xml version="1.0" encoding="UTF-8" standalone="no"?>
<!-- Created with Inkscape (http://www.inkscape.org/) -->

<svg
   xmlns:dc="http://purl.org/dc/elements/1.1/"
   xmlns:cc="http://creativecommons.org/ns#"
   xmlns:rdf="http://www.w3.org/1999/02/22-rdf-syntax-ns#"
   xmlns:svg="http://www.w3.org/2000/svg"
   xmlns="http://www.w3.org/2000/svg"
   xmlns:sodipodi="http://sodipodi.sourceforge.net/DTD/sodipodi-0.dtd"
   xmlns:inkscape="http://www.inkscape.org/namespaces/inkscape"
   width="223.49915"
   height="36.433098"
   viewBox="0 0 223.49915 36.433097"
   id="svg17067"
   version="1.1"
   inkscape:version="0.48.2 r9819"
   sodipodi:docname="INVERSE_Step3.svg">
  <sodipodi:namedview
     id="base"
     pagecolor="#ffffff"
     bordercolor="#666666"
     borderopacity="1.0"
     inkscape:pageopacity="0.0"
     inkscape:pageshadow="2"
     inkscape:zoom="3.959798"
     inkscape:cx="121.46823"
     inkscape:cy="-3.8368337"
     inkscape:document-units="px"
     inkscape:current-layer="layer1"
     showgrid="false"
     inkscape:window-width="824"
     inkscape:window-height="1012"
     inkscape:window-x="840"
     inkscape:window-y="0"
     inkscape:window-maximized="0"
     fit-margin-top="0"
     fit-margin-left="0"
     fit-margin-right="0"
     fit-margin-bottom="0" />
  <defs
     id="defs17069">
    <marker
       inkscape:stockid="Arrow2Mend"
       orient="auto"
       refY="0"
       refX="0"
       id="marker18205"
       style="overflow:visible"
       inkscape:isstock="true">
      <path
         inkscape:connector-curvature="0"
         id="path18207"
         style="fill:#000000;fill-opacity:1;fill-rule:evenodd;stroke:#000000;stroke-width:0.625;stroke-linejoin:round;stroke-opacity:1"
         d="M 8.7185878,4.0337352 -2.2072895,0.01601326 8.7185884,-4.0017078 c -1.7454984,2.3720609 -1.7354408,5.6174519 -6e-7,8.035443 z"
         transform="scale(-0.6,-0.6)" />
    </marker>
    <marker
       inkscape:stockid="Arrow2Mend"
       orient="auto"
       refY="0"
       refX="0"
       id="marker18195"
       style="overflow:visible"
       inkscape:isstock="true">
      <path
         inkscape:connector-curvature="0"
         id="path18197"
         style="fill:#000000;fill-opacity:1;fill-rule:evenodd;stroke:#000000;stroke-width:0.625;stroke-linejoin:round;stroke-opacity:1"
         d="M 8.7185878,4.0337352 -2.2072895,0.01601326 8.7185884,-4.0017078 c -1.7454984,2.3720609 -1.7354408,5.6174519 -6e-7,8.035443 z"
         transform="scale(-0.6,-0.6)" />
    </marker>
    <marker
       inkscape:collect="always"
       inkscape:isstock="true"
       style="overflow:visible"
       id="Arrow2Mend"
       refX="0"
       refY="0"
       orient="auto"
       inkscape:stockid="Arrow2Mend">
      <path
         inkscape:connector-curvature="0"
         transform="scale(-0.6,-0.6)"
         d="M 8.7185878,4.0337352 -2.2072895,0.01601326 8.7185884,-4.0017078 c -1.7454984,2.3720609 -1.7354408,5.6174519 -6e-7,8.035443 z"
         style="fill:#000000;fill-opacity:1;fill-rule:evenodd;stroke:#000000;stroke-width:0.625;stroke-linejoin:round;stroke-opacity:1"
         id="path17952" />
    </marker>
    <marker
       inkscape:stockid="Arrow2Send"
       orient="auto"
       refY="0"
       refX="0"
       id="Arrow2Send-15"
       style="overflow:visible">
      <path
         inkscape:connector-curvature="0"
         id="path9574-259"
         style="font-size:12px;fill-rule:evenodd;stroke-width:0.625;stroke-linejoin:round"
         d="M 8.7185878,4.0337352 -2.2072895,0.01601326 8.7185884,-4.0017078 c -1.7454984,2.3720609 -1.7354408,5.6174519 -6e-7,8.035443 z"
         transform="matrix(-0.3,0,0,-0.3,0.69,0)" />
    </marker>
    <marker
       inkscape:stockid="Arrow2Send"
       orient="auto"
       refY="0"
       refX="0"
       id="marker17022"
       style="overflow:visible">
      <path
         inkscape:connector-curvature="0"
         id="path17024"
         style="font-size:12px;fill-rule:evenodd;stroke-width:0.625;stroke-linejoin:round"
         d="M 8.7185878,4.0337352 -2.2072895,0.01601326 8.7185884,-4.0017078 c -1.7454984,2.3720609 -1.7354408,5.6174519 -6e-7,8.035443 z"
         transform="matrix(-0.3,0,0,-0.3,0.69,0)" />
    </marker>
    <marker
       inkscape:stockid="Arrow2Send"
       orient="auto"
       refY="0"
       refX="0"
       id="marker17026"
       style="overflow:visible">
      <path
         inkscape:connector-curvature="0"
         id="path17028"
         style="font-size:12px;fill-rule:evenodd;stroke-width:0.625;stroke-linejoin:round"
         d="M 8.7185878,4.0337352 -2.2072895,0.01601326 8.7185884,-4.0017078 c -1.7454984,2.3720609 -1.7354408,5.6174519 -6e-7,8.035443 z"
         transform="matrix(-0.3,0,0,-0.3,0.69,0)" />
    </marker>
    <marker
       inkscape:stockid="Arrow2Mend"
       orient="auto"
       refY="0"
       refX="0"
       id="marker3644-405"
       style="overflow:visible">
      <path
         inkscape:connector-curvature="0"
         id="path3646-375"
         style="font-size:12px;fill-rule:evenodd;stroke-width:0.625;stroke-linejoin:round"
         d="M 8.7185878,4.0337352 -2.2072895,0.01601326 8.7185884,-4.0017078 c -1.7454984,2.3720609 -1.7354408,5.6174519 -6e-7,8.035443 z"
         transform="scale(-0.6,-0.6)" />
    </marker>
    <marker
       inkscape:stockid="Arrow2Mend"
       orient="auto"
       refY="0"
       refX="0"
       id="marker3644-655"
       style="overflow:visible">
      <path
         inkscape:connector-curvature="0"
         id="path3646-810"
         style="font-size:12px;fill-rule:evenodd;stroke-width:0.625;stroke-linejoin:round"
         d="M 8.7185878,4.0337352 -2.2072895,0.01601326 8.7185884,-4.0017078 c -1.7454984,2.3720609 -1.7354408,5.6174519 -6e-7,8.035443 z"
         transform="scale(-0.6,-0.6)" />
    </marker>
    <marker
       inkscape:stockid="Arrow2Mend"
       orient="auto"
       refY="0"
       refX="0"
       id="marker3644-26"
       style="overflow:visible">
      <path
         inkscape:connector-curvature="0"
         id="path3646-018"
         style="font-size:12px;fill-rule:evenodd;stroke-width:0.625;stroke-linejoin:round"
         d="M 8.7185878,4.0337352 -2.2072895,0.01601326 8.7185884,-4.0017078 c -1.7454984,2.3720609 -1.7354408,5.6174519 -6e-7,8.035443 z"
         transform="scale(-0.6,-0.6)" />
    </marker>
    <marker
       inkscape:stockid="Arrow2Send"
       orient="auto"
       refY="0"
       refX="0"
       id="Arrow2Send-55"
       style="overflow:visible">
      <path
         inkscape:connector-curvature="0"
         id="path9574-646"
         style="font-size:12px;fill-rule:evenodd;stroke-width:0.625;stroke-linejoin:round"
         d="M 8.7185878,4.0337352 -2.2072895,0.01601326 8.7185884,-4.0017078 c -1.7454984,2.3720609 -1.7354408,5.6174519 -6e-7,8.035443 z"
         transform="matrix(-0.3,0,0,-0.3,0.69,0)" />
    </marker>
    <marker
       inkscape:stockid="Arrow2Send"
       orient="auto"
       refY="0"
       refX="0"
       id="marker17038"
       style="overflow:visible">
      <path
         inkscape:connector-curvature="0"
         id="path17040"
         style="font-size:12px;fill-rule:evenodd;stroke-width:0.625;stroke-linejoin:round"
         d="M 8.7185878,4.0337352 -2.2072895,0.01601326 8.7185884,-4.0017078 c -1.7454984,2.3720609 -1.7354408,5.6174519 -6e-7,8.035443 z"
         transform="matrix(-0.3,0,0,-0.3,0.69,0)" />
    </marker>
    <marker
       inkscape:stockid="Arrow2Mend"
       orient="auto"
       refY="0"
       refX="0"
       id="marker18195-8"
       style="overflow:visible"
       inkscape:isstock="true">
      <path
         inkscape:connector-curvature="0"
         id="path18197-8"
         style="fill:#000000;fill-opacity:1;fill-rule:evenodd;stroke:#000000;stroke-width:0.625;stroke-linejoin:round;stroke-opacity:1"
         d="M 8.7185878,4.0337352 -2.2072895,0.01601326 8.7185884,-4.0017078 c -1.7454984,2.3720609 -1.7354408,5.6174519 -6e-7,8.035443 z"
         transform="scale(-0.6,-0.6)" />
    </marker>
    <marker
       inkscape:stockid="Arrow2Mend"
       orient="auto"
       refY="0"
       refX="0"
       id="marker18195-4"
       style="overflow:visible"
       inkscape:isstock="true">
      <path
         inkscape:connector-curvature="0"
         id="path18197-5"
         style="fill:#000000;fill-opacity:1;fill-rule:evenodd;stroke:#000000;stroke-width:0.625;stroke-linejoin:round;stroke-opacity:1"
         d="M 8.7185878,4.0337352 -2.2072895,0.01601326 8.7185884,-4.0017078 c -1.7454984,2.3720609 -1.7354408,5.6174519 -6e-7,8.035443 z"
         transform="scale(-0.6,-0.6)" />
    </marker>
    <marker
       inkscape:stockid="marker18195-45"
       orient="auto"
       refY="0"
       refX="0"
       id="marker18195-45"
       style="overflow:visible"
       inkscape:isstock="true">
      <path
         inkscape:connector-curvature="0"
         id="path4550"
         style="stroke-linejoin:round;stroke-opacity:1;fill-rule:evenodd;fill-opacity:1;stroke:#006400;stroke-width:0.625;fill:#006400"
         d="M 8.7185878,4.0337352 -2.2072895,0.01601326 8.7185884,-4.0017078 c -1.7454984,2.3720609 -1.7354408,5.6174519 -6e-7,8.035443 z"
         transform="scale(-0.6,-0.6)" />
    </marker>
    <marker
       inkscape:stockid="marker18195-4s"
       orient="auto"
       refY="0"
       refX="0"
       id="marker18195-4s"
       style="overflow:visible"
       inkscape:isstock="true">
      <path
         inkscape:connector-curvature="0"
         id="path4553"
         style="stroke-linejoin:round;stroke-opacity:1;fill-rule:evenodd;fill-opacity:1;stroke:#ff6400;stroke-width:0.625;fill:#ff6400"
         d="M 8.7185878,4.0337352 -2.2072895,0.01601326 8.7185884,-4.0017078 c -1.7454984,2.3720609 -1.7354408,5.6174519 -6e-7,8.035443 z"
         transform="scale(-0.6,-0.6)" />
    </marker>
  </defs>
  <metadata
     id="metadata17072">
    <rdf:RDF>
      <cc:Work
         rdf:about="">
        <dc:format>image/svg+xml</dc:format>
        <dc:type
           rdf:resource="http://purl.org/dc/dcmitype/StillImage" />
        <dc:title />
      </cc:Work>
    </rdf:RDF>
  </metadata>
  <g
     transform="translate(-177.02914,-385.57779)"
     inkscape:label="Layer 1"
     inkscape:groupmode="layer"
     id="layer1">
    <path
       inkscape:connector-curvature="0"
       style="fill:none;stroke:#000000;stroke-width:1;stroke-linecap:round;stroke-linejoin:round;stroke-miterlimit:4;stroke-opacity:1;stroke-dasharray:none"
       d="m 308.83259,386.07779 53.14961,0 0,35.43307 -53.14961,0 0,-35.43307"
       id="path3481-5" />
    <g
       id="g15943-43-1"
       transform="translate(45.684701,-19.630823)">
      <g
         id="g10765-1-8">
        <path
           style="fill:none;stroke:#000000;stroke-width:1;stroke-linecap:round;stroke-linejoin:round;stroke-miterlimit:4;stroke-opacity:1;stroke-dasharray:none"
           d="m 168.30709,405.70864 53.1496,0 0,35.43307 -53.1496,0 0,-35.43307"
           id="path7685-2-1"
           inkscape:connector-curvature="0" />
        <path
           style="fill:none;stroke:#000000;stroke-width:1;stroke-linecap:butt;stroke-linejoin:miter;stroke-miterlimit:4;stroke-opacity:1;stroke-dasharray:none"
           d="m 177.16535,423.42518 0,0"
           id="path7687-3-0"
           sodipodi:nodetypes="cc"
           inkscape:connector-curvature="0" />
      </g>
    </g>
    <path
       inkscape:connector-curvature="0"
       style="fill:none;stroke:#000000;stroke-width:1px;stroke-linecap:round;stroke-linejoin:round;stroke-opacity:1;marker-end:url(#Arrow2Mend)"
       d="m 267.25776,403.79433 39.80315,0"
       id="path8288-69"
       sodipodi:nodetypes="cc" />
    <path
       inkscape:connector-curvature="0"
       style="fill:none;stroke:#000000;stroke-width:1px;stroke-linecap:round;stroke-linejoin:round;stroke-opacity:1;marker-end:url(#marker18205)"
       d="m 361.98112,403.79435 37.03529,0"
       id="path8288-52"
       sodipodi:nodetypes="cc" />
    <path
       inkscape:connector-curvature="0"
       style="fill:none;stroke:#000000;stroke-width:1px;stroke-linecap:round;stroke-linejoin:round;stroke-opacity:1;marker-end:url(#marker18195)"
       d="m 195.75075,403.79435 16.46939,0"
       id="path8288-33"
       sodipodi:nodetypes="cc" />
    <g
       id="g3918">
      <path
         sodipodi:type="arc"
         style="fill:#ffffff;fill-opacity:1;stroke:#000000;stroke-width:1.52083757;stroke-linecap:round;stroke-linejoin:round;stroke-miterlimit:4;stroke-opacity:1;stroke-dasharray:none"
         id="path3040"
         sodipodi:cx="-48.487324"
         sodipodi:cy="-5.4882326"
         sodipodi:rx="8.586297"
         sodipodi:ry="8.586297"
         d="m -39.901027,-5.4882326 c 0,4.7420809 -3.844216,8.586297 -8.586297,8.586297 -4.742081,0 -8.586297,-3.8442161 -8.586297,-8.586297 0,-4.7420814 3.844216,-8.5862974 8.586297,-8.5862974 4.742081,0 8.586297,3.844216 8.586297,8.5862974 z"
         transform="matrix(0.65753243,0,0,0.65753243,309.16877,407.43683)" />
      <path
         style="fill:none;stroke:#000000;stroke-width:1px;stroke-linecap:butt;stroke-linejoin:miter;stroke-opacity:1"
         d="m 277.28678,400.56921 0,6.51786"
         id="path3896"
         inkscape:connector-curvature="0" />
      <path
         style="fill:none;stroke:#000000;stroke-width:1px;stroke-linecap:butt;stroke-linejoin:miter;stroke-opacity:1"
         d="m 280.54571,403.82814 -6.51786,0"
         id="path3896-7"
         inkscape:connector-curvature="0" />
    </g>
    <g
       id="g3918-4"
       transform="translate(96.996826,-0.07618026)">
      <path
         sodipodi:type="arc"
         style="fill:#ffffff;fill-opacity:1;stroke:#000000;stroke-width:1.52083755;stroke-linecap:round;stroke-linejoin:round;stroke-miterlimit:4;stroke-opacity:1;stroke-dasharray:none"
         id="path3040-0"
         sodipodi:cx="-48.487324"
         sodipodi:cy="-5.4882326"
         sodipodi:rx="8.586297"
         sodipodi:ry="8.586297"
         d="m -39.901027,-5.4882326 c 0,4.7420809 -3.844216,8.586297 -8.586297,8.586297 -4.742081,0 -8.586297,-3.8442161 -8.586297,-8.586297 0,-4.7420814 3.844216,-8.5862974 8.586297,-8.5862974 4.742081,0 8.586297,3.844216 8.586297,8.5862974 z"
         transform="matrix(0.65753243,0,0,0.65753243,309.16877,407.43683)" />
      <path
         style="fill:none;stroke:#000000;stroke-width:1px;stroke-linecap:butt;stroke-linejoin:miter;stroke-opacity:1"
         d="m 277.28678,400.56921 0,6.51786"
         id="path3896-9"
         inkscape:connector-curvature="0" />
      <path
         style="fill:none;stroke:#000000;stroke-width:1px;stroke-linecap:butt;stroke-linejoin:miter;stroke-opacity:1"
         d="m 280.54571,403.82814 -6.51786,0"
         id="path3896-7-4"
         inkscape:connector-curvature="0" />
    </g>
    <path
       inkscape:connector-curvature="0"
       style="fill:none;stroke:#000000;stroke-width:1px;stroke-linecap:round;stroke-linejoin:round;stroke-opacity:1;marker-end:url(#marker18195)"
       d="m 277.27303,421.50355 0,-10.59788"
       id="path8288-33-2"
       sodipodi:nodetypes="cc" />
    <path
       inkscape:connector-curvature="0"
       style="fill:none;stroke:#000000;stroke-width:1px;stroke-linecap:round;stroke-linejoin:round;stroke-opacity:1;marker-end:url(#marker18195)"
       d="m 374.36018,421.56576 0,-10.59788"
       id="path8288-33-2-5"
       sodipodi:nodetypes="cc" />
    <text
       sodipodi:linespacing="125%"
       id="text3998"
       y="408.53882"
       x="227.47601"
       style="font-size:10px;font-style:normal;font-variant:normal;font-weight:normal;font-stretch:normal;line-height:125%;letter-spacing:0px;word-spacing:0px;fill:#006400;fill-opacity:1;stroke:none;font-family:Arial;-inkscape-font-specification:Arial"
       xml:space="preserve"><tspan
         y="408.53882"
         x="227.47601"
         id="tspan4000"
         sodipodi:role="line">G<tspan
   id="tspan4002"
   style="font-size:65.00091553000000000%;baseline-shift:super;fill:#006400;fill-opacity:1">BLA</tspan></tspan></text>
    <text
       sodipodi:linespacing="125%"
       id="text4004"
       y="407.84247"
       x="325.42725"
       style="font-size:10px;font-style:normal;font-variant:normal;font-weight:normal;font-stretch:normal;line-height:125%;letter-spacing:0px;word-spacing:0px;fill:#ff6400;fill-opacity:1;stroke:none;font-family:Arial;-inkscape-font-specification:Arial"
       xml:space="preserve"><tspan
         y="407.84247"
         x="325.42725"
         id="tspan4006"
         sodipodi:role="line">G<tspan
   id="tspan4008"
   style="font-size:65.00091553000000000%;baseline-shift:super;fill:#ff6400;fill-opacity:1">BLA</tspan></tspan></text>
    <text
       sodipodi:linespacing="125%"
       id="text4010"
       y="420.24313"
       x="280.44351"
       style="font-size:10px;font-style:normal;font-variant:normal;font-weight:normal;font-stretch:normal;line-height:125%;letter-spacing:0px;word-spacing:0px;fill:#006400;fill-opacity:1;stroke:none;font-family:Arial;-inkscape-font-specification:Arial"
       xml:space="preserve"><tspan
         y="420.24313"
         x="280.44351"
         id="tspan4012"
         sodipodi:role="line">D<tspan
   id="tspan4024"
   style="font-size:65.00000131000000200%;baseline-shift:sub;fill:#006400;fill-opacity:1">1</tspan></tspan></text>
    <text
       sodipodi:linespacing="125%"
       id="text4014"
       y="420.24313"
       x="376.91309"
       style="font-size:10px;font-style:normal;font-variant:normal;font-weight:normal;font-stretch:normal;line-height:125%;letter-spacing:0px;word-spacing:0px;fill:#ff6400;fill-opacity:1;stroke:none;font-family:Arial;-inkscape-font-specification:Arial"
       xml:space="preserve"><tspan
         y="420.24313"
         x="376.91309"
         id="tspan4016"
         sodipodi:role="line">D<tspan
   id="tspan4022"
   style="font-size:65.00091553000000000%;baseline-shift:sub;fill:#ff6400;fill-opacity:1">2</tspan></tspan></text>
    <path
       transform="translate(177.02914,385.57779)"
       inkscape:connector-curvature="0"
       id="path3052"
       d="m 102.02541,21.154541 c 0,-22.09708734 58.46258,-17.0463246 70.58441,-16.6675174 12.12183,0.3788072 47.09836,5.1770318 47.09836,5.1770318"
       style="stroke-linejoin:miter;marker-end:url(#marker18195-45);stroke-opacity:1;marker-start:none;stroke:#006400;stroke-linecap:butt;stroke-miterlimit:4;stroke-dasharray:none;stroke-width:2.00000004000000020;fill:none" />
    <path
       transform="translate(177.02914,385.57779)"
       inkscape:connector-curvature="0"
       id="path4312"
       d="m 199.73214,26.075955 c 0,-10.65147 9.75191,-10.955358 15.51432,-10.580416 2.40084,0.156215 4.14605,-0.08624 4.14605,-0.08624"
       style="fill:none;stroke:#ff6400;stroke-width:2;stroke-linecap:butt;stroke-linejoin:miter;stroke-miterlimit:4;stroke-opacity:1;stroke-dasharray:none;marker-end:url(#marker18195-4s)"
       sodipodi:nodetypes="csc" />
    <g
       transform="translate(71.278706,77.780777)"
       id="g3081">
      <circle
         sodipodi:ry="8.8582678"
         sodipodi:rx="8.8582678"
         sodipodi:cy="237.40155"
         sodipodi:cx="168.30708"
         d="m 177.16535,237.40155 c 0,4.89229 -3.96598,8.85827 -8.85827,8.85827 -4.89228,0 -8.85826,-3.96598 -8.85826,-8.85827 0,-4.89229 3.96598,-8.85827 8.85826,-8.85827 4.89229,0 8.85827,3.96598 8.85827,8.85827 z"
         style="fill:none;stroke:#000000;stroke-width:1;stroke-linecap:round;stroke-linejoin:round;stroke-miterlimit:4;stroke-opacity:1;stroke-dasharray:none"
         id="path7909-0-6"
         transform="translate(-53.149603,88.58268)"
         cx="168.30708"
         cy="237.40155"
         r="8.8582678" />
      <path
         style="fill:none;stroke:#000000;stroke-width:1;stroke-linecap:round;stroke-linejoin:round;stroke-miterlimit:4;stroke-opacity:1;stroke-dasharray:none"
         d="m 108.07087,325.98423 1.77165,-3.54331 1.77165,5.31496 1.77166,3.54331 1.77165,-10.62992 1.77165,5.31496 c 0,0 1.77166,-3.54331 1.77166,-3.54331 l 1.77165,7.08662 1.77165,-5.31496"
         id="path7915-4-3"
         inkscape:connector-curvature="0" />
    </g>
  </g>
</svg>
