<?xml version="1.0" encoding="UTF-8" standalone="no"?>
<!-- Created with Inkscape (http://www.inkscape.org/) -->

<svg
   xmlns:ns0="http://www.iki.fi/pav/software/textext/"
   xmlns:dc="http://purl.org/dc/elements/1.1/"
   xmlns:cc="http://creativecommons.org/ns#"
   xmlns:rdf="http://www.w3.org/1999/02/22-rdf-syntax-ns#"
   xmlns:svg="http://www.w3.org/2000/svg"
   xmlns="http://www.w3.org/2000/svg"
   xmlns:sodipodi="http://sodipodi.sourceforge.net/DTD/sodipodi-0.dtd"
   xmlns:inkscape="http://www.inkscape.org/namespaces/inkscape"
   width="456.44193"
   height="82.651268"
   viewBox="0 0 456.44192 82.651266"
   id="svg17981"
   version="1.1"
   inkscape:version="0.48.2 r9819"
   sodipodi:docname="DCA_systemlevel_cascade.svg">
  <sodipodi:namedview
     id="base"
     pagecolor="#ffffff"
     bordercolor="#666666"
     borderopacity="1.0"
     inkscape:pageopacity="0.0"
     inkscape:pageshadow="2"
     inkscape:zoom="1.4"
     inkscape:cx="547.7375"
     inkscape:cy="90.465122"
     inkscape:document-units="px"
     inkscape:current-layer="layer1"
     showgrid="false"
     fit-margin-top="0"
     fit-margin-left="0"
     fit-margin-right="0"
     fit-margin-bottom="0"
     inkscape:window-width="1680"
     inkscape:window-height="988"
     inkscape:window-x="1672"
     inkscape:window-y="-8"
     inkscape:window-maximized="1"
     showguides="true"
     inkscape:guide-bbox="true">
    <sodipodi:guide
       orientation="0,1"
       position="266.72335,-16.248705"
       id="guide3615" />
    <sodipodi:guide
       id="guide3952"
       position="258.77692,78.037005"
       orientation="0,1" />
    <sodipodi:guide
       id="guide3983"
       position="262.88406,68.215577"
       orientation="0,1" />
    <sodipodi:guide
       id="guide5063"
       orientation="0,1"
       position="312.33504,-63.683844" />
    <sodipodi:guide
       id="guide5092"
       orientation="0,1"
       position="222.43148,-54.718741" />
    <sodipodi:guide
       id="guide5674"
       orientation="0,1"
       position="237.79478,0.71428185" />
    <sodipodi:guide
       id="guide5676"
       orientation="0,1"
       position="234.80584,41.372018" />
    <sodipodi:guide
       id="guide5680"
       orientation="0,1"
       position="193.68763,21.428567" />
    <sodipodi:guide
       position="413.15239,55.053312"
       orientation="1,0"
       id="guide4586" />
  </sodipodi:namedview>
  <defs
     id="defs17983">
    <marker
       inkscape:stockid="Arrow2Mend"
       orient="auto"
       refY="0"
       refX="0"
       id="marker3644-553-2-4-5"
       style="overflow:visible">
      <path
         id="path3646-185-12-7-30"
         style="font-size:12px;fill-rule:evenodd;stroke-width:0.625;stroke-linejoin:round"
         d="M 8.7185878,4.0337352 -2.2072895,0.01601326 8.7185884,-4.0017078 c -1.7454984,2.3720609 -1.7354408,5.6174519 -6e-7,8.035443 z"
         transform="scale(-0.6,-0.6)"
         inkscape:connector-curvature="0" />
    </marker>
    <marker
       inkscape:stockid="Arrow2Mend"
       orient="auto"
       refY="0"
       refX="0"
       id="marker3644-553-2-4-1"
       style="overflow:visible">
      <path
         id="path3646-185-12-7-9"
         style="font-size:12px;fill-rule:evenodd;stroke-width:0.625;stroke-linejoin:round"
         d="M 8.7185878,4.0337352 -2.2072895,0.01601326 8.7185884,-4.0017078 c -1.7454984,2.3720609 -1.7354408,5.6174519 -6e-7,8.035443 z"
         transform="scale(-0.6,-0.6)"
         inkscape:connector-curvature="0" />
    </marker>
    <marker
       inkscape:stockid="Arrow2Mend"
       orient="auto"
       refY="0"
       refX="0"
       id="marker3644-553-2-4-2"
       style="overflow:visible">
      <path
         id="path3646-185-12-7-3"
         style="font-size:12px;fill-rule:evenodd;stroke-width:0.625;stroke-linejoin:round"
         d="M 8.7185878,4.0337352 -2.2072895,0.01601326 8.7185884,-4.0017078 c -1.7454984,2.3720609 -1.7354408,5.6174519 -6e-7,8.035443 z"
         transform="scale(-0.6,-0.6)"
         inkscape:connector-curvature="0" />
    </marker>
    <marker
       inkscape:stockid="Arrow2Mend"
       orient="auto"
       refY="0"
       refX="0"
       id="marker3644-553-2-4"
       style="overflow:visible">
      <path
         id="path3646-185-12-7"
         style="font-size:12px;fill-rule:evenodd;stroke-width:0.625;stroke-linejoin:round"
         d="M 8.7185878,4.0337352 -2.2072895,0.01601326 8.7185884,-4.0017078 c -1.7454984,2.3720609 -1.7354408,5.6174519 -6e-7,8.035443 z"
         transform="scale(-0.6,-0.6)"
         inkscape:connector-curvature="0" />
    </marker>
    <marker
       inkscape:stockid="Arrow2Mend"
       orient="auto"
       refY="0"
       refX="0"
       id="marker3644-553-1-7"
       style="overflow:visible">
      <path
         id="path3646-185-7-3"
         style="font-size:12px;fill-rule:evenodd;stroke-width:0.625;stroke-linejoin:round"
         d="M 8.7185878,4.0337352 -2.2072895,0.01601326 8.7185884,-4.0017078 c -1.7454984,2.3720609 -1.7354408,5.6174519 -6e-7,8.035443 z"
         transform="scale(-0.6,-0.6)"
         inkscape:connector-curvature="0" />
    </marker>
    <marker
       inkscape:stockid="Arrow2Mend"
       orient="auto"
       refY="0"
       refX="0"
       id="marker3644-553-4-7"
       style="overflow:visible">
      <path
         id="path3646-185-9-6"
         style="font-size:12px;fill-rule:evenodd;stroke-width:0.625;stroke-linejoin:round"
         d="M 8.7185878,4.0337352 -2.2072895,0.01601326 8.7185884,-4.0017078 c -1.7454984,2.3720609 -1.7354408,5.6174519 -6e-7,8.035443 z"
         transform="scale(-0.6,-0.6)"
         inkscape:connector-curvature="0" />
    </marker>
    <marker
       inkscape:stockid="Arrow2Mend"
       orient="auto"
       refY="0"
       refX="0"
       id="marker3644-553-2"
       style="overflow:visible">
      <path
         id="path3646-185-12"
         style="font-size:12px;fill-rule:evenodd;stroke-width:0.625;stroke-linejoin:round"
         d="M 8.7185878,4.0337352 -2.2072895,0.01601326 8.7185884,-4.0017078 c -1.7454984,2.3720609 -1.7354408,5.6174519 -6e-7,8.035443 z"
         transform="scale(-0.6,-0.6)"
         inkscape:connector-curvature="0" />
    </marker>
    <marker
       inkscape:stockid="Arrow2Mend"
       orient="auto"
       refY="0"
       refX="0"
       id="marker17771"
       style="overflow:visible">
      <path
         id="path17773"
         style="font-size:12px;fill-rule:evenodd;stroke-width:0.625;stroke-linejoin:round"
         d="M 8.7185878,4.0337352 -2.2072895,0.01601326 8.7185884,-4.0017078 c -1.7454984,2.3720609 -1.7354408,5.6174519 -6e-7,8.035443 z"
         transform="scale(-0.6,-0.6)"
         inkscape:connector-curvature="0" />
    </marker>
    <marker
       inkscape:stockid="Arrow2Mend"
       orient="auto"
       refY="0"
       refX="0"
       id="marker17775"
       style="overflow:visible">
      <path
         id="path17777"
         style="font-size:12px;fill-rule:evenodd;stroke-width:0.625;stroke-linejoin:round"
         d="M 8.7185878,4.0337352 -2.2072895,0.01601326 8.7185884,-4.0017078 c -1.7454984,2.3720609 -1.7354408,5.6174519 -6e-7,8.035443 z"
         transform="scale(-0.6,-0.6)"
         inkscape:connector-curvature="0" />
    </marker>
    <marker
       inkscape:stockid="Arrow2Mend"
       orient="auto"
       refY="0"
       refX="0"
       id="marker17779"
       style="overflow:visible">
      <path
         id="path17781"
         style="font-size:12px;fill-rule:evenodd;stroke-width:0.625;stroke-linejoin:round"
         d="M 8.7185878,4.0337352 -2.2072895,0.01601326 8.7185884,-4.0017078 c -1.7454984,2.3720609 -1.7354408,5.6174519 -6e-7,8.035443 z"
         transform="scale(-0.6,-0.6)"
         inkscape:connector-curvature="0" />
    </marker>
    <marker
       inkscape:stockid="Arrow2Mend"
       orient="auto"
       refY="0"
       refX="0"
       id="marker17783"
       style="overflow:visible">
      <path
         id="path17785"
         style="font-size:12px;fill-rule:evenodd;stroke-width:0.625;stroke-linejoin:round"
         d="M 8.7185878,4.0337352 -2.2072895,0.01601326 8.7185884,-4.0017078 c -1.7454984,2.3720609 -1.7354408,5.6174519 -6e-7,8.035443 z"
         transform="scale(-0.6,-0.6)"
         inkscape:connector-curvature="0" />
    </marker>
    <marker
       inkscape:stockid="Arrow2Mend"
       orient="auto"
       refY="0"
       refX="0"
       id="marker17787"
       style="overflow:visible">
      <path
         id="path17789"
         style="font-size:12px;fill-rule:evenodd;stroke-width:0.625;stroke-linejoin:round"
         d="M 8.7185878,4.0337352 -2.2072895,0.01601326 8.7185884,-4.0017078 c -1.7454984,2.3720609 -1.7354408,5.6174519 -6e-7,8.035443 z"
         transform="scale(-0.6,-0.6)"
         inkscape:connector-curvature="0" />
    </marker>
    <marker
       inkscape:stockid="Arrow2Mend"
       orient="auto"
       refY="0"
       refX="0"
       id="marker17791"
       style="overflow:visible">
      <path
         id="path17793"
         style="font-size:12px;fill-rule:evenodd;stroke-width:0.625;stroke-linejoin:round"
         d="M 8.7185878,4.0337352 -2.2072895,0.01601326 8.7185884,-4.0017078 c -1.7454984,2.3720609 -1.7354408,5.6174519 -6e-7,8.035443 z"
         transform="scale(-0.6,-0.6)"
         inkscape:connector-curvature="0" />
    </marker>
    <marker
       inkscape:stockid="Arrow2Mend"
       orient="auto"
       refY="0"
       refX="0"
       id="marker17795"
       style="overflow:visible">
      <path
         id="path17797"
         style="font-size:12px;fill-rule:evenodd;stroke-width:0.625;stroke-linejoin:round"
         d="M 8.7185878,4.0337352 -2.2072895,0.01601326 8.7185884,-4.0017078 c -1.7454984,2.3720609 -1.7354408,5.6174519 -6e-7,8.035443 z"
         transform="scale(-0.6,-0.6)"
         inkscape:connector-curvature="0" />
    </marker>
    <marker
       inkscape:stockid="Arrow2Send"
       orient="auto"
       refY="0"
       refX="0"
       id="Arrow2Send-06-4"
       style="overflow:visible">
      <path
         id="path9574-116-96"
         style="font-size:12px;fill-rule:evenodd;stroke-width:0.625;stroke-linejoin:round"
         d="M 8.7185878,4.0337352 -2.2072895,0.01601326 8.7185884,-4.0017078 c -1.7454984,2.3720609 -1.7354408,5.6174519 -6e-7,8.035443 z"
         transform="matrix(-0.3,0,0,-0.3,0.69,0)"
         inkscape:connector-curvature="0" />
    </marker>
    <marker
       inkscape:stockid="Arrow2Send"
       orient="auto"
       refY="0"
       refX="0"
       id="marker17801"
       style="overflow:visible">
      <path
         id="path17803"
         style="font-size:12px;fill-rule:evenodd;stroke-width:0.625;stroke-linejoin:round"
         d="M 8.7185878,4.0337352 -2.2072895,0.01601326 8.7185884,-4.0017078 c -1.7454984,2.3720609 -1.7354408,5.6174519 -6e-7,8.035443 z"
         transform="matrix(-0.3,0,0,-0.3,0.69,0)"
         inkscape:connector-curvature="0" />
    </marker>
    <marker
       inkscape:stockid="Arrow2Send"
       orient="auto"
       refY="0"
       refX="0"
       id="marker17805"
       style="overflow:visible">
      <path
         id="path17807"
         style="font-size:12px;fill-rule:evenodd;stroke-width:0.625;stroke-linejoin:round"
         d="M 8.7185878,4.0337352 -2.2072895,0.01601326 8.7185884,-4.0017078 c -1.7454984,2.3720609 -1.7354408,5.6174519 -6e-7,8.035443 z"
         transform="matrix(-0.3,0,0,-0.3,0.69,0)"
         inkscape:connector-curvature="0" />
    </marker>
    <marker
       inkscape:stockid="Arrow2Mend"
       orient="auto"
       refY="0"
       refX="0"
       id="marker17809"
       style="overflow:visible">
      <path
         id="path17811"
         style="font-size:12px;fill-rule:evenodd;stroke-width:0.625;stroke-linejoin:round"
         d="M 8.7185878,4.0337352 -2.2072895,0.01601326 8.7185884,-4.0017078 c -1.7454984,2.3720609 -1.7354408,5.6174519 -6e-7,8.035443 z"
         transform="scale(-0.6,-0.6)"
         inkscape:connector-curvature="0" />
    </marker>
    <marker
       inkscape:stockid="Arrow2Mend"
       orient="auto"
       refY="0"
       refX="0"
       id="marker17813"
       style="overflow:visible">
      <path
         id="path17815"
         style="font-size:12px;fill-rule:evenodd;stroke-width:0.625;stroke-linejoin:round"
         d="M 8.7185878,4.0337352 -2.2072895,0.01601326 8.7185884,-4.0017078 c -1.7454984,2.3720609 -1.7354408,5.6174519 -6e-7,8.035443 z"
         transform="scale(-0.6,-0.6)"
         inkscape:connector-curvature="0" />
    </marker>
    <marker
       inkscape:stockid="Arrow2Mend"
       orient="auto"
       refY="0"
       refX="0"
       id="marker3644-553-1"
       style="overflow:visible">
      <path
         id="path3646-185-7"
         style="font-size:12px;fill-rule:evenodd;stroke-width:0.625;stroke-linejoin:round"
         d="M 8.7185878,4.0337352 -2.2072895,0.01601326 8.7185884,-4.0017078 c -1.7454984,2.3720609 -1.7354408,5.6174519 -6e-7,8.035443 z"
         transform="scale(-0.6,-0.6)"
         inkscape:connector-curvature="0" />
    </marker>
    <marker
       inkscape:stockid="Arrow2Mend"
       orient="auto"
       refY="0"
       refX="0"
       id="marker3644-553-4"
       style="overflow:visible">
      <path
         id="path3646-185-9"
         style="font-size:12px;fill-rule:evenodd;stroke-width:0.625;stroke-linejoin:round"
         d="M 8.7185878,4.0337352 -2.2072895,0.01601326 8.7185884,-4.0017078 c -1.7454984,2.3720609 -1.7354408,5.6174519 -6e-7,8.035443 z"
         transform="scale(-0.6,-0.6)"
         inkscape:connector-curvature="0" />
    </marker>
    <marker
       inkscape:stockid="Arrow2Mend"
       orient="auto"
       refY="0"
       refX="0"
       id="marker3644-553"
       style="overflow:visible">
      <path
         id="path3646-185"
         style="font-size:12px;fill-rule:evenodd;stroke-width:0.625;stroke-linejoin:round"
         d="M 8.7185878,4.0337352 -2.2072895,0.01601326 8.7185884,-4.0017078 c -1.7454984,2.3720609 -1.7354408,5.6174519 -6e-7,8.035443 z"
         transform="scale(-0.6,-0.6)"
         inkscape:connector-curvature="0" />
    </marker>
    <marker
       inkscape:stockid="Arrow2Mend"
       orient="auto"
       refY="0"
       refX="0"
       id="marker17823"
       style="overflow:visible">
      <path
         id="path17825"
         style="font-size:12px;fill-rule:evenodd;stroke-width:0.625;stroke-linejoin:round"
         d="M 8.7185878,4.0337352 -2.2072895,0.01601326 8.7185884,-4.0017078 c -1.7454984,2.3720609 -1.7354408,5.6174519 -6e-7,8.035443 z"
         transform="scale(-0.6,-0.6)"
         inkscape:connector-curvature="0" />
    </marker>
    <marker
       inkscape:stockid="Arrow2Mend"
       orient="auto"
       refY="0"
       refX="0"
       id="marker17827"
       style="overflow:visible">
      <path
         id="path17829"
         style="font-size:12px;fill-rule:evenodd;stroke-width:0.625;stroke-linejoin:round"
         d="M 8.7185878,4.0337352 -2.2072895,0.01601326 8.7185884,-4.0017078 c -1.7454984,2.3720609 -1.7354408,5.6174519 -6e-7,8.035443 z"
         transform="scale(-0.6,-0.6)"
         inkscape:connector-curvature="0" />
    </marker>
    <marker
       inkscape:stockid="Arrow2Mend"
       orient="auto"
       refY="0"
       refX="0"
       id="marker17831"
       style="overflow:visible">
      <path
         id="path17833"
         style="font-size:12px;fill-rule:evenodd;stroke-width:0.625;stroke-linejoin:round"
         d="M 8.7185878,4.0337352 -2.2072895,0.01601326 8.7185884,-4.0017078 c -1.7454984,2.3720609 -1.7354408,5.6174519 -6e-7,8.035443 z"
         transform="scale(-0.6,-0.6)"
         inkscape:connector-curvature="0" />
    </marker>
    <marker
       inkscape:stockid="Arrow2Mend"
       orient="auto"
       refY="0"
       refX="0"
       id="marker17835"
       style="overflow:visible">
      <path
         id="path17837"
         style="font-size:12px;fill-rule:evenodd;stroke-width:0.625;stroke-linejoin:round"
         d="M 8.7185878,4.0337352 -2.2072895,0.01601326 8.7185884,-4.0017078 c -1.7454984,2.3720609 -1.7354408,5.6174519 -6e-7,8.035443 z"
         transform="scale(-0.6,-0.6)"
         inkscape:connector-curvature="0" />
    </marker>
    <marker
       inkscape:stockid="Arrow2Mend"
       orient="auto"
       refY="0"
       refX="0"
       id="marker17839"
       style="overflow:visible">
      <path
         id="path17841"
         style="font-size:12px;fill-rule:evenodd;stroke-width:0.625;stroke-linejoin:round"
         d="M 8.7185878,4.0337352 -2.2072895,0.01601326 8.7185884,-4.0017078 c -1.7454984,2.3720609 -1.7354408,5.6174519 -6e-7,8.035443 z"
         transform="scale(-0.6,-0.6)"
         inkscape:connector-curvature="0" />
    </marker>
    <marker
       inkscape:stockid="Arrow2Mend"
       orient="auto"
       refY="0"
       refX="0"
       id="marker17843"
       style="overflow:visible">
      <path
         id="path17845"
         style="font-size:12px;fill-rule:evenodd;stroke-width:0.625;stroke-linejoin:round"
         d="M 8.7185878,4.0337352 -2.2072895,0.01601326 8.7185884,-4.0017078 c -1.7454984,2.3720609 -1.7354408,5.6174519 -6e-7,8.035443 z"
         transform="scale(-0.6,-0.6)"
         inkscape:connector-curvature="0" />
    </marker>
    <marker
       inkscape:stockid="Arrow2Mend"
       orient="auto"
       refY="0"
       refX="0"
       id="marker17847"
       style="overflow:visible">
      <path
         id="path17849"
         style="font-size:12px;fill-rule:evenodd;stroke-width:0.625;stroke-linejoin:round"
         d="M 8.7185878,4.0337352 -2.2072895,0.01601326 8.7185884,-4.0017078 c -1.7454984,2.3720609 -1.7354408,5.6174519 -6e-7,8.035443 z"
         transform="scale(-0.6,-0.6)"
         inkscape:connector-curvature="0" />
    </marker>
    <marker
       inkscape:stockid="Arrow2Send"
       orient="auto"
       refY="0"
       refX="0"
       id="Arrow2Send-06"
       style="overflow:visible">
      <path
         id="path9574-116"
         style="font-size:12px;fill-rule:evenodd;stroke-width:0.625;stroke-linejoin:round"
         d="M 8.7185878,4.0337352 -2.2072895,0.01601326 8.7185884,-4.0017078 c -1.7454984,2.3720609 -1.7354408,5.6174519 -6e-7,8.035443 z"
         transform="matrix(-0.3,0,0,-0.3,0.69,0)"
         inkscape:connector-curvature="0" />
    </marker>
    <marker
       inkscape:stockid="Arrow2Send"
       orient="auto"
       refY="0"
       refX="0"
       id="marker17853"
       style="overflow:visible">
      <path
         id="path17855"
         style="font-size:12px;fill-rule:evenodd;stroke-width:0.625;stroke-linejoin:round"
         d="M 8.7185878,4.0337352 -2.2072895,0.01601326 8.7185884,-4.0017078 c -1.7454984,2.3720609 -1.7354408,5.6174519 -6e-7,8.035443 z"
         transform="matrix(-0.3,0,0,-0.3,0.69,0)"
         inkscape:connector-curvature="0" />
    </marker>
    <marker
       inkscape:stockid="Arrow2Send"
       orient="auto"
       refY="0"
       refX="0"
       id="marker17857"
       style="overflow:visible">
      <path
         id="path17859"
         style="font-size:12px;fill-rule:evenodd;stroke-width:0.625;stroke-linejoin:round"
         d="M 8.7185878,4.0337352 -2.2072895,0.01601326 8.7185884,-4.0017078 c -1.7454984,2.3720609 -1.7354408,5.6174519 -6e-7,8.035443 z"
         transform="matrix(-0.3,0,0,-0.3,0.69,0)"
         inkscape:connector-curvature="0" />
    </marker>
    <marker
       inkscape:stockid="Arrow2Mend"
       orient="auto"
       refY="0"
       refX="0"
       id="marker17861"
       style="overflow:visible">
      <path
         id="path17863"
         style="font-size:12px;fill-rule:evenodd;stroke-width:0.625;stroke-linejoin:round"
         d="M 8.7185878,4.0337352 -2.2072895,0.01601326 8.7185884,-4.0017078 c -1.7454984,2.3720609 -1.7354408,5.6174519 -6e-7,8.035443 z"
         transform="scale(-0.6,-0.6)"
         inkscape:connector-curvature="0" />
    </marker>
    <marker
       inkscape:stockid="Arrow2Mend"
       orient="auto"
       refY="0"
       refX="0"
       id="marker17865"
       style="overflow:visible">
      <path
         id="path17867"
         style="font-size:12px;fill-rule:evenodd;stroke-width:0.625;stroke-linejoin:round"
         d="M 8.7185878,4.0337352 -2.2072895,0.01601326 8.7185884,-4.0017078 c -1.7454984,2.3720609 -1.7354408,5.6174519 -6e-7,8.035443 z"
         transform="scale(-0.6,-0.6)"
         inkscape:connector-curvature="0" />
    </marker>
    <marker
       inkscape:stockid="Arrow2Send"
       orient="auto"
       refY="0"
       refX="0"
       id="Arrow2Send-06-0"
       style="overflow:visible">
      <path
         id="path9574-116-5"
         style="font-size:12px;fill-rule:evenodd;stroke-width:0.625;stroke-linejoin:round"
         d="M 8.7185878,4.0337352 -2.2072895,0.01601326 8.7185884,-4.0017078 c -1.7454984,2.3720609 -1.7354408,5.6174519 -6e-7,8.035443 z"
         transform="matrix(-0.3,0,0,-0.3,0.69,0)"
         inkscape:connector-curvature="0" />
    </marker>
    <marker
       inkscape:stockid="Arrow2Send"
       orient="auto"
       refY="0"
       refX="0"
       id="marker4494"
       style="overflow:visible">
      <path
         id="path4496"
         style="font-size:12px;fill-rule:evenodd;stroke-width:0.625;stroke-linejoin:round"
         d="M 8.7185878,4.0337352 -2.2072895,0.01601326 8.7185884,-4.0017078 c -1.7454984,2.3720609 -1.7354408,5.6174519 -6e-7,8.035443 z"
         transform="matrix(-0.3,0,0,-0.3,0.69,0)"
         inkscape:connector-curvature="0" />
    </marker>
    <marker
       inkscape:stockid="Arrow2Send"
       orient="auto"
       refY="0"
       refX="0"
       id="marker4498"
       style="overflow:visible">
      <path
         id="path4500"
         style="font-size:12px;fill-rule:evenodd;stroke-width:0.625;stroke-linejoin:round"
         d="M 8.7185878,4.0337352 -2.2072895,0.01601326 8.7185884,-4.0017078 c -1.7454984,2.3720609 -1.7354408,5.6174519 -6e-7,8.035443 z"
         transform="matrix(-0.3,0,0,-0.3,0.69,0)"
         inkscape:connector-curvature="0" />
    </marker>
    <marker
       inkscape:stockid="Arrow2Mend"
       orient="auto"
       refY="0"
       refX="0"
       id="marker3644-553-8"
       style="overflow:visible">
      <path
         id="path3646-185-0"
         style="font-size:12px;fill-rule:evenodd;stroke-width:0.625;stroke-linejoin:round"
         d="M 8.7185878,4.0337352 -2.2072895,0.01601326 8.7185884,-4.0017078 c -1.7454984,2.3720609 -1.7354408,5.6174519 -6e-7,8.035443 z"
         transform="scale(-0.6,-0.6)"
         inkscape:connector-curvature="0" />
    </marker>
    <marker
       inkscape:stockid="Arrow2Mend"
       orient="auto"
       refY="0"
       refX="0"
       id="marker3644-553-6"
       style="overflow:visible">
      <path
         id="path3646-185-99"
         style="font-size:12px;fill-rule:evenodd;stroke-width:0.625;stroke-linejoin:round"
         d="M 8.7185878,4.0337352 -2.2072895,0.01601326 8.7185884,-4.0017078 c -1.7454984,2.3720609 -1.7354408,5.6174519 -6e-7,8.035443 z"
         transform="scale(-0.6,-0.6)"
         inkscape:connector-curvature="0" />
    </marker>
    <marker
       inkscape:stockid="Arrow2Mend"
       orient="auto"
       refY="0"
       refX="0"
       id="marker4786"
       style="overflow:visible">
      <path
         id="path4788"
         style="font-size:12px;fill-rule:evenodd;stroke-width:0.625;stroke-linejoin:round"
         d="M 8.7185878,4.0337352 -2.2072895,0.01601326 8.7185884,-4.0017078 c -1.7454984,2.3720609 -1.7354408,5.6174519 -6e-7,8.035443 z"
         transform="scale(-0.6,-0.6)"
         inkscape:connector-curvature="0" />
    </marker>
    <marker
       inkscape:stockid="Arrow2Mend"
       orient="auto"
       refY="0"
       refX="0"
       id="marker3644-553-6-0"
       style="overflow:visible">
      <path
         id="path3646-185-99-6"
         style="font-size:12px;fill-rule:evenodd;stroke-width:0.625;stroke-linejoin:round"
         d="M 8.7185878,4.0337352 -2.2072895,0.01601326 8.7185884,-4.0017078 c -1.7454984,2.3720609 -1.7354408,5.6174519 -6e-7,8.035443 z"
         transform="scale(-0.6,-0.6)"
         inkscape:connector-curvature="0" />
    </marker>
    <marker
       inkscape:stockid="Arrow2Mend"
       orient="auto"
       refY="0"
       refX="0"
       id="marker3644-553-6-2"
       style="overflow:visible">
      <path
         id="path3646-185-99-0"
         style="font-size:12px;fill-rule:evenodd;stroke-width:0.625;stroke-linejoin:round"
         d="M 8.7185878,4.0337352 -2.2072895,0.01601326 8.7185884,-4.0017078 c -1.7454984,2.3720609 -1.7354408,5.6174519 -6e-7,8.035443 z"
         transform="scale(-0.6,-0.6)"
         inkscape:connector-curvature="0" />
    </marker>
  </defs>
  <metadata
     id="metadata17986">
    <rdf:RDF>
      <cc:Work
         rdf:about="">
        <dc:format>image/svg+xml</dc:format>
        <dc:type
           rdf:resource="http://purl.org/dc/dcmitype/StillImage" />
        <dc:title />
      </cc:Work>
    </rdf:RDF>
  </metadata>
  <g
     transform="translate(11.505011,-382.86695)"
     id="layer1"
     inkscape:groupmode="layer"
     inkscape:label="Layer 1">
    <path
       inkscape:connector-curvature="0"
       style="fill:none;stroke:#000000;stroke-width:1px;stroke-linecap:round;stroke-linejoin:round;stroke-opacity:1;marker-start:none;marker-mid:none;marker-end:url(#marker3644-553)"
       d="m 208.43483,444.35865 8.8582,0"
       id="path8288-2-4-1-1-7-2-2"
       sodipodi:nodetypes="cc" />
    <path
       sodipodi:nodetypes="ccccc"
       inkscape:connector-curvature="0"
       style="fill:#ffffff;fill-opacity:1;stroke:#0000ff;stroke-width:1;stroke-linecap:round;stroke-linejoin:round;stroke-miterlimit:4;stroke-dasharray:none;stroke-opacity:1"
       d="m 275.75763,383.37407 23.03139,0 0,30.18967 -23.03139,0 0,-30.18967"
       id="path7886-8-4-1-3-6-3-1-2-4" />
    <path
       inkscape:connector-curvature="0"
       style="fill:none;stroke:#000000;stroke-width:1px;stroke-linecap:round;stroke-linejoin:round;stroke-opacity:1;marker-start:none;marker-mid:none;marker-end:url(#marker3644-553)"
       d="m 256.26943,387.48121 0,40.25576"
       id="path8288-2-4-1-3-1-2-4-2-9"
       sodipodi:nodetypes="cc" />
    <path
       sodipodi:nodetypes="cc"
       inkscape:connector-curvature="0"
       id="path18401-7-2-1-34"
       d="m 275.75763,387.48121 -19.4882,0.0275"
       style="fill:none;stroke:#000000;stroke-width:1px;stroke-linecap:butt;stroke-linejoin:miter;stroke-opacity:1" />
    <path
       inkscape:connector-curvature="0"
       id="path18429-9-3-6-0"
       d="m 316.50562,387.48121 0,45.57072"
       style="fill:none;stroke:#000000;stroke-width:1px;stroke-linecap:butt;stroke-linejoin:miter;stroke-opacity:1"
       sodipodi:nodetypes="cc" />
    <g
       transform="translate(30.494134,118.37445)"
       id="g4215-3-2-5-0">
      <circle
         transform="translate(0.7753808,88.582676)"
         id="path7917-9-1-7-49"
         style="fill:none;stroke:#000000;stroke-width:1;stroke-linecap:round;stroke-linejoin:round;stroke-miterlimit:4;stroke-dasharray:none;stroke-opacity:1"
         cx="168.30708"
         cy="237.40155"
         r="8.8582678"
         d="m 177.16535,237.40155 c 0,4.89229 -3.96598,8.85827 -8.85827,8.85827 -4.89228,0 -8.85826,-3.96598 -8.85826,-8.85827 0,-4.89229 3.96598,-8.85827 8.85826,-8.85827 4.89229,0 8.85827,3.96598 8.85827,8.85827 z" />
      <path
         inkscape:connector-curvature="0"
         id="path7919-8-6-6-47"
         d="m 163.7675,329.52754 10.62992,0"
         style="fill:none;stroke:#000000;stroke-width:1;stroke-linecap:butt;stroke-linejoin:miter;stroke-miterlimit:4;stroke-dasharray:none;stroke-opacity:1" />
      <path
         inkscape:connector-curvature="0"
         sodipodi:nodetypes="cc"
         id="path7921-8-8-1-3"
         d="m 165.53916,329.52754 0,-7.08662"
         style="fill:none;stroke:#000000;stroke-width:1;stroke-linecap:butt;stroke-linejoin:miter;stroke-miterlimit:4;stroke-dasharray:none;stroke-opacity:1;marker-end:url(#Arrow2Send-06)" />
      <path
         inkscape:connector-curvature="0"
         sodipodi:nodetypes="cc"
         id="path7923-0-5-8-8"
         d="m 169.08246,329.52754 0,-7.08662"
         style="fill:none;stroke:#000000;stroke-width:1;stroke-linecap:butt;stroke-linejoin:miter;stroke-miterlimit:4;stroke-dasharray:none;stroke-opacity:1;marker-end:url(#Arrow2Send-06)" />
      <path
         inkscape:connector-curvature="0"
         sodipodi:nodetypes="cc"
         id="path7925-8-7-9-5"
         d="m 172.62577,329.52754 0,-7.08662"
         style="fill:none;stroke:#000000;stroke-width:1;stroke-linecap:butt;stroke-linejoin:miter;stroke-miterlimit:4;stroke-dasharray:none;stroke-opacity:1;marker-end:url(#Arrow2Send-06)" />
    </g>
    <path
       style="fill:none;stroke:#000000;stroke-width:1px;stroke-linecap:round;stroke-linejoin:round;stroke-opacity:1;marker-start:none;marker-mid:none;marker-end:url(#marker3644-553)"
       d="m 266.01353,456.24793 8.8582,0"
       id="path10734-3-61-2-4"
       sodipodi:nodetypes="cc"
       inkscape:connector-curvature="0" />
    <path
       style="fill:none;stroke:#000000;stroke-width:1px;stroke-linecap:round;stroke-linejoin:round;stroke-opacity:1;marker-start:none;marker-mid:none;marker-end:url(#marker3644-553)"
       d="m 298.78912,433.05193 24.8031,0"
       id="path10734-3-9-8-7-0"
       sodipodi:nodetypes="cc"
       inkscape:connector-curvature="0" />
    <path
       style="fill:none;stroke:#000000;stroke-width:1px;stroke-linecap:round;stroke-linejoin:round;stroke-opacity:1;marker-start:none;marker-mid:none;marker-end:url(#marker3644-553)"
       d="m 259.81273,433.05193 14.1732,0"
       id="path10734-3-61-9-5-2"
       sodipodi:nodetypes="cc"
       inkscape:connector-curvature="0" />
    <path
       style="fill:none;stroke:#000000;stroke-width:1px;stroke-linecap:round;stroke-linejoin:round;stroke-opacity:1;marker-start:none;marker-mid:none;marker-end:url(#marker3644-553)"
       d="m 298.78912,456.24793 24.8031,0"
       id="path10734-3-9-8-6-4-3"
       sodipodi:nodetypes="cc"
       inkscape:connector-curvature="0" />
    <path
       style="fill:none;stroke:#000000;stroke-width:1px;stroke-linecap:round;stroke-linejoin:round;stroke-opacity:1;marker-start:none;marker-mid:none;marker-end:url(#marker3644-553)"
       d="m 240.32443,456.24793 15.945,0"
       id="path10734-3-6-9-1-3-5"
       sodipodi:nodetypes="cc"
       inkscape:connector-curvature="0" />
    <path
       inkscape:connector-curvature="0"
       style="fill:#ffffff;fill-opacity:1;stroke:#0000ff;stroke-width:1;stroke-linecap:round;stroke-linejoin:round;stroke-miterlimit:4;stroke-dasharray:none;stroke-opacity:1"
       d="m 219.06473,424.19366 23.0315,0 0,40.60898 -23.0315,0 0,-40.60898"
       id="path7886-8-4-1-5-1-1-1"
       sodipodi:nodetypes="ccccc" />
    <path
       sodipodi:nodetypes="cc"
       inkscape:connector-curvature="0"
       id="path18401-7-2-3-2-0"
       d="m 275.75763,408.19367 -14.1732,0.0551"
       style="fill:none;stroke:#000000;stroke-width:1px;stroke-linecap:butt;stroke-linejoin:miter;stroke-opacity:1" />
    <path
       inkscape:connector-curvature="0"
       id="path18429-9-3-8-3-5"
       d="m 311.19072,408.24878 0,48.20375"
       style="fill:none;stroke:#000000;stroke-width:0.99921262;stroke-linecap:butt;stroke-linejoin:miter;stroke-miterlimit:4;stroke-dasharray:none;stroke-opacity:1"
       sodipodi:nodetypes="cc" />
    <path
       inkscape:connector-curvature="0"
       style="fill:none;stroke:#000000;stroke-width:1px;stroke-linecap:round;stroke-linejoin:round;stroke-opacity:1;marker-start:none;marker-mid:none;marker-end:url(#marker3644-553)"
       d="m 261.58443,408.24878 -10e-5,43.06119"
       id="path8288-2-4-1-3-1-2-4-6-3-85"
       sodipodi:nodetypes="cc" />
    <path
       style="fill:none;stroke:#000000;stroke-width:1px;stroke-linecap:round;stroke-linejoin:round;stroke-opacity:1;marker-start:none;marker-mid:none;marker-end:url(#marker3644-553)"
       d="m 316.59491,387.48121 -15.9448,0"
       id="path10734-3-6-9-4-4-27"
       sodipodi:nodetypes="cc"
       inkscape:connector-curvature="0" />
    <path
       style="fill:none;stroke:#000000;stroke-width:1px;stroke-linecap:round;stroke-linejoin:round;stroke-opacity:1;marker-start:none;marker-mid:none;marker-end:url(#marker3644-553)"
       d="m 311.19072,408.24878 -10.6299,0"
       id="path10734-3-6-9-4-8-1-0"
       sodipodi:nodetypes="cc"
       inkscape:connector-curvature="0" />
    <g
       id="g7830-1-7"
       transform="translate(-470.10852,273.76764)">
      <circle
         style="fill:none;stroke:#000000;stroke-width:0.99921262;stroke-miterlimit:4;stroke-dasharray:none;stroke-opacity:1"
         id="path7806-3-32"
         cx="731.69293"
         cy="182.48029"
         r="3.5433071"
         d="m 735.23624,182.48029 c 0,1.95691 -1.58639,3.5433 -3.54331,3.5433 -1.95691,0 -3.5433,-1.58639 -3.5433,-3.5433 0,-1.95692 1.58639,-3.54331 3.5433,-3.54331 1.95692,0 3.54331,1.58639 3.54331,3.54331 z" />
      <path
         style="fill:none;stroke:#000000;stroke-width:1px;stroke-linecap:butt;stroke-linejoin:miter;stroke-opacity:1"
         d="m 731.69291,180.70864 c 0,3.54331 0,3.54331 0,3.54331"
         id="path7808-8-7"
         inkscape:connector-curvature="0" />
      <path
         style="fill:none;stroke:#000000;stroke-width:1px;stroke-linecap:butt;stroke-linejoin:miter;stroke-opacity:1"
         d="m 729.92126,182.48029 3.54331,0"
         id="path7810-7-7"
         inkscape:connector-curvature="0" />
    </g>
    <g
       id="g7830-9-4-4"
       transform="translate(-475.42349,250.57161)">
      <circle
         style="fill:none;stroke:#000000;stroke-width:0.99921262;stroke-miterlimit:4;stroke-dasharray:none;stroke-opacity:1"
         id="path7806-1-2-2"
         cx="731.69293"
         cy="182.48029"
         r="3.5433071"
         d="m 735.23624,182.48029 c 0,1.95691 -1.58639,3.5433 -3.54331,3.5433 -1.95691,0 -3.5433,-1.58639 -3.5433,-3.5433 0,-1.95692 1.58639,-3.54331 3.5433,-3.54331 1.95692,0 3.54331,1.58639 3.54331,3.54331 z" />
      <path
         style="fill:none;stroke:#000000;stroke-width:1px;stroke-linecap:butt;stroke-linejoin:miter;stroke-opacity:1"
         d="m 731.69291,180.70864 c 0,3.54331 0,3.54331 0,3.54331"
         id="path7808-3-7-3"
         inkscape:connector-curvature="0" />
      <path
         style="fill:none;stroke:#000000;stroke-width:1px;stroke-linecap:butt;stroke-linejoin:miter;stroke-opacity:1"
         d="m 729.92126,182.48029 3.54331,0"
         id="path7810-5-7-2"
         inkscape:connector-curvature="0" />
    </g>
    <path
       id="path25233-2-6-2"
       d="m 213.42143,436.28262 0.09,-0.02 0.1,-0.03 0.09,-0.03 0.1,-0.03 0.09,-0.03 0.1,-0.03 0.1,-0.04 0.09,-0.04 0.1,-0.05 0.09,-0.04 0.09,-0.05 0.09,-0.05 0.09,-0.05 0.08,-0.06 0.09,-0.06 0.08,-0.06 0.07,-0.06 0.08,-0.06 0.07,-0.07 0.07,-0.07 0.06,-0.07 0.06,-0.07 0.05,-0.08 0.05,-0.08 0.05,-0.08 0.04,-0.08 0.03,-0.08 0.03,-0.09 0.02,-0.09 0.02,-0.09 0.01,-0.09 0,-0.09 c 0,-0.85 -0.89,-1.49 -2.19,-1.49 l -2.84,0 c -0.2,0 -0.29,0 -0.29,0.2 0,0.11 0.09,0.11 0.28,0.11 0.02,0 0.21,0 0.38,0.02 0.18,0.02 0.27,0.03 0.27,0.16 0,0.04 -0.01,0.07 -0.04,0.19 l -1.34,5.33 c -0.1,0.39 -0.11,0.47 -0.9,0.47 -0.18,0 -0.27,0 -0.27,0.2 0,0.1 0.12,0.1 0.14,0.1 0.28,0 0.97,-0.03 1.25,-0.03 0.28,0 0.99,0.03 1.27,0.03 0.08,0 0.2,0 0.2,-0.19 0,-0.11 -0.09,-0.11 -0.28,-0.11 -0.37,0 -0.65,0 -0.65,-0.18 0,-0.06 0.02,-0.11 0.03,-0.17 l 0.66,-2.63 1.18,0 -0.01,-0.22 -1.11,0 0.64,-2.59 c 0.06,-0.24 0.09,-0.34 0.28,-0.37 0.09,-0.01 0.41,-0.01 0.61,-0.01 0.71,0 1.81,0 1.81,0.98 0,0.34 -0.16,1.03 -0.55,1.41 -0.26,0.26 -0.78,0.58 -1.68,0.58 l 0.01,0.22 c 0.91,0 1.09,0.55 1.09,0.9 0,0.15 -0.08,0.46 -0.14,0.69 -0.07,0.27 -0.16,0.64 -0.16,0.84 0,1.07 1.19,1.07 1.32,1.07 0.85,0 1.19,-1 1.19,-1.14 0,-0.12 -0.11,-0.12 -0.12,-0.12 -0.08,0 -0.11,0.07 -0.12,0.14 -0.25,0.74 -0.68,0.9 -0.91,0.9 -0.33,0 -0.4,-0.21 -0.4,-0.6 0,-0.31 0.06,-0.82 0.1,-1.13 0.02,-0.14 0.04,-0.33 0.04,-0.47 0,-0.76 -0.67,-1.07 -0.93,-1.17 z"
       inkscape:connector-curvature="0"
       style="font-style:normal;font-variant:normal;font-weight:normal;font-stretch:normal;letter-spacing:normal;word-spacing:normal;text-anchor:start;fill:#000000;stroke:#000000;stroke-width:0;stroke-linecap:butt;stroke-linejoin:miter;stroke-miterlimit:10.43299961;stroke-dasharray:none;stroke-dashoffset:0;stroke-opacity:1" />
    <path
       sodipodi:nodetypes="ccccc"
       inkscape:connector-curvature="0"
       style="fill:none;stroke:#ff0000;stroke-width:1;stroke-linecap:round;stroke-linejoin:round;stroke-miterlimit:4;stroke-dasharray:none;stroke-opacity:1"
       d="m 275.65013,424.1057 23.03149,0 0,17.71653 -23.03149,0 0,-17.71653"
       id="path7886-8-4-1-3-5-1-3-09" />
    <g
       id="g83591-8"
       transform="translate(-1061.3946,1051.0245)">
      <path
         id="path76056-2"
         d="m 1346.6013,-621.57215 0.02,-0.07 0.01,-0.04 0.02,-0.03 0.01,-0.04 0.01,-0.03 0.02,-0.03 0.01,-0.04 0.02,-0.03 0.02,-0.03 0.02,-0.03 0.02,-0.03 0.02,-0.02 0.02,-0.03 0.03,-0.03 0.03,-0.02 0.03,-0.03 0.03,-0.02 0.04,-0.02 0.03,-0.02 0.04,-0.02 0.05,-0.02 0.04,-0.01 0.05,-0.02 0.05,-0.01 0.05,-0.02 0.06,-0.01 0.06,-0.01 0.06,-0.01 0.07,0 0.07,-0.01 0.03,0 0.04,0 c 0.05,0 0.17,-0.01 0.17,-0.2 0,-0.01 0,-0.11 -0.13,-0.11 -0.33,0 -0.68,0.03 -1.01,0.03 -0.33,0 -0.68,-0.03 -1.01,-0.03 -0.06,0 -0.18,0 -0.18,0.2 0,0.11 0.1,0.11 0.18,0.11 0.57,0.01 0.68,0.22 0.68,0.44 0,0.02 -0.02,0.17 -0.03,0.2 l -1.12,4.42 -2.2,-5.18 c -0.08,-0.18 -0.09,-0.19 -0.32,-0.19 l -1.33,0 c -0.2,0 -0.29,0 -0.29,0.2 0,0.11 0.09,0.11 0.28,0.11 0.05,0 0.68,0 0.68,0.09 l -1.34,5.33 c -0.1,0.4 -0.27,0.72 -1.07,0.75 -0.06,0 -0.17,0.01 -0.17,0.2 0,0.07 0.05,0.1 0.13,0.1 0.32,0 0.67,-0.03 0.99,-0.03 0.34,0 0.7,0.03 1.03,0.03 0.05,0 0.18,0 0.18,-0.19 0,-0.1 -0.09,-0.11 -0.2,-0.11 -0.58,-0.02 -0.66,-0.24 -0.66,-0.44 0,-0.07 0.01,-0.12 0.04,-0.23 l 1.32,-5.24 c 0.03,0.06 0.03,0.08 0.09,0.18 l 2.47,5.85 c 0.07,0.16 0.1,0.18 0.19,0.18 0.11,0 0.11,-0.03 0.16,-0.2 z"
         inkscape:connector-curvature="0"
         style="font-style:normal;font-variant:normal;font-weight:normal;font-stretch:normal;letter-spacing:normal;word-spacing:normal;text-anchor:start;fill:#000000;stroke:#000000;stroke-width:0;stroke-linecap:butt;stroke-linejoin:miter;stroke-miterlimit:10.43299961;stroke-dasharray:none;stroke-dashoffset:0;stroke-opacity:1" />
      <path
         id="path76058-7"
         d="m 1350.0184,-621.84215 0.01,-0.03 0.01,-0.03 0.01,-0.03 0.01,-0.03 0.01,-0.03 0,-0.02 0.01,-0.03 0.01,-0.02 0.02,-0.02 0.01,-0.02 0.01,-0.02 0.02,-0.02 0.02,-0.02 0.02,-0.01 0.02,-0.02 0.02,-0.01 0.03,-0.02 0.03,-0.01 0.03,-0.01 0.04,-0.01 0.02,0 0.02,-0.01 0.02,0 0.02,-0.01 0.02,0 0.02,0 0.03,-0.01 0.02,0 0.03,0 0.02,0 0.03,-0.01 0.03,0 0.03,0 0.03,0 0.03,-0.01 0.04,0 0.03,0 0.04,0 0.03,0 0.04,0 0.04,0 0.04,0 0.04,0 0.05,0 c 0.3,0 0.38,0 0.38,-0.19 0,-0.12 -0.11,-0.12 -0.16,-0.12 -0.33,0 -1.15,0.03 -1.48,0.03 -0.29,0 -1.02,-0.03 -1.32,-0.03 -0.07,0 -0.19,0 -0.19,0.2 0,0.11 0.09,0.11 0.28,0.11 0.02,0 0.21,0 0.38,0.02 0.18,0.02 0.27,0.03 0.27,0.16 0,0.04 -0.01,0.07 -0.04,0.19 l -1.33,5.33 c -0.1,0.39 -0.13,0.47 -0.91,0.47 -0.17,0 -0.27,0 -0.27,0.2 0,0.1 0.09,0.1 0.27,0.1 l 4.61,0 c 0.23,0 0.25,0 0.3,-0.16 l 0.79,-2.15 c 0.04,-0.11 0.04,-0.13 0.04,-0.14 0,-0.04 -0.03,-0.11 -0.12,-0.11 -0.09,0 -0.1,0.05 -0.17,0.21 -0.34,0.91 -0.77,2.05 -2.5,2.05 l -0.93,0 c -0.14,0 -0.16,0 -0.22,-0.01 -0.1,-0.01 -0.13,-0.02 -0.13,-0.1 0,-0.03 0,-0.05 0.05,-0.23 z"
         inkscape:connector-curvature="0"
         style="font-style:normal;font-variant:normal;font-weight:normal;font-stretch:normal;letter-spacing:normal;word-spacing:normal;text-anchor:start;fill:#000000;stroke:#000000;stroke-width:0;stroke-linecap:butt;stroke-linejoin:miter;stroke-miterlimit:10.43299961;stroke-dasharray:none;stroke-dashoffset:0;stroke-opacity:1" />
      <path
         id="path76060-30"
         d="m 1355.4184,-618.75215 0,-0.01 0,-0.01 0,-0.01 0,-0.01 0,0 0,-0.01 0,-0.01 0,-0.01 -0.01,0 0,-0.01 0,-0.01 0,0 0,-0.01 0,0 0,-0.01 0,0 0,-0.01 0,0 0,-0.01 -0.01,-0.01 0,-0.01 0,0 -0.01,-0.01 0,-0.01 -0.01,0 0,-0.01 -0.01,0 0,0 -0.01,-0.01 -0.01,0 -0.01,0 -0.01,0 0,0 -0.01,0 0,0 -0.01,-0.01 -0.01,0 0,0 -0.01,0 0,0 -0.01,0 -0.01,0 -0.01,0 0,0 -0.01,0 -0.01,0 -0.01,0 -0.01,0 0,0 -0.01,0 c -0.45,0.44 -1.08,0.45 -1.37,0.45 l 0,0.25 c 0.17,0 0.63,0 1.01,-0.2 l 0,3.55 c 0,0.23 0,0.32 -0.69,0.32 l -0.27,0 0,0.25 c 0.13,-0.01 0.98,-0.03 1.24,-0.03 0.22,0 1.09,0.02 1.25,0.03 l 0,-0.25 -0.27,0 c -0.69,0 -0.69,-0.09 -0.69,-0.32 z"
         inkscape:connector-curvature="0"
         style="font-style:normal;font-variant:normal;font-weight:normal;font-stretch:normal;letter-spacing:normal;word-spacing:normal;text-anchor:start;fill:#000000;stroke:#000000;stroke-width:0;stroke-linecap:butt;stroke-linejoin:miter;stroke-miterlimit:10.43299961;stroke-dasharray:none;stroke-dashoffset:0;stroke-opacity:1" />
    </g>
    <path
       style="font-style:normal;font-variant:normal;font-weight:normal;font-stretch:normal;letter-spacing:normal;word-spacing:normal;text-anchor:start;fill:#000000;stroke:#000000;stroke-width:0;stroke-linecap:butt;stroke-linejoin:miter;stroke-miterlimit:10.43299961;stroke-dasharray:none;stroke-dashoffset:0;stroke-opacity:1"
       inkscape:connector-curvature="0"
       d="m 289.61824,408.95597 -2.39,-5.25 c -0.11,-0.25 -0.22,-0.25 -0.44,-0.25 l -2.21,0 0,0.47 1.08,0 0,5.59 c 0,0.22 -0.01,0.23 -0.29,0.26 -0.24,0.03 -0.26,0.03 -0.54,0.03 l -0.25,0 0,0.46 c 0.38,-0.03 0.95,-0.03 1.34,-0.03 0.42,0 0.93,0 1.34,0.03 l 0,-0.46 -0.25,0 c -0.18,0 -0.35,-0.01 -0.53,-0.03 -0.28,-0.03 -0.29,-0.04 -0.29,-0.26 l 0,-5.46 0.01,0 2.7,5.97 c 0.09,0.2 0.21,0.24 0.32,0.24 0.2,0 0.28,-0.14 0.32,-0.23 l 2.76999,-6.11 0.01,0 0,5.88 -1.06999,0 0,0.46 c 0.35999,-0.03 1.27999,-0.03 1.68999,-0.03 0.41,0 1.34,0 1.7,0.03 l 0,-0.46 -1.07,0 0,-5.88 1.07,0 0,-0.47 -2.2,0 c -0.22,0 -0.32,0 -0.43,0.25 z"
       id="path76092-9" />
    <path
       sodipodi:nodetypes="ccccc"
       inkscape:connector-curvature="0"
       style="fill:none;stroke:#ff0000;stroke-width:1;stroke-linecap:round;stroke-linejoin:round;stroke-miterlimit:4;stroke-dasharray:none;stroke-opacity:1"
       d="m 275.65013,447.30169 23.03149,0 0,17.71653 -23.03149,0 0,-17.71653"
       id="path7886-8-4-1-3-5-1-3-09-5" />
    <path
       inkscape:connector-curvature="0"
       style="fill:#ffffff;fill-opacity:1;stroke:#0000ff;stroke-width:1;stroke-linecap:round;stroke-linejoin:round;stroke-miterlimit:4;stroke-dasharray:none;stroke-opacity:1"
       d="m 325.36392,424.19366 23.0315,0 0,40.69827 -23.0315,-0.0893 0,-40.60898"
       id="path7886-8-4-1-5-1-1-1-4"
       sodipodi:nodetypes="ccccc" />
    <path
       style="fill:none;stroke:#000000;stroke-width:1px;stroke-linecap:round;stroke-linejoin:round;stroke-opacity:1;marker-start:none;marker-mid:none;marker-end:url(#marker3644-553-4)"
       d="m 348.39532,444.21289 10.63,0"
       id="path10734-3-6-9-9-3-2"
       sodipodi:nodetypes="cc"
       inkscape:connector-curvature="0" />
    <path
       style="fill:none;stroke:#000000;stroke-width:1px;stroke-linecap:round;stroke-linejoin:round;stroke-opacity:1;marker-start:none;marker-mid:none;marker-end:url(#marker3644-553-1)"
       d="m 242.09623,433.05193 8.8582,0"
       id="path10734-3-61-2-4-2"
       sodipodi:nodetypes="cc"
       inkscape:connector-curvature="0" />
    <g
       style="font-style:normal;font-variant:normal;font-weight:normal;font-stretch:normal;letter-spacing:normal;word-spacing:normal;text-anchor:start;fill:none;stroke:#000000;stroke-linecap:butt;stroke-linejoin:miter;stroke-miterlimit:10.43299961;stroke-dasharray:none;stroke-dashoffset:0;stroke-opacity:1"
       id="g3223"
       transform="matrix(1,0,0,-1,137.58036,1154.2386)"
       xml:space="preserve"
       stroke-miterlimit="10.433"
       font-style="normal"
       font-variant="normal"
       font-weight="normal"
       font-stretch="normal"
       font-size-adjust="none"
       letter-spacing="normal"
       word-spacing="normal"
       ns0:text="$Y_t$\n"
       ns0:preamble=""><path
         style="fill:#000000;stroke-width:0"
         inkscape:connector-curvature="0"
         d="m 229.37,712.78 0.14,0.14 c 0.3,0.29 0.63,0.63 1.3,0.68 0.11,0.01 0.2,0.01 0.2,0.19 0,0.08 -0.05,0.12 -0.13,0.12 -0.25,0 -0.54,-0.03 -0.81,-0.03 -0.33,0 -0.68,0.03 -1,0.03 -0.06,0 -0.19,0 -0.19,-0.19 0,-0.11 0.1,-0.12 0.15,-0.12 0.07,0 0.36,-0.02 0.36,-0.23 0,-0.16 -0.23,-0.42 -0.27,-0.47 l -2.3,-2.66 -1.1,2.96 c -0.06,0.13 -0.06,0.15 -0.06,0.16 0,0.24 0.49,0.24 0.59,0.24 0.14,0 0.24,0 0.24,0.2 0,0.11 -0.12,0.11 -0.15,0.11 -0.28,0 -0.98,-0.03 -1.26,-0.03 -0.24,0 -0.86,0.03 -1.11,0.03 -0.06,0 -0.19,0 -0.19,-0.2 0,-0.11 0.1,-0.11 0.23,-0.11 0.6,0 0.64,-0.09 0.73,-0.34 l 1.22,-3.26 c 0.01,-0.03 0.04,-0.14 0.04,-0.17 0,-0.03 -0.4,-1.63 -0.45,-1.81 -0.13,-0.55 -0.14,-0.58 -0.93,-0.59 -0.19,0 -0.27,0 -0.27,-0.2 0,-0.1 0.12,-0.1 0.14,-0.1 0.27,0 0.97,0.03 1.25,0.03 0.28,0 1,-0.03 1.27,-0.03 0.07,0 0.19,0 0.19,0.19 0,0.11 -0.09,0.11 -0.28,0.11 -0.02,0 -0.21,0 -0.37,0.02 -0.21,0.02 -0.27,0.04 -0.27,0.16 0,0.07 0.09,0.42 0.14,0.63 l 0.34,1.4 c 0.06,0.19 0.06,0.22 0.14,0.31 z"
         id="path3225" /><path
         style="fill:#000000;stroke-width:0"
         inkscape:connector-curvature="0"
         d="m 230.93,708.38 0.71,0 c 0.13,0 0.22,0 0.22,0.15 0,0.1 -0.09,0.1 -0.21,0.1 l -0.66,0 0.26,1.03 c 0.01,0.03 0.02,0.07 0.02,0.1 0,0.12 -0.1,0.22 -0.24,0.22 -0.17,0 -0.27,-0.12 -0.32,-0.3 -0.05,-0.18 0.04,0.16 -0.27,-1.05 l -0.71,0 c -0.13,0 -0.22,0 -0.22,-0.16 0,-0.09 0.08,-0.09 0.21,-0.09 l 0.66,0 -0.41,-1.64 c -0.04,-0.18 -0.11,-0.43 -0.11,-0.52 0,-0.41 0.35,-0.66 0.75,-0.66 0.77,0 1.21,0.97 1.21,1.07 0,0.09 -0.09,0.09 -0.11,0.09 -0.08,0 -0.09,-0.02 -0.15,-0.14 -0.19,-0.43 -0.55,-0.82 -0.93,-0.82 -0.15,0 -0.24,0.09 -0.24,0.34 0,0.07 0.02,0.21 0.04,0.28 z"
         id="path3227" /></g>    <path
       inkscape:connector-curvature="0"
       id="path3127"
       d="m 252.2719,427.08072 2.27679,0"
       style="fill:none;stroke:#000000;stroke-width:1px;stroke-linecap:butt;stroke-linejoin:miter;stroke-opacity:1" />
    <path
       inkscape:connector-curvature="0"
       id="path3127-1"
       d="m 255.86565,452.39322 2.27679,0"
       style="fill:none;stroke:#000000;stroke-width:1px;stroke-linecap:butt;stroke-linejoin:miter;stroke-opacity:1" />
    <path
       sodipodi:nodetypes="cc"
       inkscape:connector-curvature="0"
       id="path5668"
       d="m 218.96833,444.48492 23.03571,-11.37741"
       style="fill:none;fill-rule:evenodd;stroke:#0000ff;stroke-width:1px;stroke-linecap:butt;stroke-linejoin:miter;stroke-opacity:1" />
    <path
       sodipodi:nodetypes="cc"
       inkscape:connector-curvature="0"
       id="path5670"
       d="m 325.32623,456.21129 23.23351,-11.90911"
       style="fill:none;fill-rule:evenodd;stroke:#0000ff;stroke-width:1px;stroke-linecap:butt;stroke-linejoin:miter;stroke-opacity:1" />
    <path
       inkscape:connector-curvature="0"
       id="path5672"
       d="m 298.96833,387.48121 -23.21429,20.71558"
       style="fill:none;fill-rule:evenodd;stroke:#0000ff;stroke-width:1px;stroke-linecap:butt;stroke-linejoin:miter;stroke-opacity:1" />
    <g
       id="g6088"
       transform="translate(-195.9696,-84.852814)">
      <g
         id="g4215-3-2-5-0-7"
         transform="translate(24.740393,203.27646)">
        <circle
           r="8.8582678"
           cy="237.40155"
           cx="168.30708"
           style="fill:none;stroke:#000000;stroke-width:1;stroke-linecap:round;stroke-linejoin:round;stroke-miterlimit:4;stroke-dasharray:none;stroke-opacity:1"
           id="path7917-9-1-7-49-9"
           transform="translate(0.7753808,88.582676)"
           d="m 177.16535,237.40155 c 0,4.89229 -3.96598,8.85827 -8.85827,8.85827 -4.89228,0 -8.85826,-3.96598 -8.85826,-8.85827 0,-4.89229 3.96598,-8.85827 8.85826,-8.85827 4.89229,0 8.85827,3.96598 8.85827,8.85827 z" />
        <path
           style="fill:none;stroke:#000000;stroke-width:1;stroke-linecap:butt;stroke-linejoin:miter;stroke-miterlimit:4;stroke-dasharray:none;stroke-opacity:1"
           d="m 163.7675,329.52754 10.62992,0"
           id="path7919-8-6-6-47-5"
           inkscape:connector-curvature="0" />
        <path
           style="fill:none;stroke:#000000;stroke-width:1;stroke-linecap:butt;stroke-linejoin:miter;stroke-miterlimit:4;stroke-dasharray:none;stroke-opacity:1;marker-end:url(#Arrow2Send-06-0)"
           d="m 165.53916,329.52754 0,-7.08662"
           id="path7921-8-8-1-3-6"
           sodipodi:nodetypes="cc"
           inkscape:connector-curvature="0" />
        <path
           style="fill:none;stroke:#000000;stroke-width:1;stroke-linecap:butt;stroke-linejoin:miter;stroke-miterlimit:4;stroke-dasharray:none;stroke-opacity:1;marker-end:url(#Arrow2Send-06-0)"
           d="m 169.08246,329.52754 0,-7.08662"
           id="path7923-0-5-8-8-1"
           sodipodi:nodetypes="cc"
           inkscape:connector-curvature="0" />
        <path
           style="fill:none;stroke:#000000;stroke-width:1;stroke-linecap:butt;stroke-linejoin:miter;stroke-miterlimit:4;stroke-dasharray:none;stroke-opacity:1;marker-end:url(#Arrow2Send-06-0)"
           d="m 172.62577,329.52754 0,-7.08662"
           id="path7925-8-7-9-5-7"
           sodipodi:nodetypes="cc"
           inkscape:connector-curvature="0" />
      </g>
      <path
         style="font-style:normal;font-variant:normal;font-weight:normal;font-stretch:normal;letter-spacing:normal;word-spacing:normal;text-anchor:start;fill:#000000;stroke:#000000;stroke-width:0;stroke-linecap:butt;stroke-linejoin:miter;stroke-miterlimit:10.43299961;stroke-dasharray:none;stroke-dashoffset:0;stroke-opacity:1"
         inkscape:connector-curvature="0"
         d="m 212.59218,521.18464 0.09,-0.02 0.1,-0.03 0.09,-0.03 0.1,-0.03 0.09,-0.03 0.1,-0.03 0.1,-0.04 0.09,-0.04 0.1,-0.05 0.09,-0.04 0.09,-0.05 0.09,-0.05 0.09,-0.05 0.08,-0.06 0.09,-0.06 0.08,-0.06 0.07,-0.06 0.08,-0.06 0.07,-0.07 0.07,-0.07 0.06,-0.07 0.06,-0.07 0.05,-0.08 0.05,-0.08 0.05,-0.08 0.04,-0.08 0.03,-0.08 0.03,-0.09 0.02,-0.09 0.02,-0.09 0.01,-0.09 0,-0.09 c 0,-0.85001 -0.89,-1.49001 -2.19,-1.49001 l -2.84,0 c -0.2,0 -0.29,0 -0.29,0.2 0,0.11 0.09,0.11 0.28,0.11 0.02,0 0.21,0 0.38,0.02 0.18,0.02 0.27,0.03 0.27,0.16 0,0.04 -0.01,0.07 -0.04,0.18999 l -1.34,5.33 c -0.1,0.39001 -0.11,0.47001 -0.9,0.47001 -0.18,0 -0.27,0 -0.27,0.19999 0,0.10001 0.12,0.10001 0.14,0.10001 0.28,0 0.97,-0.03 1.25,-0.03 0.28,0 0.99,0.03 1.27,0.03 0.08,0 0.2,0 0.2,-0.19 0,-0.11 -0.09,-0.11 -0.28,-0.11 -0.37,0 -0.65,0 -0.65,-0.18 0,-0.06 0.02,-0.11001 0.03,-0.17001 l 0.66,-2.63 1.18,0 -0.01,-0.21999 -1.11,0 0.64,-2.59001 c 0.06,-0.24 0.09,-0.33999 0.28,-0.37 0.09,-0.01 0.41,-0.01 0.61,-0.01 0.71,0 1.81,0 1.81,0.98001 0,0.33999 -0.16,1.02999 -0.55,1.40999 -0.26,0.26001 -0.78,0.58001 -1.68,0.58001 l 0.01,0.21999 c 0.91,0 1.09,0.55001 1.09,0.90001 0,0.15 -0.08,0.46 -0.14,0.69 -0.07,0.27 -0.16,0.64 -0.16,0.83999 0,1.07 1.19,1.07 1.32,1.07 0.85,0 1.19,-1 1.19,-1.13999 0,-0.12 -0.11,-0.12 -0.12,-0.12 -0.08,0 -0.11,0.07 -0.12,0.13999 -0.25,0.74 -0.68,0.90001 -0.91,0.90001 -0.33,0 -0.4,-0.21001 -0.4,-0.60001 0,-0.31 0.06,-0.81999 0.1,-1.12999 0.02,-0.14 0.04,-0.33 0.04,-0.47 0,-0.76001 -0.67,-1.07001 -0.93,-1.17 z"
         id="path25233-2-6-2-1" />
      <path
         inkscape:connector-curvature="0"
         sodipodi:nodetypes="cc"
         id="path10734-3-9-8-6-4-3-4"
         d="m 247.04433,529.25201 17.47949,0"
         style="fill:none;stroke:#000000;stroke-width:1px;stroke-linecap:round;stroke-linejoin:round;stroke-opacity:1;marker-start:none;marker-mid:none;marker-end:url(#marker3644-553-6)" />
      <path
         inkscape:connector-curvature="0"
         sodipodi:nodetypes="cc"
         id="path10734-3-9-8-6-4-3-4-84"
         d="m 203.41959,529.21167 19.24726,0"
         style="fill:none;stroke:#000000;stroke-width:1px;stroke-linecap:round;stroke-linejoin:round;stroke-opacity:1;marker-start:none;marker-mid:none;marker-end:url(#marker3644-553-6-2)" />
      <path
         id="path7886-8-4-1-3-5-1-3-09-5-3"
         d="m 223.6528,520.30577 23.03149,0 0,17.71653 -23.03149,0 0,-17.71653"
         style="fill:none;stroke:#ff0000;stroke-width:1;stroke-linecap:round;stroke-linejoin:round;stroke-miterlimit:4;stroke-dasharray:none;stroke-opacity:1"
         inkscape:connector-curvature="0"
         sodipodi:nodetypes="ccccc" />
      <path
         inkscape:connector-curvature="0"
         sodipodi:nodetypes="cc"
         id="path10734-3-9-8-6-4-3-4-8"
         d="m 289.47196,529.21167 17.47949,0"
         style="fill:none;stroke:#000000;stroke-width:1px;stroke-linecap:round;stroke-linejoin:round;stroke-opacity:1;marker-start:none;marker-mid:none;marker-end:url(#marker3644-553-6-0)" />
      <path
         id="path7886-8-4-1-3-5-1-3-09-5-3-5"
         d="m 265.97207,520.28608 23.03149,0 0,17.71653 -23.03149,0 0,-17.71653"
         style="fill:none;stroke:#ff0000;stroke-width:1;stroke-linecap:round;stroke-linejoin:round;stroke-miterlimit:4;stroke-dasharray:none;stroke-opacity:1"
         inkscape:connector-curvature="0"
         sodipodi:nodetypes="ccccc" />
      <g
         ns0:preamble=""
         ns0:text="$Y_t$\n"
         word-spacing="normal"
         letter-spacing="normal"
         font-size-adjust="none"
         font-stretch="normal"
         font-weight="normal"
         font-variant="normal"
         font-style="normal"
         stroke-miterlimit="10.433"
         xml:space="preserve"
         transform="matrix(1,0,0,-1,69.4745,1230.9821)"
         id="g3223-1"
         style="font-style:normal;font-variant:normal;font-weight:normal;font-stretch:normal;letter-spacing:normal;word-spacing:normal;text-anchor:start;fill:none;stroke:#000000;stroke-linecap:butt;stroke-linejoin:miter;stroke-miterlimit:10.43299961;stroke-dasharray:none;stroke-dashoffset:0;stroke-opacity:1"><path
           id="path3225-0"
           d="m 229.37,712.78 0.14,0.14 c 0.3,0.29 0.63,0.63 1.3,0.68 0.11,0.01 0.2,0.01 0.2,0.19 0,0.08 -0.05,0.12 -0.13,0.12 -0.25,0 -0.54,-0.03 -0.81,-0.03 -0.33,0 -0.68,0.03 -1,0.03 -0.06,0 -0.19,0 -0.19,-0.19 0,-0.11 0.1,-0.12 0.15,-0.12 0.07,0 0.36,-0.02 0.36,-0.23 0,-0.16 -0.23,-0.42 -0.27,-0.47 l -2.3,-2.66 -1.1,2.96 c -0.06,0.13 -0.06,0.15 -0.06,0.16 0,0.24 0.49,0.24 0.59,0.24 0.14,0 0.24,0 0.24,0.2 0,0.11 -0.12,0.11 -0.15,0.11 -0.28,0 -0.98,-0.03 -1.26,-0.03 -0.24,0 -0.86,0.03 -1.11,0.03 -0.06,0 -0.19,0 -0.19,-0.2 0,-0.11 0.1,-0.11 0.23,-0.11 0.6,0 0.64,-0.09 0.73,-0.34 l 1.22,-3.26 c 0.01,-0.03 0.04,-0.14 0.04,-0.17 0,-0.03 -0.4,-1.63 -0.45,-1.81 -0.13,-0.55 -0.14,-0.58 -0.93,-0.59 -0.19,0 -0.27,0 -0.27,-0.2 0,-0.1 0.12,-0.1 0.14,-0.1 0.27,0 0.97,0.03 1.25,0.03 0.28,0 1,-0.03 1.27,-0.03 0.07,0 0.19,0 0.19,0.19 0,0.11 -0.09,0.11 -0.28,0.11 -0.02,0 -0.21,0 -0.37,0.02 -0.21,0.02 -0.27,0.04 -0.27,0.16 0,0.07 0.09,0.42 0.14,0.63 l 0.34,1.4 c 0.06,0.19 0.06,0.22 0.14,0.31 z"
           inkscape:connector-curvature="0"
           style="fill:#000000;stroke-width:0" /><path
           id="path3227-9"
           d="m 230.93,708.38 0.71,0 c 0.13,0 0.22,0 0.22,0.15 0,0.1 -0.09,0.1 -0.21,0.1 l -0.66,0 0.26,1.03 c 0.01,0.03 0.02,0.07 0.02,0.1 0,0.12 -0.1,0.22 -0.24,0.22 -0.17,0 -0.27,-0.12 -0.32,-0.3 -0.05,-0.18 0.04,0.16 -0.27,-1.05 l -0.71,0 c -0.13,0 -0.22,0 -0.22,-0.16 0,-0.09 0.08,-0.09 0.21,-0.09 l 0.66,0 -0.41,-1.64 c -0.04,-0.18 -0.11,-0.43 -0.11,-0.52 0,-0.41 0.35,-0.66 0.75,-0.66 0.77,0 1.21,0.97 1.21,1.07 0,0.09 -0.09,0.09 -0.11,0.09 -0.08,0 -0.09,-0.02 -0.15,-0.14 -0.19,-0.43 -0.55,-0.82 -0.93,-0.82 -0.15,0 -0.24,0.09 -0.24,0.34 0,0.07 0.02,0.21 0.04,0.28 z"
           inkscape:connector-curvature="0"
           style="fill:#000000;stroke-width:0" /></g>      <g
         transform="translate(-1112.6284,1148.053)"
         id="g83591-8-9">
        <path
           style="font-style:normal;font-variant:normal;font-weight:normal;font-stretch:normal;letter-spacing:normal;word-spacing:normal;text-anchor:start;fill:#000000;stroke:#000000;stroke-width:0;stroke-linecap:butt;stroke-linejoin:miter;stroke-miterlimit:10.43299961;stroke-dasharray:none;stroke-dashoffset:0;stroke-opacity:1"
           inkscape:connector-curvature="0"
           d="m 1346.6013,-621.57215 0.02,-0.07 0.01,-0.04 0.02,-0.03 0.01,-0.04 0.01,-0.03 0.02,-0.03 0.01,-0.04 0.02,-0.03 0.02,-0.03 0.02,-0.03 0.02,-0.03 0.02,-0.02 0.02,-0.03 0.03,-0.03 0.03,-0.02 0.03,-0.03 0.03,-0.02 0.04,-0.02 0.03,-0.02 0.04,-0.02 0.05,-0.02 0.04,-0.01 0.05,-0.02 0.05,-0.01 0.05,-0.02 0.06,-0.01 0.06,-0.01 0.06,-0.01 0.07,0 0.07,-0.01 0.03,0 0.04,0 c 0.05,0 0.17,-0.01 0.17,-0.2 0,-0.01 0,-0.11 -0.13,-0.11 -0.33,0 -0.68,0.03 -1.01,0.03 -0.33,0 -0.68,-0.03 -1.01,-0.03 -0.06,0 -0.18,0 -0.18,0.2 0,0.11 0.1,0.11 0.18,0.11 0.57,0.01 0.68,0.22 0.68,0.44 0,0.02 -0.02,0.17 -0.03,0.2 l -1.12,4.42 -2.2,-5.18 c -0.08,-0.18 -0.09,-0.19 -0.32,-0.19 l -1.33,0 c -0.2,0 -0.29,0 -0.29,0.2 0,0.11 0.09,0.11 0.28,0.11 0.05,0 0.68,0 0.68,0.09 l -1.34,5.33 c -0.1,0.4 -0.27,0.72 -1.07,0.75 -0.06,0 -0.17,0.01 -0.17,0.2 0,0.07 0.05,0.1 0.13,0.1 0.32,0 0.67,-0.03 0.99,-0.03 0.34,0 0.7,0.03 1.03,0.03 0.05,0 0.18,0 0.18,-0.19 0,-0.1 -0.09,-0.11 -0.2,-0.11 -0.58,-0.02 -0.66,-0.24 -0.66,-0.44 0,-0.07 0.01,-0.12 0.04,-0.23 l 1.32,-5.24 c 0.03,0.06 0.03,0.08 0.09,0.18 l 2.47,5.85 c 0.07,0.16 0.1,0.18 0.19,0.18 0.11,0 0.11,-0.03 0.16,-0.2 z"
           id="path76056-2-3" />
        <path
           style="font-style:normal;font-variant:normal;font-weight:normal;font-stretch:normal;letter-spacing:normal;word-spacing:normal;text-anchor:start;fill:#000000;stroke:#000000;stroke-width:0;stroke-linecap:butt;stroke-linejoin:miter;stroke-miterlimit:10.43299961;stroke-dasharray:none;stroke-dashoffset:0;stroke-opacity:1"
           inkscape:connector-curvature="0"
           d="m 1350.0184,-621.84215 0.01,-0.03 0.01,-0.03 0.01,-0.03 0.01,-0.03 0.01,-0.03 0,-0.02 0.01,-0.03 0.01,-0.02 0.02,-0.02 0.01,-0.02 0.01,-0.02 0.02,-0.02 0.02,-0.02 0.02,-0.01 0.02,-0.02 0.02,-0.01 0.03,-0.02 0.03,-0.01 0.03,-0.01 0.04,-0.01 0.02,0 0.02,-0.01 0.02,0 0.02,-0.01 0.02,0 0.02,0 0.03,-0.01 0.02,0 0.03,0 0.02,0 0.03,-0.01 0.03,0 0.03,0 0.03,0 0.03,-0.01 0.04,0 0.03,0 0.04,0 0.03,0 0.04,0 0.04,0 0.04,0 0.04,0 0.05,0 c 0.3,0 0.38,0 0.38,-0.19 0,-0.12 -0.11,-0.12 -0.16,-0.12 -0.33,0 -1.15,0.03 -1.48,0.03 -0.29,0 -1.02,-0.03 -1.32,-0.03 -0.07,0 -0.19,0 -0.19,0.2 0,0.11 0.09,0.11 0.28,0.11 0.02,0 0.21,0 0.38,0.02 0.18,0.02 0.27,0.03 0.27,0.16 0,0.04 -0.01,0.07 -0.04,0.19 l -1.33,5.33 c -0.1,0.39 -0.13,0.47 -0.91,0.47 -0.17,0 -0.27,0 -0.27,0.2 0,0.1 0.09,0.1 0.27,0.1 l 4.61,0 c 0.23,0 0.25,0 0.3,-0.16 l 0.79,-2.15 c 0.04,-0.11 0.04,-0.13 0.04,-0.14 0,-0.04 -0.03,-0.11 -0.12,-0.11 -0.09,0 -0.1,0.05 -0.17,0.21 -0.34,0.91 -0.77,2.05 -2.5,2.05 l -0.93,0 c -0.14,0 -0.16,0 -0.22,-0.01 -0.1,-0.01 -0.13,-0.02 -0.13,-0.1 0,-0.03 0,-0.05 0.05,-0.23 z"
           id="path76058-7-0" />
        <path
           style="font-style:normal;font-variant:normal;font-weight:normal;font-stretch:normal;letter-spacing:normal;word-spacing:normal;text-anchor:start;fill:#000000;stroke:#000000;stroke-width:0;stroke-linecap:butt;stroke-linejoin:miter;stroke-miterlimit:10.43299961;stroke-dasharray:none;stroke-dashoffset:0;stroke-opacity:1"
           inkscape:connector-curvature="0"
           d="m 1355.4184,-618.75215 0,-0.01 0,-0.01 0,-0.01 0,-0.01 0,0 0,-0.01 0,-0.01 0,-0.01 -0.01,0 0,-0.01 0,-0.01 0,0 0,-0.01 0,0 0,-0.01 0,0 0,-0.01 0,0 0,-0.01 -0.01,-0.01 0,-0.01 0,0 -0.01,-0.01 0,-0.01 -0.01,0 0,-0.01 -0.01,0 0,0 -0.01,-0.01 -0.01,0 -0.01,0 -0.01,0 0,0 -0.01,0 0,0 -0.01,-0.01 -0.01,0 0,0 -0.01,0 0,0 -0.01,0 -0.01,0 -0.01,0 0,0 -0.01,0 -0.01,0 -0.01,0 -0.01,0 0,0 -0.01,0 c -0.45,0.44 -1.08,0.45 -1.37,0.45 l 0,0.25 c 0.17,0 0.63,0 1.01,-0.2 l 0,3.55 c 0,0.23 0,0.32 -0.69,0.32 l -0.27,0 0,0.25 c 0.13,-0.01 0.98,-0.03 1.24,-0.03 0.22,0 1.09,0.02 1.25,0.03 l 0,-0.25 -0.27,0 c -0.69,0 -0.69,-0.09 -0.69,-0.32 z"
           id="path76060-30-8" />
      </g>
      <g
         transform="translate(6.9642857,-43.392857)"
         id="g6047">
        <path
           style="font-style:normal;font-variant:normal;font-weight:normal;font-stretch:normal;letter-spacing:normal;word-spacing:normal;text-anchor:start;fill:#000000;fill-opacity:1;fill-rule:evenodd;stroke:#000000;stroke-width:0;stroke-linecap:butt;stroke-linejoin:miter;stroke-miterlimit:10.43299961;stroke-dasharray:none;stroke-dashoffset:0;stroke-opacity:1"
           inkscape:connector-curvature="0"
           d="m 269.04817,569.9632 0.02,-0.07 0.01,-0.04 0.02,-0.03 0.01,-0.04 0.01,-0.03 0.02,-0.03 0.01,-0.04 0.02,-0.03 0.02,-0.03 0.02,-0.03 0.02,-0.03 0.02,-0.02 0.02,-0.03 0.03,-0.03 0.03,-0.02 0.03,-0.03 0.03,-0.02 0.04,-0.02 0.03,-0.02 0.04,-0.02 0.05,-0.02 0.04,-0.01 0.05,-0.02 0.05,-0.01 0.05,-0.02 0.06,-0.01 0.06,-0.01 0.06,-0.01 0.07,0 0.07,-0.01 0.03,0 0.04,0 c 0.05,0 0.17,-0.01 0.17,-0.2 0,-0.01 0,-0.11 -0.13,-0.11 -0.33,0 -0.68,0.03 -1.01,0.03 -0.33,0 -0.68,-0.03 -1.01,-0.03 -0.06,0 -0.18,0 -0.18,0.2 0,0.11 0.1,0.11 0.18,0.11 0.57,0.01 0.68,0.22 0.68,0.44 0,0.02 -0.02,0.17 -0.03,0.2 l -1.12,4.42 -2.2,-5.18 c -0.08,-0.18 -0.09,-0.19 -0.32,-0.19 l -1.33,0 c -0.2,0 -0.29,0 -0.29,0.2 0,0.11 0.09,0.11 0.28,0.11 0.05,0 0.68,0 0.68,0.09 l -1.34,5.33 c -0.1,0.4 -0.27,0.72 -1.07,0.75 -0.06,0 -0.17,0.01 -0.17,0.2 0,0.07 0.05,0.1 0.13,0.1 0.32,0 0.67,-0.03 0.99,-0.03 0.34,0 0.7,0.03 1.03,0.03 0.05,0 0.18,0 0.18,-0.19 0,-0.1 -0.09,-0.11 -0.2,-0.11 -0.58,-0.02 -0.66,-0.24 -0.66,-0.44 0,-0.07 0.01,-0.12 0.04,-0.23 l 1.32,-5.24 c 0.03,0.06 0.03,0.08 0.08,0.18 l 2.48,5.85 c 0.07,0.16 0.1,0.18 0.19,0.18 0.11,0 0.11,-0.03 0.16,-0.2 z"
           id="path5860" />
        <path
           style="font-style:normal;font-variant:normal;font-weight:normal;font-stretch:normal;letter-spacing:normal;word-spacing:normal;text-anchor:start;fill:#000000;fill-opacity:1;fill-rule:evenodd;stroke:#000000;stroke-width:0;stroke-linecap:butt;stroke-linejoin:miter;stroke-miterlimit:10.43299961;stroke-dasharray:none;stroke-dashoffset:0;stroke-opacity:1"
           inkscape:connector-curvature="0"
           d="m 272.33817,569.6932 0.01,-0.03 0.01,-0.03 0.01,-0.03 0.01,-0.03 0.01,-0.03 0,-0.02 0.01,-0.03 0.01,-0.02 0.02,-0.02 0.01,-0.02 0.01,-0.02 0.02,-0.02 0.02,-0.02 0.02,-0.01 0.02,-0.02 0.02,-0.01 0.03,-0.02 0.03,-0.01 0.03,-0.01 0.04,-0.01 0.02,0 0.02,-0.01 0.02,0 0.02,-0.01 0.02,0 0.02,0 0.03,-0.01 0.02,0 0.03,0 0.02,0 0.03,-0.01 0.03,0 0.03,0 0.03,0 0.04,-0.01 0.03,0 0.03,0 0.04,0 0.04,0 0.03,0 0.04,0 0.04,0 0.05,0 0.04,0 c 0.3,0 0.38,0 0.38,-0.19 0,-0.12 -0.11,-0.12 -0.16,-0.12 -0.33,0 -1.15,0.03 -1.48,0.03 -0.29,0 -1.02,-0.03 -1.32,-0.03 -0.07,0 -0.19,0 -0.19,0.2 0,0.11 0.09,0.11 0.28,0.11 0.02,0 0.21,0 0.38,0.02 0.18,0.02 0.27,0.03 0.27,0.16 0,0.04 -0.01,0.07 -0.04,0.19 l -1.33,5.33 c -0.11,0.39 -0.13,0.47 -0.91,0.47 -0.17,0 -0.27,0 -0.27,0.2 0,0.1 0.09,0.1 0.27,0.1 l 4.61,0 c 0.23,0 0.25,0 0.3,-0.16 l 0.79,-2.15 c 0.04,-0.11 0.04,-0.13 0.04,-0.14 0,-0.04 -0.03,-0.11 -0.12,-0.11 -0.09,0 -0.1,0.05 -0.17,0.21 -0.34,0.91 -0.77,2.05 -2.5,2.05 l -0.93,0 c -0.14,0 -0.16,0 -0.22,-0.01 -0.1,-0.01 -0.13,-0.02 -0.13,-0.1 0,-0.03 0,-0.05 0.05,-0.23 z"
           id="path5862" />
        <path
           style="font-style:normal;font-variant:normal;font-weight:normal;font-stretch:normal;letter-spacing:normal;word-spacing:normal;text-anchor:start;fill:#000000;fill-opacity:1;fill-rule:evenodd;stroke:#000000;stroke-width:0;stroke-linecap:butt;stroke-linejoin:miter;stroke-miterlimit:10.43299961;stroke-dasharray:none;stroke-dashoffset:0;stroke-opacity:1"
           inkscape:connector-curvature="0"
           d="m 278.91817,575.9332 -0.24,0 c -0.02,0.16 -0.09,0.57 -0.18,0.64 -0.05,0.04 -0.59,0.04 -0.69,0.04 l -1.28,0 c 0.73,-0.65 0.98,-0.84 1.39,-1.17 0.52,-0.41 1,-0.84 1,-1.5 0,-0.84 -0.74,-1.36 -1.63,-1.36 -0.86,0 -1.45,0.61 -1.45,1.25 0,0.35 0.3,0.39 0.37,0.39 0.17,0 0.37,-0.12 0.37,-0.37 0,-0.13 -0.05,-0.37 -0.41,-0.37 0.22,-0.49 0.69,-0.65 1.02,-0.65 0.69,0 1.05,0.54 1.05,1.11 0,0.6 -0.43,1.08 -0.65,1.33 l -1.68,1.66 c -0.07,0.06 -0.07,0.07 -0.07,0.27 l 2.87,0 z"
           id="path5864" />
      </g>
    </g>
    <g
       id="g6047-7"
       transform="translate(16.585874,-116.83069)">
      <path
         id="path5860-1"
         d="m 269.04817,569.9632 0.02,-0.07 0.01,-0.04 0.02,-0.03 0.01,-0.04 0.01,-0.03 0.02,-0.03 0.01,-0.04 0.02,-0.03 0.02,-0.03 0.02,-0.03 0.02,-0.03 0.02,-0.02 0.02,-0.03 0.03,-0.03 0.03,-0.02 0.03,-0.03 0.03,-0.02 0.04,-0.02 0.03,-0.02 0.04,-0.02 0.05,-0.02 0.04,-0.01 0.05,-0.02 0.05,-0.01 0.05,-0.02 0.06,-0.01 0.06,-0.01 0.06,-0.01 0.07,0 0.07,-0.01 0.03,0 0.04,0 c 0.05,0 0.17,-0.01 0.17,-0.2 0,-0.01 0,-0.11 -0.13,-0.11 -0.33,0 -0.68,0.03 -1.01,0.03 -0.33,0 -0.68,-0.03 -1.01,-0.03 -0.06,0 -0.18,0 -0.18,0.2 0,0.11 0.1,0.11 0.18,0.11 0.57,0.01 0.68,0.22 0.68,0.44 0,0.02 -0.02,0.17 -0.03,0.2 l -1.12,4.42 -2.2,-5.18 c -0.08,-0.18 -0.09,-0.19 -0.32,-0.19 l -1.33,0 c -0.2,0 -0.29,0 -0.29,0.2 0,0.11 0.09,0.11 0.28,0.11 0.05,0 0.68,0 0.68,0.09 l -1.34,5.33 c -0.1,0.4 -0.27,0.72 -1.07,0.75 -0.06,0 -0.17,0.01 -0.17,0.2 0,0.07 0.05,0.1 0.13,0.1 0.32,0 0.67,-0.03 0.99,-0.03 0.34,0 0.7,0.03 1.03,0.03 0.05,0 0.18,0 0.18,-0.19 0,-0.1 -0.09,-0.11 -0.2,-0.11 -0.58,-0.02 -0.66,-0.24 -0.66,-0.44 0,-0.07 0.01,-0.12 0.04,-0.23 l 1.32,-5.24 c 0.03,0.06 0.03,0.08 0.08,0.18 l 2.48,5.85 c 0.07,0.16 0.1,0.18 0.19,0.18 0.11,0 0.11,-0.03 0.16,-0.2 z"
         inkscape:connector-curvature="0"
         style="font-style:normal;font-variant:normal;font-weight:normal;font-stretch:normal;letter-spacing:normal;word-spacing:normal;text-anchor:start;fill:#000000;fill-opacity:1;fill-rule:evenodd;stroke:#000000;stroke-width:0;stroke-linecap:butt;stroke-linejoin:miter;stroke-miterlimit:10.43299961;stroke-dasharray:none;stroke-dashoffset:0;stroke-opacity:1" />
      <path
         id="path5862-1"
         d="m 272.33817,569.6932 0.01,-0.03 0.01,-0.03 0.01,-0.03 0.01,-0.03 0.01,-0.03 0,-0.02 0.01,-0.03 0.01,-0.02 0.02,-0.02 0.01,-0.02 0.01,-0.02 0.02,-0.02 0.02,-0.02 0.02,-0.01 0.02,-0.02 0.02,-0.01 0.03,-0.02 0.03,-0.01 0.03,-0.01 0.04,-0.01 0.02,0 0.02,-0.01 0.02,0 0.02,-0.01 0.02,0 0.02,0 0.03,-0.01 0.02,0 0.03,0 0.02,0 0.03,-0.01 0.03,0 0.03,0 0.03,0 0.04,-0.01 0.03,0 0.03,0 0.04,0 0.04,0 0.03,0 0.04,0 0.04,0 0.05,0 0.04,0 c 0.3,0 0.38,0 0.38,-0.19 0,-0.12 -0.11,-0.12 -0.16,-0.12 -0.33,0 -1.15,0.03 -1.48,0.03 -0.29,0 -1.02,-0.03 -1.32,-0.03 -0.07,0 -0.19,0 -0.19,0.2 0,0.11 0.09,0.11 0.28,0.11 0.02,0 0.21,0 0.38,0.02 0.18,0.02 0.27,0.03 0.27,0.16 0,0.04 -0.01,0.07 -0.04,0.19 l -1.33,5.33 c -0.11,0.39 -0.13,0.47 -0.91,0.47 -0.17,0 -0.27,0 -0.27,0.2 0,0.1 0.09,0.1 0.27,0.1 l 4.61,0 c 0.23,0 0.25,0 0.3,-0.16 l 0.79,-2.15 c 0.04,-0.11 0.04,-0.13 0.04,-0.14 0,-0.04 -0.03,-0.11 -0.12,-0.11 -0.09,0 -0.1,0.05 -0.17,0.21 -0.34,0.91 -0.77,2.05 -2.5,2.05 l -0.93,0 c -0.14,0 -0.16,0 -0.22,-0.01 -0.1,-0.01 -0.13,-0.02 -0.13,-0.1 0,-0.03 0,-0.05 0.05,-0.23 z"
         inkscape:connector-curvature="0"
         style="font-style:normal;font-variant:normal;font-weight:normal;font-stretch:normal;letter-spacing:normal;word-spacing:normal;text-anchor:start;fill:#000000;fill-opacity:1;fill-rule:evenodd;stroke:#000000;stroke-width:0;stroke-linecap:butt;stroke-linejoin:miter;stroke-miterlimit:10.43299961;stroke-dasharray:none;stroke-dashoffset:0;stroke-opacity:1" />
      <path
         id="path5864-0"
         d="m 278.91817,575.9332 -0.24,0 c -0.02,0.16 -0.09,0.57 -0.18,0.64 -0.05,0.04 -0.59,0.04 -0.69,0.04 l -1.28,0 c 0.73,-0.65 0.98,-0.84 1.39,-1.17 0.52,-0.41 1,-0.84 1,-1.5 0,-0.84 -0.74,-1.36 -1.63,-1.36 -0.86,0 -1.45,0.61 -1.45,1.25 0,0.35 0.3,0.39 0.37,0.39 0.17,0 0.37,-0.12 0.37,-0.37 0,-0.13 -0.05,-0.37 -0.41,-0.37 0.22,-0.49 0.69,-0.65 1.02,-0.65 0.69,0 1.05,0.54 1.05,1.11 0,0.6 -0.43,1.08 -0.65,1.33 l -1.68,1.66 c -0.07,0.06 -0.07,0.07 -0.07,0.27 l 2.87,0 z"
         inkscape:connector-curvature="0"
         style="font-style:normal;font-variant:normal;font-weight:normal;font-stretch:normal;letter-spacing:normal;word-spacing:normal;text-anchor:start;fill:#000000;fill-opacity:1;fill-rule:evenodd;stroke:#000000;stroke-width:0;stroke-linecap:butt;stroke-linejoin:miter;stroke-miterlimit:10.43299961;stroke-dasharray:none;stroke-dashoffset:0;stroke-opacity:1" />
    </g>
    <g
       style="font-style:normal;font-variant:normal;font-weight:normal;font-stretch:normal;letter-spacing:normal;word-spacing:normal;text-anchor:start;fill:#000000;fill-opacity:1;fill-rule:evenodd;stroke:#000000;stroke-linecap:butt;stroke-linejoin:miter;stroke-miterlimit:10.43299961;stroke-dasharray:none;stroke-dashoffset:0;stroke-opacity:1"
       id="g6290"
       transform="matrix(4.9712454,0,0,-4.9712454,-607.93923,3971.5836)"
       xml:space="preserve"
       stroke-miterlimit="10.433"
       font-style="normal"
       font-variant="normal"
       font-weight="normal"
       font-stretch="normal"
       font-size-adjust="none"
       letter-spacing="normal"
       word-spacing="normal"
       ns0:text="$=$"
       ns0:preamble="C:\\Program Files\\Inkscape\\share\\extensions\\default_packages.tex"><path
         style="fill:#000000;stroke-width:0"
         inkscape:connector-curvature="0"
         d="m 155.55,710.37 0.03,0 0.02,0 0.03,0 0.02,0.01 0.01,0 0.02,0 0.01,0 0.02,0 0.01,0 0.01,0.01 0.02,0 0.01,0 0.01,0.01 0.01,0 0.02,0.01 0.01,0 0.01,0.01 0.01,0.01 0.01,0.01 0.01,0.01 0,0.01 0.01,0 0,0.01 0,0 0.01,0.01 0,0.01 0,0 0,0.01 0.01,0.01 0,0 0,0.01 0,0.01 0,0.01 0,0.01 0,0 0,0.01 0,0.01 c 0,0.2 -0.18,0.2 -0.32,0.2 l -5.96,0 c -0.14,0 -0.33,0 -0.33,-0.2 0,-0.2 0.19,-0.2 0.34,-0.2 z"
         id="path6292" /><path
         style="fill:#000000;stroke-width:0"
         inkscape:connector-curvature="0"
         d="m 155.56,708.45 0.01,0 0.01,0 0.03,0 0.03,0 0.01,0 0.02,0 0.01,0 0.01,0 0.02,0 0.01,0.01 0.02,0 0.01,0 0.01,0.01 0.01,0 0.02,0.01 0.01,0 0.01,0.01 0.01,0 0.01,0.01 0.01,0.01 0.01,0.01 0,0 0,0.01 0.01,0.01 0,0 0,0.01 0.01,0 0,0.01 0,0.01 0,0 0.01,0.01 0,0.01 0,0 0,0.01 0,0.01 0,0.01 0,0.01 0,0.01 0,0.01 c 0,0.19 -0.18,0.19 -0.33,0.19 l -5.94,0 c -0.15,0 -0.34,0 -0.34,-0.19 0,-0.2 0.19,-0.2 0.33,-0.2 z"
         id="path6294" /></g>    <g
       id="g5849"
       transform="translate(91.153881,172.80055)">
      <path
         id="path4742"
         d="m 295.15304,258.48312 -2.38,-5.26 c -0.11,-0.25 -0.22,-0.25 -0.44,-0.25 l -2.21,0 0,0.47 1.07,0 0,5.59 c 0,0.22 -0.01,0.23 -0.28,0.26 -0.24,0.03 -0.26,0.03 -0.54,0.03 l -0.25,0 0,0.47 c 0.38,-0.03 0.94,-0.03 1.33,-0.03 0.42,0 0.94,0 1.35,0.03 l 0,-0.47 -0.25,0 c -0.18,0 -0.35,-0.01 -0.53,-0.03 -0.29,-0.03 -0.3,-0.04 -0.3,-0.26 l 0,-5.46 0.01,0 2.71,5.97 c 0.09,0.2 0.21,0.25 0.32,0.25 0.2,0 0.27,-0.15 0.32,-0.24 l 2.77,-6.11 0.01,0 0,5.88 -1.07,0 0,0.47 c 0.35,-0.03 1.28,-0.03 1.69,-0.03 0.41,0 1.34,0 1.7,0.03 l 0,-0.47 -1.08,0 0,-5.88 1.08,0 0,-0.47 -2.2,0 c -0.22,0 -0.33,0 -0.44,0.25 z"
         inkscape:connector-curvature="0"
         style="font-style:normal;font-variant:normal;font-weight:normal;font-stretch:normal;letter-spacing:normal;word-spacing:normal;text-anchor:start;fill:#000000;fill-opacity:1;fill-rule:evenodd;stroke:#000000;stroke-width:0;stroke-linecap:butt;stroke-linejoin:miter;stroke-miterlimit:10.43299961;stroke-dasharray:none;stroke-dashoffset:0;stroke-opacity:1" />
      <path
         id="path4744"
         d="m 310.20304,256.54312 0.03,0 0.03,0 0.03,0 0.01,0 0.02,0 0.01,-0.01 0.01,0 0.02,0 0.01,0 0.02,0 0.01,-0.01 0.01,0 0.01,-0.01 0.02,0 0.01,-0.01 0.01,0 0.01,-0.01 0.01,-0.01 0.01,-0.01 0.01,0 0.01,-0.01 0,-0.01 0,-0.01 0.01,0 0,-0.01 0,0 0.01,-0.01 0,-0.01 0,0 0,-0.01 0,-0.01 0,-0.01 0.01,0 0,-0.01 0,-0.01 0,-0.01 0,-0.01 c 0,-0.2 -0.19,-0.2 -0.33,-0.2 l -5.96,0 c -0.14,0 -0.33,0 -0.33,0.2 0,0.2 0.19,0.2 0.34,0.2 z"
         inkscape:connector-curvature="0"
         style="font-style:normal;font-variant:normal;font-weight:normal;font-stretch:normal;letter-spacing:normal;word-spacing:normal;text-anchor:start;fill:#000000;fill-opacity:1;fill-rule:evenodd;stroke:#000000;stroke-width:0;stroke-linecap:butt;stroke-linejoin:miter;stroke-miterlimit:10.43299961;stroke-dasharray:none;stroke-dashoffset:0;stroke-opacity:1" />
      <path
         id="path4746"
         d="m 310.21304,258.47312 0.01,0 0.02,0 0.02,0 0.03,-0.01 0.02,0 0.01,0 0.01,0 0.02,0 0.01,0 0.01,0 0.02,-0.01 0.01,0 0.01,0 0.02,-0.01 0.01,0 0.01,-0.01 0.01,-0.01 0.01,0 0.01,-0.01 0.01,-0.01 0.01,-0.01 0,0 0.01,-0.01 0,0 0,-0.01 0.01,0 0,-0.01 0,-0.01 0.01,0 0,-0.01 0,-0.01 0,0 0,-0.01 0,-0.01 0.01,-0.01 0,-0.01 0,0 0,-0.01 0,-0.01 c 0,-0.2 -0.19,-0.2 -0.34,-0.2 l -5.94,0 c -0.15,0 -0.34,0 -0.34,0.2 0,0.2 0.19,0.2 0.33,0.2 z"
         inkscape:connector-curvature="0"
         style="font-style:normal;font-variant:normal;font-weight:normal;font-stretch:normal;letter-spacing:normal;word-spacing:normal;text-anchor:start;fill:#000000;fill-opacity:1;fill-rule:evenodd;stroke:#000000;stroke-width:0;stroke-linecap:butt;stroke-linejoin:miter;stroke-miterlimit:10.43299961;stroke-dasharray:none;stroke-dashoffset:0;stroke-opacity:1" />
      <polygon
         transform="matrix(1,0,0,-1,16.38304,951.47312)"
         id="polygon4748"
         points="302.61,682.84 300.54,682.84 300.54,705.58 302.61,705.58 302.61,706.13 299.99,706.13 299.99,682.3 302.61,682.3 "
         style="font-style:normal;font-variant:normal;font-weight:normal;font-stretch:normal;letter-spacing:normal;word-spacing:normal;text-anchor:start;fill:#000000;fill-opacity:1;fill-rule:evenodd;stroke:#000000;stroke-width:0;stroke-linecap:butt;stroke-linejoin:miter;stroke-miterlimit:10.43299961;stroke-dasharray:none;stroke-dashoffset:0;stroke-opacity:1" />
      <path
         id="path4750"
         d="m 328.70304,250.53312 0,-0.15 0,-0.15 -0.01,-0.15 -0.01,-0.14 0,-0.15 -0.02,-0.15 -0.01,-0.15 -0.02,-0.14 -0.02,-0.15 -0.03,-0.14 -0.03,-0.15 -0.04,-0.14 -0.04,-0.14 -0.05,-0.14 -0.06,-0.14 -0.03,-0.07 -0.03,-0.07 c -0.46,-0.96 -1.27,-1.12 -1.69,-1.12 -0.6,0 -1.33,0.26 -1.73,1.19 -0.32,0.68 -0.37,1.46 -0.37,2.25 0,0.75 0.04,1.64 0.45,2.4 0.43,0.8 1.15,1 1.64,1 l 0,-0.22 c -0.39,0 -0.98,-0.25 -1.16,-1.2 -0.11,-0.6 -0.11,-1.51 -0.11,-2.1 0,-0.63 0,-1.29 0.08,-1.83 0.19,-1.18 0.94,-1.27 1.19,-1.27 0.33,0 0.98,0.18 1.17,1.17 0.1,0.55 0.1,1.31 0.1,1.93 0,0.75 0,1.42 -0.11,2.06 -0.15,0.94 -0.71,1.24 -1.16,1.24 l 0,0 0,0.22 c 0.54,0 1.29,-0.21 1.73,-1.15 0.32,-0.69 0.37,-1.46 0.37,-2.25 z"
         inkscape:connector-curvature="0"
         style="font-style:normal;font-variant:normal;font-weight:normal;font-stretch:normal;letter-spacing:normal;word-spacing:normal;text-anchor:start;fill:#000000;fill-opacity:1;fill-rule:evenodd;stroke:#000000;stroke-width:0;stroke-linecap:butt;stroke-linejoin:miter;stroke-miterlimit:10.43299961;stroke-dasharray:none;stroke-dashoffset:0;stroke-opacity:1" />
      <path
         id="path4752"
         d="m 343.64304,250.53312 0,-0.15 0,-0.15 0,-0.15 -0.01,-0.14 -0.01,-0.15 -0.01,-0.15 -0.02,-0.15 -0.02,-0.14 -0.02,-0.15 -0.03,-0.14 -0.03,-0.15 -0.04,-0.14 -0.04,-0.14 -0.05,-0.14 -0.05,-0.14 -0.03,-0.07 -0.04,-0.07 c -0.45,-0.96 -1.27,-1.12 -1.69,-1.12 -0.59,0 -1.32,0.26 -1.73,1.19 -0.32,0.68 -0.37,1.46 -0.37,2.25 0,0.75 0.04,1.64 0.45,2.4 0.43,0.8 1.15,1 1.64,1 l 0,-0.22 c -0.39,0 -0.97,-0.25 -1.15,-1.2 -0.11,-0.6 -0.11,-1.51 -0.11,-2.1 0,-0.63 0,-1.29 0.08,-1.83 0.19,-1.18 0.93,-1.27 1.18,-1.27 0.33,0 0.99,0.18 1.18,1.17 0.1,0.55 0.1,1.31 0.1,1.93 0,0.75 0,1.42 -0.11,2.06 -0.15,0.94 -0.72,1.24 -1.17,1.24 l 0,0 0,0.22 c 0.54,0 1.3,-0.21 1.73,-1.15 0.32,-0.69 0.37,-1.46 0.37,-2.25 z"
         inkscape:connector-curvature="0"
         style="font-style:normal;font-variant:normal;font-weight:normal;font-stretch:normal;letter-spacing:normal;word-spacing:normal;text-anchor:start;fill:#000000;fill-opacity:1;fill-rule:evenodd;stroke:#000000;stroke-width:0;stroke-linecap:butt;stroke-linejoin:miter;stroke-miterlimit:10.43299961;stroke-dasharray:none;stroke-dashoffset:0;stroke-opacity:1" />
      <path
         id="path4754"
         d="m 327.05304,259.31312 0,-0.01 0,-0.01 0,-0.02 0,-0.01 0,0 0,-0.01 0,-0.01 0,-0.01 0,-0.01 0,-0.01 -0.01,-0.01 0,-0.01 0,0 0,-0.01 0,-0.01 0,0 0,-0.01 0,-0.01 0,-0.01 0,-0.01 -0.01,-0.01 0,-0.01 0,-0.01 -0.01,0 0,-0.01 -0.01,-0.01 0,0 -0.01,-0.01 -0.01,0 -0.01,-0.01 0,0 -0.01,0 0,0 -0.01,0 0,0 -0.01,0 -0.01,-0.01 0,0 -0.01,0 -0.01,0 0,0 -0.01,0 -0.01,0 -0.01,0 -0.01,0 0,0 -0.01,0 -0.01,0 -0.01,0 -0.01,0 -0.01,0 -0.01,0 c -0.62,0.64 -1.49,0.64 -1.81,0.64 l 0,0.3 c 0.2,0 0.78,0 1.3,-0.25 l 0,5.14 c 0,0.36 -0.03,0.48 -0.92,0.48 l -0.32,0 0,0.31 c 0.34,-0.04 1.21,-0.04 1.61,-0.04 0.4,0 1.26,0 1.61,0.04 l 0,-0.31 -0.32,0 c -0.89,0 -0.92,-0.11 -0.92,-0.48 z"
         inkscape:connector-curvature="0"
         style="font-style:normal;font-variant:normal;font-weight:normal;font-stretch:normal;letter-spacing:normal;word-spacing:normal;text-anchor:start;fill:#000000;fill-opacity:1;fill-rule:evenodd;stroke:#000000;stroke-width:0;stroke-linecap:butt;stroke-linejoin:miter;stroke-miterlimit:10.43299961;stroke-dasharray:none;stroke-dashoffset:0;stroke-opacity:1" />
      <path
         id="path4756"
         d="m 343.64304,262.49312 0,-0.15 0,-0.15 0,-0.15 -0.01,-0.15 -0.01,-0.15 -0.01,-0.14 -0.02,-0.15 -0.02,-0.15 -0.02,-0.14 -0.03,-0.15 -0.03,-0.14 -0.04,-0.15 -0.04,-0.14 -0.05,-0.14 -0.05,-0.14 -0.03,-0.07 -0.04,-0.07 c -0.45,-0.95 -1.27,-1.11 -1.69,-1.11 -0.59,0 -1.32,0.26 -1.73,1.18 -0.32,0.69 -0.37,1.46 -0.37,2.26 0,0.74 0.04,1.64 0.45,2.39 0.43,0.81 1.15,1 1.64,1 l 0,-0.21 c -0.39,0 -0.97,-0.25 -1.15,-1.21 -0.11,-0.59 -0.11,-1.51 -0.11,-2.09 0,-0.64 0,-1.29 0.08,-1.83 0.19,-1.18 0.93,-1.27 1.18,-1.27 0.33,0 0.99,0.18 1.18,1.16 0.1,0.56 0.1,1.31 0.1,1.94 0,0.74 0,1.42 -0.11,2.05 -0.15,0.95 -0.72,1.25 -1.17,1.25 l 0,0 0,0.21 c 0.54,0 1.3,-0.2 1.73,-1.15 0.32,-0.68 0.37,-1.46 0.37,-2.24 z"
         inkscape:connector-curvature="0"
         style="font-style:normal;font-variant:normal;font-weight:normal;font-stretch:normal;letter-spacing:normal;word-spacing:normal;text-anchor:start;fill:#000000;fill-opacity:1;fill-rule:evenodd;stroke:#000000;stroke-width:0;stroke-linecap:butt;stroke-linejoin:miter;stroke-miterlimit:10.43299961;stroke-dasharray:none;stroke-dashoffset:0;stroke-opacity:1" />
      <polygon
         transform="matrix(1,0,0,-1,16.38304,951.47312)"
         id="polygon4758"
         points="332.79,682.3 335.4,682.3 335.4,706.13 332.79,706.13 332.79,705.58 334.86,705.58 334.86,682.84 332.79,682.84 "
         style="font-style:normal;font-variant:normal;font-weight:normal;font-stretch:normal;letter-spacing:normal;word-spacing:normal;text-anchor:start;fill:#000000;fill-opacity:1;fill-rule:evenodd;stroke:#000000;stroke-width:0;stroke-linecap:butt;stroke-linejoin:miter;stroke-miterlimit:10.43299961;stroke-dasharray:none;stroke-dashoffset:0;stroke-opacity:1" />
    </g>
    <g
       id="g5828"
       transform="translate(94.099045,186.8173)">
      <path
         style="font-style:normal;font-variant:normal;font-weight:normal;font-stretch:normal;letter-spacing:normal;word-spacing:normal;text-anchor:start;fill:#000000;fill-opacity:1;fill-rule:evenodd;stroke:#000000;stroke-width:0;stroke-linecap:butt;stroke-linejoin:miter;stroke-miterlimit:10.43299961;stroke-dasharray:none;stroke-dashoffset:0;stroke-opacity:1"
         inkscape:connector-curvature="0"
         d="m 307.21728,215.12687 0.03,0 0.03,0 0.03,0 0.02,0 0.01,0 0.02,-0.01 0.01,0 0.01,0 0.02,0 0.01,0 0.01,-0.01 0.02,0 0.01,-0.01 0.01,0 0.01,-0.01 0.01,0 0.02,-0.01 0.01,-0.01 0,-0.01 0.01,0 0.01,-0.01 0,-0.01 0.01,-0.01 0,0 0,-0.01 0.01,0 0,-0.01 0,-0.01 0,0 0.01,-0.01 0,-0.01 0,-0.01 0,0 0,-0.01 0,-0.01 0,-0.01 0,-0.01 c 0,-0.2 -0.19,-0.2 -0.32,-0.2 l -5.97,0 c -0.13,0 -0.32,0 -0.32,0.2 0,0.2 0.19,0.2 0.33,0.2 z"
         id="path5154" />
      <path
         style="font-style:normal;font-variant:normal;font-weight:normal;font-stretch:normal;letter-spacing:normal;word-spacing:normal;text-anchor:start;fill:#000000;fill-opacity:1;fill-rule:evenodd;stroke:#000000;stroke-width:0;stroke-linecap:butt;stroke-linejoin:miter;stroke-miterlimit:10.43299961;stroke-dasharray:none;stroke-dashoffset:0;stroke-opacity:1"
         inkscape:connector-curvature="0"
         d="m 307.23728,217.05687 0.01,0 0.01,0 0.03,0 0.03,-0.01 0.01,0 0.01,0 0.02,0 0.01,0 0.02,0 0.01,0 0.01,-0.01 0.02,0 0.01,0 0.01,-0.01 0.01,0 0.01,-0.01 0.02,-0.01 0.01,0 0.01,-0.01 0,-0.01 0.01,-0.01 0.01,0 0,-0.01 0,0 0.01,-0.01 0,0 0,-0.01 0.01,-0.01 0,0 0,-0.01 0,-0.01 0.01,0 0,-0.01 0,-0.01 0,-0.01 0,-0.01 0,0 0,-0.01 0,-0.01 c 0,-0.2 -0.19,-0.2 -0.34,-0.2 l -5.94,0 c -0.14,0 -0.33,0 -0.33,0.2 0,0.2 0.19,0.2 0.32,0.2 z"
         id="path5156" />
      <polygon
         transform="matrix(1,0,0,-1,7.0372773,910.05687)"
         style="font-style:normal;font-variant:normal;font-weight:normal;font-stretch:normal;letter-spacing:normal;word-spacing:normal;text-anchor:start;fill:#000000;fill-opacity:1;fill-rule:evenodd;stroke:#000000;stroke-width:0;stroke-linecap:butt;stroke-linejoin:miter;stroke-miterlimit:10.43299961;stroke-dasharray:none;stroke-dashoffset:0;stroke-opacity:1"
         points="306.35,706.13 306.35,682.3 308.97,682.3 308.97,682.84 306.9,682.84 306.9,705.58 308.97,705.58 308.97,706.13 "
         id="polygon5158" />
      <path
         style="font-style:normal;font-variant:normal;font-weight:normal;font-stretch:normal;letter-spacing:normal;word-spacing:normal;text-anchor:start;fill:#000000;fill-opacity:1;fill-rule:evenodd;stroke:#000000;stroke-width:0;stroke-linecap:butt;stroke-linejoin:miter;stroke-miterlimit:10.43299961;stroke-dasharray:none;stroke-dashoffset:0;stroke-opacity:1"
         inkscape:connector-curvature="0"
         d="m 324.06728,205.93687 0,-0.01 0,-0.01 0,-0.01 0,-0.01 0,-0.01 0,-0.01 0,-0.01 0,-0.01 0,-0.01 0,0 0,-0.01 0,-0.01 0,-0.01 0,0 0,-0.01 0,-0.01 0,-0.01 0,0 -0.01,-0.01 0,-0.01 0,-0.01 0,-0.01 -0.01,-0.01 0,-0.01 -0.01,-0.01 0,0 -0.01,-0.01 -0.01,0 0,-0.01 -0.01,0 -0.01,0 0,0 -0.01,-0.01 0,0 -0.01,0 -0.01,0 0,0 -0.01,0 0,0 -0.01,0 -0.01,0 -0.01,0 0,0 -0.01,0 -0.01,-0.01 -0.01,0 -0.01,0 -0.01,0 -0.01,0 -0.01,0 -0.01,0 -0.01,0 c -0.62,0.64 -1.49,0.64 -1.81,0.64 l 0,0.31 c 0.2,0 0.79,0 1.31,-0.26 l 0,5.15 c 0,0.35 -0.03,0.47 -0.93,0.47 l -0.32,0 0,0.31 c 0.35,-0.03 1.22,-0.03 1.61,-0.03 0.4,0 1.27,0 1.61,0.03 l 0,-0.31 -0.31,0 c -0.9,0 -0.93,-0.11 -0.93,-0.47 z"
         id="path5160" />
      <path
         style="font-style:normal;font-variant:normal;font-weight:normal;font-stretch:normal;letter-spacing:normal;word-spacing:normal;text-anchor:start;fill:#000000;fill-opacity:1;fill-rule:evenodd;stroke:#000000;stroke-width:0;stroke-linecap:butt;stroke-linejoin:miter;stroke-miterlimit:10.43299961;stroke-dasharray:none;stroke-dashoffset:0;stroke-opacity:1"
         inkscape:connector-curvature="0"
         d="m 325.71728,221.07687 0,-0.15 0,-0.15 0,-0.15 -0.01,-0.15 -0.01,-0.15 -0.01,-0.14 -0.02,-0.15 -0.02,-0.15 -0.02,-0.14 -0.03,-0.15 -0.03,-0.14 -0.04,-0.15 -0.04,-0.14 -0.05,-0.14 -0.05,-0.14 -0.03,-0.07 -0.03,-0.07 c -0.46,-0.95 -1.28,-1.11 -1.7,-1.11 -0.59,0 -1.32,0.26 -1.73,1.18 -0.32,0.69 -0.37,1.46 -0.37,2.26 0,0.74 0.04,1.64 0.45,2.39 0.43,0.81 1.16,1 1.64,1 l 0,-0.21 c -0.38,0 -0.97,-0.25 -1.15,-1.21 -0.11,-0.59 -0.11,-1.51 -0.11,-2.09 0,-0.64 0,-1.29 0.08,-1.83 0.19,-1.18 0.93,-1.27 1.18,-1.27 0.33,0 0.99,0.18 1.18,1.16 0.1,0.56 0.1,1.31 0.1,1.94 0,0.74 0,1.42 -0.11,2.05 -0.15,0.95 -0.72,1.25 -1.17,1.25 l 0,0 0,0.21 c 0.54,0 1.3,-0.2 1.74,-1.15 0.31,-0.68 0.36,-1.46 0.36,-2.24 z"
         id="path5162" />
      <polygon
         transform="matrix(1,0,0,-1,7.0372773,910.05687)"
         style="font-style:normal;font-variant:normal;font-weight:normal;font-stretch:normal;letter-spacing:normal;word-spacing:normal;text-anchor:start;fill:#000000;fill-opacity:1;fill-rule:evenodd;stroke:#000000;stroke-width:0;stroke-linecap:butt;stroke-linejoin:miter;stroke-miterlimit:10.43299961;stroke-dasharray:none;stroke-dashoffset:0;stroke-opacity:1"
         points="326.28,705.58 326.28,682.84 324.21,682.84 324.21,682.3 326.83,682.3 326.83,706.13 324.21,706.13 324.21,705.58 "
         id="polygon5164" />
      <text
         xml:space="preserve"
         style="font-size:10px;font-style:normal;font-weight:normal;line-height:125%;letter-spacing:0px;word-spacing:0px;fill:#000000;fill-opacity:1;stroke:none;font-family:Times New Roman;-inkscape-font-specification:Times New Roman"
         x="290.11404"
         y="218.26147"
         id="text3184-1"
         sodipodi:linespacing="125%"><tspan
           sodipodi:role="line"
           id="tspan3186-7"
           x="290.11404"
           y="218.26147"
           style="font-weight:bold;-inkscape-font-specification:'Times New Roman, Bold'">E</tspan></text>
    </g>
    <g
       id="g5870"
       transform="translate(88.640885,165.68532)">
      <path
         id="path5582"
         d="m 312.75365,287.03785 0.03,0 0.03,0 0.03,0 0.02,0 0.01,0 0.01,0 0.02,0 0.01,-0.01 0.02,0 0.01,0 0.01,0 0.02,-0.01 0.01,0 0.01,-0.01 0.01,0 0.01,-0.01 0.01,-0.01 0.01,0 0.01,-0.01 0.01,-0.01 0.01,-0.01 0,-0.01 0.01,0 0,-0.01 0,0 0.01,-0.01 0,-0.01 0,0 0,-0.01 0.01,-0.01 0,-0.01 0,0 0,-0.01 0,-0.01 0,-0.01 0,-0.01 0,-0.01 c 0,-0.2 -0.19,-0.2 -0.33,-0.2 l -5.96,0 c -0.13,0 -0.32,0 -0.32,0.2 0,0.2 0.19,0.2 0.33,0.2 z"
         inkscape:connector-curvature="0"
         style="font-style:normal;font-variant:normal;font-weight:normal;font-stretch:normal;letter-spacing:normal;word-spacing:normal;text-anchor:start;fill:#000000;fill-opacity:1;fill-rule:evenodd;stroke:#000000;stroke-width:0;stroke-linecap:butt;stroke-linejoin:miter;stroke-miterlimit:10.43299961;stroke-dasharray:none;stroke-dashoffset:0;stroke-opacity:1" />
      <path
         id="path5584"
         d="m 312.76365,288.96785 0.02,0 0.01,0 0.03,0 0.03,0 0.01,0 0.01,0 0.02,-0.01 0.01,0 0.02,0 0.01,0 0.01,0 0.02,-0.01 0.01,0 0.01,-0.01 0.01,0 0.01,-0.01 0.01,0 0.01,-0.01 0.01,-0.01 0.01,-0.01 0.01,0 0.01,-0.01 0,0 0,-0.01 0.01,-0.01 0,0 0,-0.01 0.01,0 0,-0.01 0,-0.01 0,0 0.01,-0.01 0,-0.01 0,-0.01 0,0 0,-0.01 0,-0.01 0,-0.01 0,-0.01 c 0,-0.2 -0.19,-0.2 -0.34,-0.2 l -5.94,0 c -0.14,0 -0.33,0 -0.33,0.2 0,0.2 0.19,0.2 0.32,0.2 z"
         inkscape:connector-curvature="0"
         style="font-style:normal;font-variant:normal;font-weight:normal;font-stretch:normal;letter-spacing:normal;word-spacing:normal;text-anchor:start;fill:#000000;fill-opacity:1;fill-rule:evenodd;stroke:#000000;stroke-width:0;stroke-linecap:butt;stroke-linejoin:miter;stroke-miterlimit:10.43299961;stroke-dasharray:none;stroke-dashoffset:0;stroke-opacity:1" />
      <polygon
         transform="matrix(1,0,0,-1,19.19365,985.45785)"
         id="polygon5586"
         points="299.26,703.64 299.26,691.73 301.17,691.73 301.17,692.12 299.65,692.12 299.65,703.24 301.17,703.24 301.17,703.64 "
         style="font-style:normal;font-variant:normal;font-weight:normal;font-stretch:normal;letter-spacing:normal;word-spacing:normal;text-anchor:start;fill:#000000;fill-opacity:1;fill-rule:evenodd;stroke:#000000;stroke-width:0;stroke-linecap:butt;stroke-linejoin:miter;stroke-miterlimit:10.43299961;stroke-dasharray:none;stroke-dashoffset:0;stroke-opacity:1" />
      <path
         id="path5588"
         d="m 330.14365,287.00785 0,-0.15 0,-0.15 0,-0.15 -0.01,-0.14 -0.01,-0.15 -0.01,-0.15 -0.01,-0.15 -0.02,-0.14 -0.03,-0.15 -0.02,-0.14 -0.04,-0.15 -0.03,-0.14 -0.05,-0.14 -0.05,-0.14 -0.05,-0.14 -0.03,-0.07 -0.03,-0.07 c -0.46,-0.96 -1.28,-1.12 -1.7,-1.12 -0.59,0 -1.32,0.26 -1.73,1.19 -0.31,0.68 -0.36,1.46 -0.36,2.25 0,0.75 0.04,1.64 0.44,2.4 0.43,0.8 1.16,1 1.65,1 l 0,-0.22 c -0.39,0 -0.98,-0.25 -1.16,-1.2 -0.11,-0.6 -0.11,-1.51 -0.11,-2.1 0,-0.63 0,-1.29 0.08,-1.83 0.19,-1.18 0.94,-1.27 1.19,-1.27 0.32,0 0.98,0.18 1.17,1.16 0.1,0.56 0.1,1.32 0.1,1.94 0,0.75 0,1.42 -0.11,2.06 -0.15,0.94 -0.72,1.24 -1.16,1.24 l 0,0 0,0.22 c 0.53,0 1.29,-0.21 1.73,-1.15 0.31,-0.69 0.36,-1.46 0.36,-2.25 z"
         inkscape:connector-curvature="0"
         style="font-style:normal;font-variant:normal;font-weight:normal;font-stretch:normal;letter-spacing:normal;word-spacing:normal;text-anchor:start;fill:#000000;fill-opacity:1;fill-rule:evenodd;stroke:#000000;stroke-width:0;stroke-linecap:butt;stroke-linejoin:miter;stroke-miterlimit:10.43299961;stroke-dasharray:none;stroke-dashoffset:0;stroke-opacity:1" />
      <path
         id="path5590"
         d="m 343.44365,283.82785 0,-0.01 0,-0.01 0,-0.01 0,-0.01 0,-0.01 0,-0.01 0,-0.01 0,-0.01 0,-0.01 0,0 0,-0.01 0,-0.01 0,-0.01 -0.01,0 0,-0.01 0,-0.01 0,-0.01 0,0 0,-0.01 0,-0.01 -0.01,-0.01 0,-0.01 0,-0.01 -0.01,-0.01 0,-0.01 -0.01,0 0,-0.01 -0.01,0 -0.01,-0.01 -0.01,0 0,0 -0.01,0 0,-0.01 -0.01,0 0,0 -0.01,0 -0.01,0 0,0 -0.01,0 -0.01,0 0,0 -0.01,0 -0.01,0 -0.01,0 0,-0.01 -0.01,0 -0.01,0 -0.01,0 -0.01,0 -0.01,0 -0.01,0 -0.01,0 c -0.62,0.64 -1.49,0.64 -1.81,0.64 l 0,0.31 c 0.2,0 0.78,0 1.3,-0.26 l 0,5.15 c 0,0.35 -0.03,0.47 -0.93,0.47 l -0.31,0 0,0.31 c 0.34,-0.03 1.21,-0.03 1.61,-0.03 0.4,0 1.26,0 1.61,0.03 l 0,-0.31 -0.32,0 c -0.89,0 -0.92,-0.11 -0.92,-0.47 z"
         inkscape:connector-curvature="0"
         style="font-style:normal;font-variant:normal;font-weight:normal;font-stretch:normal;letter-spacing:normal;word-spacing:normal;text-anchor:start;fill:#000000;fill-opacity:1;fill-rule:evenodd;stroke:#000000;stroke-width:0;stroke-linecap:butt;stroke-linejoin:miter;stroke-miterlimit:10.43299961;stroke-dasharray:none;stroke-dashoffset:0;stroke-opacity:1" />
      <polygon
         transform="matrix(1,0,0,-1,19.19365,985.45785)"
         id="polygon5592"
         points="331.5,691.73 333.41,691.73 333.41,703.64 331.5,703.64 331.5,703.24 333.02,703.24 333.02,692.12 331.5,692.12 "
         style="font-style:normal;font-variant:normal;font-weight:normal;font-stretch:normal;letter-spacing:normal;word-spacing:normal;text-anchor:start;fill:#000000;fill-opacity:1;fill-rule:evenodd;stroke:#000000;stroke-width:0;stroke-linecap:butt;stroke-linejoin:miter;stroke-miterlimit:10.43299961;stroke-dasharray:none;stroke-dashoffset:0;stroke-opacity:1" />
    </g>
    <text
       xml:space="preserve"
       style="font-size:10px;font-style:normal;font-weight:normal;line-height:125%;letter-spacing:0px;word-spacing:0px;fill:#000000;fill-opacity:1;stroke:none;font-family:Times New Roman;-inkscape-font-specification:Times New Roman"
       x="226.5307"
       y="457.66107"
       id="text3184"
       sodipodi:linespacing="125%"><tspan
         sodipodi:role="line"
         id="tspan3186"
         x="226.5307"
         y="457.66107"
         style="font-weight:bold;-inkscape-font-specification:'Times New Roman, Bold'">E</tspan></text>
    <text
       xml:space="preserve"
       style="font-size:10px;font-style:normal;font-weight:normal;line-height:125%;letter-spacing:0px;word-spacing:0px;fill:#000000;fill-opacity:1;stroke:none;font-family:Times New Roman;-inkscape-font-specification:Times New Roman"
       x="333.49496"
       y="438.55392"
       id="text3188"
       sodipodi:linespacing="125%"><tspan
         sodipodi:role="line"
         id="tspan3190"
         x="333.49496"
         y="438.55392"
         style="font-weight:bold;-inkscape-font-specification:'Times New Roman, Bold'">O</tspan></text>
    <text
       xml:space="preserve"
       style="font-size:10px;font-style:normal;font-weight:normal;line-height:125%;letter-spacing:0px;word-spacing:0px;fill:#000000;fill-opacity:1;stroke:none;font-family:Times New Roman;-inkscape-font-specification:Times New Roman"
       x="383.47263"
       y="455.70377"
       id="text3188-4"
       sodipodi:linespacing="125%"><tspan
         sodipodi:role="line"
         id="tspan3190-0"
         x="383.47263"
         y="455.70377"
         style="font-weight:bold;-inkscape-font-specification:'Times New Roman, Bold'">O</tspan></text>
  </g>
</svg>
